objid	container	server_template_crc	cell_index	px	py	pz	qw	qx	qy	qz	scripts	objvars
i	i	h	i	f	f	f	f	f	f	f	s	p
2055804	0	object/tangible/camp/camp_tent_s2.iff	0	1962.51	12.2104	491.324	3.20013e-008	0	1	0		$|
2055805	0	object/tangible/camp/camp_spit_s2.iff	0	1967.91	11.8065	485.68	1	0	0	0		$|
2055807	0	object/tangible/camp/camp_lantern_s1.iff	0	1964.48	12.2474	489.833	1	0	0	0		$|
4605731	0	object/static/structure/dathomir/nsister_fence_style_01.iff	0	844.865	12	875.473	0.772798	0	-0.634652	0		$|
4605732	0	object/static/structure/dathomir/nsister_fence_style_01.iff	0	803.031	23.1635	955.022	0.775971	-0.0865345	0.624138	-0.0288375		$|
4605733	0	object/static/structure/dathomir/nsister_fence_style_01.iff	0	811.566	24.6396	955.901	0.688514	-0.0820665	0.719463	-0.0398115		$|
4605734	0	object/static/structure/dathomir/nsister_fence_style_01.iff	0	820.37	25.4062	955.327	0.688514	-0.082067	0.719463	-0.039812		$|
4605735	0	object/static/structure/dathomir/nsister_fence_style_01.iff	0	829.191	26.3776	954.805	0.687672	-0.0776637	0.721854	-0.00109764		$|
4605737	0	object/static/structure/dathomir/nsister_fence_style_01.iff	0	838.096	27.7303	954.237	0.683108	-0.10833	0.721214	0.0384341		$|
4605738	0	object/static/structure/dathomir/nsister_fence_style_01.iff	0	845.844	28.7346	952.379	0.522409	-0.0482345	0.846987	-0.0858711		$|
4605742	0	object/static/structure/dathomir/nsister_fence_style_01.iff	0	853.58	28.9517	947.908	0.522409	-0.048235	0.846987	-0.085871		$|
4605743	0	object/static/structure/dathomir/nsister_fence_style_01.iff	0	861.51	27.0516	944.365	0.522409	-0.048235	0.846987	-0.085871		$|
4605744	0	object/static/structure/dathomir/nsister_fence_style_01.iff	0	868.655	26.6753	939.342	0.42177	-0.038063	0.901337	-0.0908386		$|
4605746	0	object/static/structure/dathomir/nsister_fence_style_01.iff	0	875.663	25.4921	934.092	0.42177	-0.038063	0.901337	-0.090839		$|
4605747	0	object/static/structure/dathomir/nsister_fence_style_01.iff	0	882.508	24.327	928.31	0.41991	-0.0548988	0.904249	-0.0547225		$|
4605748	0	object/static/structure/dathomir/nsister_fence_style_01.iff	0	888.333	24.2024	921.671	0.336938	-0.0497585	0.93833	-0.0594348		$|
4605750	0	object/static/structure/dathomir/nsister_fence_style_01.iff	0	894.15	22.7937	915.19	0.336938	-0.049758	0.93833	-0.059435		$|
4605751	0	object/static/structure/dathomir/nsister_fence_style_01.iff	0	899.943	22.8733	908.39	0.346304	-0.0503499	0.934914	-0.0589345		$|
5565397	0	object/static/structure/dathomir/nsister_fence_style_01.iff	0	810.63	11.4631	922.027	0.978031	0	-0.20846	0		$|
5565398	0	object/static/structure/dathomir/nsister_fence_style_01.iff	0	815	10.9016	914.582	0.947651	0	-0.319309	0		$|
5565399	0	object/static/structure/dathomir/nsister_fence_style_01.iff	0	827.701	11.3089	906.268	0.872744	0	-0.488177	0		$|
5565400	0	object/static/structure/dathomir/nsister_fence_style_01.iff	0	835.51	11.3089	902.59	0.810963	0	-0.585097	0		$|
5565401	0	object/static/structure/dathomir/nsister_fence_style_01.iff	0	843.755	11.3675	899.977	0.777573	0	-0.628793	0		$|
5565402	0	object/static/structure/dathomir/nsister_fence_style_01.iff	0	852.453	11.3675	899.425	-0.667463	0	0.744643	0		$|
5565403	0	object/static/structure/dathomir/nsister_fence_style_01.iff	0	861.729	11.2851	900.079	-0.569417	0	0.822049	0		$|
5565404	0	object/static/structure/dathomir/nsister_fence_style_01.iff	0	869.065	13.2272	904.18	-0.491984	-0.100789	0.838662	-0.210806		$|
5565405	0	object/static/structure/dathomir/nsister_fence_style_01.iff	0	871.442	16.0884	906.052	0.902611	0	-0.430458	0		$|
5565406	0	object/static/structure/dathomir/nsister_fence_style_01.iff	0	878.71	16.0884	901.393	0.847255	0	-0.531187	0		$|
5565407	0	object/static/structure/dathomir/nsister_fence_style_01.iff	0	861.796	15.6484	920.193	0.984727	0	-0.174108	0		$|
5565408	0	object/static/structure/dathomir/nsister_fence_style_01.iff	0	865.634	15.6484	912.46	0.958244	0	-0.285953	0		$|
5565409	0	object/static/structure/dathomir/nsister_fence_style_01.iff	0	893.916	15.875	899.542	-0.613745	0	0.789505	0		$|
5565410	0	object/static/structure/dathomir/nsister_fence_style_01.iff	0	901.782	19.5111	903.703	-0.391608	-0.225223	0.844444	-0.287806		$|
5565411	0	object/static/structure/dathomir/nsister_fence_style_01.iff	0	810.491	15.9249	929.08	0.777571	0	-0.628795	0		$|
5565412	0	object/static/structure/dathomir/nsister_fence_style_01.iff	0	799.256	15.7089	935.465	0.952361	-0.0397543	-0.278372	0.11806		$|
5565413	0	object/static/structure/dathomir/nsister_fence_style_01.iff	0	797.065	15.7589	943.201	0.99388	0.00477484	0.043799	0.101299		$|
5565414	0	object/static/structure/dathomir/nsister_fence_style_01.iff	0	796.996	19.3185	952.343	0.917872	-0.33927	-0.0300927	-0.203716		$|
5565415	0	object/static/structure/dathomir/nsister_fence_style_01.iff	0	818.658	15.7442	929.248	0.76531	0.0630677	0.634482	0.0880708		$|
5565416	0	object/static/structure/dathomir/nsister_fence_style_01.iff	0	826.871	15.813	932.18	0.861483	-0.042735	0.50544	-0.0235025		$|
5565417	0	object/static/structure/dathomir/nsister_fence_style_01.iff	0	833.776	17.1462	937.141	0.883115	-0.0893139	0.460457	-0.0104728		$|
5565418	0	object/static/structure/dathomir/nsister_fence_style_01.iff	0	841.522	23.0752	936.867	0.949808	-0.058451	-0.20775	0.226467		$|
5565419	0	object/static/structure/dathomir/nsister_fence_style_01.iff	0	846.286	22.9414	930.813	0.849443	-0.10701	-0.486867	0.173077		$|
5565420	0	object/static/structure/dathomir/nsister_fence_style_01.iff	0	853.653	23.0042	929.003	0.677523	-0.197383	0.690396	-0.159234		$|
5565421	0	object/static/structure/general/tato_cave_stalagmite_tiny.iff	0	828.47	11.3163	908.214	0.940592	0.274509	-0.0559836	-0.191825		$|
5565422	0	object/static/structure/general/tato_cave_stalagmite_small.iff	0	845.218	11.4764	903.12	0.966787	0.243312	-0.0467874	-0.0627184		$|
5565423	0	object/static/structure/general/tato_cave_stalagmite_med.iff	0	850.476	19.6219	925.843	0.64046	-0.390013	-0.462139	0.473422		$|
5565424	0	object/static/structure/general/tato_cave_stalagmite_large.iff	0	851.638	11.4875	902.383	0.872206	0.291641	-0.363651	-0.148192		$|
5565425	0	object/static/structure/general/tato_cave_stalagmite_large.iff	0	858.28	23.1721	929.061	-0.32236	0.262567	0.908891	-0.0325469		$|
5565426	0	object/static/structure/general/tato_cave_stalagmite_med.iff	0	867.21	23.2862	935.768	0.957552	-0.199095	-0.0424356	0.204095		$|
5565427	0	object/static/structure/general/tato_cave_stalagmite_med.iff	0	857.136	19.4171	925.528	0.856147	-0.463167	0.145181	-0.17723		$|
5565429	0	object/static/structure/general/tato_cave_stalagmite_med.iff	0	839.739	24.2986	948.889	0.926027	-0.282776	0.243895	0.0550154		$|
5565430	0	object/static/structure/general/tato_cave_stalagmite_small.iff	0	838.489	23.5277	940.966	0.829569	0.307401	-0.465711	-0.020815		$|
5565431	0	object/static/structure/general/tato_cave_stalagmite_tiny.iff	0	837.998	23.7231	940.012	0.853851	-0.0798859	0.431778	0.279505		$|
5565432	0	object/static/structure/general/tato_cave_stalagmite_med.iff	0	801.043	16.1368	931.016	0.712959	-0.193069	-0.541883	0.400968		$|
5565433	0	object/static/structure/general/tato_cave_stalagmite_med.iff	0	798.754	16.8018	946.374	0.950751	0.0892997	0.269203	-0.125011		$|
5565442	0	object/static/structure/general/tato_cave_stalagmite_small.iff	0	807.348	16.363	927.562	0.70173	-0.347693	0.61002	-0.120667		$|
5565443	0	object/static/structure/general/tato_cave_stalagmite_small.iff	0	808.281	14.9129	926.826	0.0581973	0.0643136	0.942039	-0.324098		$|
5565444	0	object/static/structure/general/tato_cave_stalagmite_med.iff	0	817.237	11.3702	910.416	0.991558	-0.119667	0.010428	-0.0488191		$|
5565448	0	object/static/structure/general/tato_cave_stalagmite_small.iff	0	822.181	11.5629	906.497	-0.0131774	-0.133225	0.989343	0.0572549		$|
5565449	0	object/static/structure/general/tato_cave_stalagmite_small.iff	0	816.668	11.7438	908.768	0.977268	-0.167755	0.0219318	-0.127765		$|
5565450	0	object/static/structure/general/tato_cave_stalagmite_tiny.iff	0	821.826	11.7086	905.742	0.861218	-0.00623605	0.459363	0.217371		$|
5565451	0	object/static/structure/general/tato_cave_stalagmite_large.iff	0	823.496	10.7424	908.734	0.873356	0.0528787	-0.453317	0.170166		$|
5565452	0	object/static/structure/general/tato_cave_stalagmite_large.iff	0	818.578	10.9022	912.285	0.884182	-0.068647	-0.454172	-0.0850741		$|
5565454	0	object/static/structure/dathomir/nsister_fence_style_01.iff	0	816.431	11.5656	890.88	-0.543679	-0.0461085	0.837491	0.0299325		$|
5565455	0	object/static/structure/dathomir/nsister_fence_style_01.iff	0	792.761	11.8847	899.432	0.824087	0.0427174	-0.563789	-0.0346002		$|
5565456	0	object/static/structure/dathomir/nsister_fence_style_01.iff	0	784.922	11.3951	903.442	0.880998	0.0386609	-0.469915	-0.0390805		$|
5565457	0	object/static/structure/dathomir/nsister_fence_style_01.iff	0	767.697	11.6815	922.077	0.997409	-0.023641	-0.0644222	-0.0215736		$|
5565458	0	object/static/structure/dathomir/nsister_fence_style_01.iff	0	771.033	11.6644	913.928	0.952334	0	-0.305058	0		$|
5565459	0	object/static/structure/dathomir/nsister_fence_style_01.iff	0	777.391	11.6644	908.08	0.847256	0	-0.531185	0		$|
5565460	0	object/static/structure/dathomir/nsister_fence_style_01.iff	0	778.544	15.3984	943.383	0.874137	-0.0374487	0.476139	0.0881676		$|
5565461	0	object/static/structure/dathomir/nsister_fence_style_01.iff	0	772.045	13.9271	937.85	0.925606	-0.0703767	0.371681	0.0123737		$|
5565463	0	object/static/structure/dathomir/nsister_fence_style_01.iff	0	785.9	17.3345	947.693	0.842692	-0.106003	0.527126	-0.0277838		$|
5565464	0	object/static/structure/dathomir/nsister_fence_style_01.iff	0	792.584	18.9391	951.573	0.826249	-0.104571	0.539718	-0.122807		$|
5565465	0	object/static/structure/dathomir/nsister_fence_style_01.iff	0	768.198	12.7222	930.529	0.985348	-0.056479	0.137915	-0.0829411		$|
5565466	0	object/static/structure/general/tato_cave_stalagmite_med.iff	0	820.052	11.5636	893.49	0.982315	0.0559592	0.0261639	-0.176751		$|
5565467	0	object/static/structure/dathomir/nsister_fence_style_01.iff	0	838.159	11.6008	881.008	0.186246	0.132192	0.973241	0.025297		$|
5565468	0	object/static/structure/general/tato_cave_stalagmite_med.iff	0	836.661	11.4907	886.439	0.8874	-0.146202	-0.386211	0.204907		$|
5565469	0	object/static/structure/dathomir/nsister_fence_style_01.iff	0	808.322	11.2094	891.651	0.880998	0.038661	-0.469915	-0.039081		$|
5565470	0	object/static/structure/dathomir/nsister_fence_style_01.iff	0	800.791	11.4787	896.289	0.847256	0	-0.531185	0		$|
5565472	0	object/static/structure/dathomir/nsister_fence_style_01.iff	0	852.27	11.4308	872.903	0.785337	0	-0.619069	0		$|
5565474	0	object/static/structure/dathomir/nsister_fence_style_01.iff	0	868.783	11.4135	867.528	0.776397	0.0398153	-0.627842	-0.037903		$|
5565475	0	object/static/structure/dathomir/nsister_fence_style_01.iff	0	860.402	11.4521	870.256	0.840627	0.0354142	-0.538817	-0.0420456		$|
5565477	0	object/static/structure/dathomir/nsister_fence_style_01.iff	0	885.094	11.8019	869.624	-0.526822	-0.0251404	0.848196	0.0488859		$|
5565478	0	object/static/structure/dathomir/nsister_fence_style_01.iff	0	891.893	11.3436	874.927	-0.317763	-0.104723	0.940583	0.0580012		$|
5565479	0	object/static/structure/dathomir/nsister_fence_style_01.iff	0	899.203	12.9394	881.776	-0.277	-0.0778906	0.94721	-0.141415		$|
5565480	0	object/static/structure/dathomir/nsister_fence_style_01.iff	0	902.755	15.8031	889.473	-0.136397	-0.203001	0.957644	-0.152004		$|
5565481	0	object/static/structure/dathomir/nsister_fence_style_01.iff	0	901.635	17.6293	897.536	0.210883	-0.316141	0.923172	-0.057771		$|
5565483	0	object/static/structure/dathomir/nsister_fence_style_01.iff	0	877.351	11.6556	867.113	-0.681369	0.036542	0.730231	-0.0340969		$|
5565485	0	object/static/structure/general/tato_cave_stalagmite_small.iff	0	889.894	16.2861	898.219	0.83185	-0.424079	0.335837	-0.124082		$|
5565486	0	object/static/structure/general/tato_cave_stalagmite_med.iff	0	882.236	15.8972	898.802	0.962829	-0.214427	-0.160032	-0.0370183		$|
5565487	0	object/static/structure/general/tato_cave_stalagmite_tiny.iff	0	889.46	16.6794	898.184	0.714674	-0.281036	0.629431	0.118646		$|
5565488	0	object/static/structure/general/tato_cave_stalagmite_med.iff	0	834.984	11.3079	904.842	0.778781	0.25309	0.55298	0.153813		$|
5565489	0	object/static/structure/general/tato_cave_stalagmite_small.iff	0	860.653	11.2707	905.267	0.943707	0.262201	-0.0111865	0.201351		$|
5565490	0	object/static/structure/general/tato_cave_stalagmite_med.iff	0	840.225	19.6677	932.856	0.767518	-0.147191	-0.144329	0.606976		$|
5565491	0	object/static/structure/general/tato_cave_stalagmite_large.iff	0	844.956	18.9056	928.607	-0.176752	-0.15028	0.793862	-0.562101		$|
5565495	0	object/static/structure/tatooine/debris_tatt_drum_dented_1.iff	0	792.128	12.4863	903.293	-0.690125	0.154037	-0.154037	0.690125		$|
5565496	0	object/static/structure/tatooine/debris_tatt_drum_dented_1.iff	0	775.223	12.364	921.718	-0.688422	-0.161479	0.161478	0.688422		$|
5565497	0	object/static/structure/general/campfire_fresh.iff	0	787.637	12	916.029	1	0	0	0		$|
5565498	0	object/static/structure/general/campfire_ash.iff	0	779.918	12	925.313	1	0	0	0		$|
5565499	0	object/static/structure/general/skeleton_human_body.iff	0	791.621	12.1077	932.982	0.991041	-0.0825879	-0.0512487	0.0915953		$|
5565500	0	object/static/item/item_basket_shallow.iff	0	796.907	12	919.578	1	0	0	0		$|
5565501	0	object/static/item/item_basket_closed.iff	0	808.616	12.0684	892.723	0.93431	0.233799	-0.0275319	-0.267665		$|
5565502	0	object/static/item/item_basket_shallow.iff	0	808.096	12	893.758	1	0	0	0		$|
5565503	0	object/static/item/item_basket_closed.iff	0	781.97	12	927.75	1	0	0	0		$|
5565504	0	object/static/item/item_basket_closed.iff	0	785.459	12	914.175	1	0	0	0		$|
5565505	0	object/static/structure/general/skeleton_human_head.iff	0	776.557	12	921.859	0.874701	-0.317372	-0.133332	-0.341169		$|
5565506	0	object/building/endor/endor_tiki_torch.iff	0	816.33	11.9905	909.267	1	0	0	0		$|
5565507	0	object/building/endor/endor_tiki_torch.iff	0	821.932	12	906.015	1	0	0	0		$|
5565508	0	object/building/endor/endor_tiki_torch.iff	0	806.235	17.1603	929.364	0.996691	-0.0598733	-0.00329636	0.0548734		$|
5565511	0	object/static/item/item_basket_closed.iff	0	821.334	18	940.939	-0.174892	0	0.984588	0		$|
5565512	0	object/static/item/item_basket_closed.iff	0	818.804	18	940.013	0.755093	0	0.655617	0		$|
5565513	0	object/static/item/item_basket_closed.iff	0	819.643	18	940.725	0.975897	0	-0.21823	0		$|
5565514	0	object/static/item/item_basket_shallow.iff	0	820.48	18.2846	939.711	0.937129	0.26131	-0.00384708	0.23128		$|
5565515	0	object/building/endor/endor_tiki_torch.iff	0	830.903	17.9368	941.146	0.996691	-0.059873	-0.003296	0.054873		$|
5565516	0	object/static/structure/tatooine/debris_tatt_drum_dented_1.iff	0	793.263	12	901.007	-0.526266	0	0.85032	0		$|
5565517	0	object/static/structure/tatooine/debris_tatt_drum_dented_1.iff	0	794.776	12	900.42	0.973666	0	0.227977	0		$|
5565518	0	object/static/item/item_basket_closed.iff	0	804.793	12	896.044	1	0	0	0		$|
5565519	0	object/static/item/item_basket_closed.iff	0	806.632	12	894.531	0.934124	0	0.356949	0		$|
5565520	0	object/static/item/item_basket_closed.iff	0	806.274	12	895.533	0.934124	0	0.356949	0		$|
5565521	0	object/static/item/item_basket_shallow.iff	0	805.21	12.3489	894.932	0.929222	0.318904	-0.00534676	-0.186594		$|
5565522	0	object/building/endor/endor_tiki_torch.iff	0	849.522	25	936.445	0.999978	0	-0.00661766	0		$|
5565523	0	object/building/endor/endor_tiki_torch.iff	0	861.976	17.1753	924.62	0.995008	-0.0588846	-0.0113243	-0.0797713		$|
5565524	0	object/static/structure/general/tato_cave_stalagmite_tiny.iff	0	849.26	24.8306	936.833	-0.195839	-0.124049	0.971918	0.0404266		$|
5565525	0	object/static/structure/general/tato_cave_stalagmite_tiny.iff	0	852.749	24.796	935.197	0.914568	0.020992	0.350098	-0.201385		$|
5565526	0	object/static/structure/general/tato_cave_stalagmite_tiny.iff	0	848.77	24.7892	936.569	0.524427	-0.0512949	0.827958	-0.191911		$|
5565527	0	object/static/structure/general/tato_cave_stalagmite_tiny.iff	0	852.797	24.7867	934.541	0.729686	-0.137123	0.635432	-0.212088		$|
5565528	0	object/static/structure/general/tato_cave_stalagmite_tiny.iff	0	849.027	24.6961	935.985	0.924182	-0.181648	0.15928	0.295841		$|
5565529	0	object/static/structure/general/tato_cave_stalagmite_tiny.iff	0	852.329	24.7588	934.228	-0.131931	-0.250175	0.95682	-0.0670925		$|
5565530	0	object/static/structure/general/tato_cave_rock_med.iff	0	846.927	25	932.758	1	0	0	0		$|
5565531	0	object/static/structure/general/tato_cave_rock_med.iff	0	847.752	24.9862	930.63	0.926798	0	0	0.375559		$|
5565532	0	object/static/structure/general/tato_cave_rock_med.iff	0	849.812	24.9983	930.945	-0.491636	0.800447	-0.292186	0.179461		$|
5565533	0	object/static/structure/general/campfire_fresh.iff	0	848.247	25.0632	931.719	1	0	0	0		$|
5565534	0	object/static/structure/general/skeleton_human_head.iff	0	848.138	24.985	932.067	0.961994	-0.225244	-0.0351952	0.150315		$|
5565535	0	object/static/structure/general/skeleton_human_head.iff	0	848.355	24.9791	931.297	0.204428	-0.0778889	0.95732	0.188894		$|
5565536	0	object/static/structure/general/skeleton_human_body.iff	0	853.915	25	937.314	0.922997	0	0.384808	0		$|
5565537	0	object/static/item/item_basket_closed.iff	0	855.774	25	941.036	1	0	0	0		$|
5565538	0	object/static/item/item_basket_shallow.iff	0	852.541	25	942.224	1	0	0	0		$|
5565539	0	object/static/structure/general/skeleton_human_head.iff	0	821.164	9.00938	923.918	0.219841	0.398468	0.853693	0.253182		$|
5565540	0	object/static/structure/general/skeleton_human_head.iff	0	844.043	9	912.111	1	0	0	0		$|
5565541	0	object/static/structure/general/skeleton_human_body.iff	0	835.486	9	927.239	0.976976	0	-0.213347	0		$|
5565542	0	object/static/structure/general/skeleton_bith_headandbody.iff	0	816.665	9.26982	921.807	-0.111449	0.0438309	0.972327	0.200594		$|
5565543	0	object/static/structure/general/skeleton_human_body.iff	0	853.999	9	909.243	1	0	0	0		$|
5565544	0	object/static/structure/general/skeleton_bith_headandbody.iff	0	830.751	9.3933	909.698	-0.706908	-0.0725141	0.673062	0.204966		$|
5565545	0	object/static/structure/general/skeleton_bith_head.iff	0	835.908	9.04896	926.794	0.84426	-0.452733	-0.233968	0.165884		$|
5565546	0	object/static/structure/general/campfire_fresh.iff	0	873.94	12	878.644	1	0	0	0		$|
5565547	0	object/building/endor/endor_tiki_torch.iff	0	869.654	12	891.469	1	0	0	0		$|
5565548	0	object/building/endor/endor_tiki_torch.iff	0	888.816	16.9475	899.878	1	0	0	0		$|
5665352	0	object/static/item/item_basket_closed.iff	0	804.787	17.9824	935.468	0.755094	0	0.655616	0		$|
5665353	0	object/static/item/item_basket_closed.iff	0	876.371	17	915.279	0.755094	0	0.655616	0		$|
5665354	0	object/static/item/item_basket_closed.iff	0	870.902	17	919.744	0.755094	0	0.655616	0		$|
5665355	0	object/static/item/item_basket_shallow.iff	0	868.401	17	913.19	1	0	0	0		$|
5665356	0	object/static/structure/general/tato_cave_stalagmite_small.iff	0	866.01	17	909.245	0.943707	0.262201	-0.011186	0.201351		$|
5665357	0	object/static/item/item_basket_shallow.iff	0	888.728	17	905.845	1	0	0	0		$|
5665358	0	object/static/item/item_basket_shallow.iff	0	869.515	17.4427	912.126	0.870119	0.492436	0.0174047	0.00985004		$|
5665359	0	object/static/structure/general/skeleton_human_headandbody.iff	0	888.235	17	910.6	0.367014	0	0.930216	0		$|
5665360	0	object/static/item/item_basket_shallow.iff	0	881.402	17	903.575	1	0	0	0		$|
5665361	0	object/static/structure/general/skeleton_ithorian_head.iff	0	881.329	17.0949	903.427	1	0	0	0		$|
5665362	0	object/static/structure/general/skeleton_bith_head.iff	0	881.609	17.1265	903.199	0.379119	-0.0467417	0.8966	0.224036		$|
5665363	0	object/static/structure/general/skeleton_human_head.iff	0	881.582	17.0632	903.883	0.883971	-0.327692	0.312693	0.115917		$|
5665364	0	object/static/structure/general/skeleton_human_head.iff	0	896.28	12.069	878.45	-0.444049	0.0474412	0.885602	0.127586		$|
5665365	0	object/static/item/item_basket_closed.iff	0	885.883	12	884.656	1	0	0	0		$|
5665366	0	object/static/item/item_basket_shallow.iff	0	872.209	12.4743	875.956	0.860269	0	0	-0.509841		$|
5665367	0	object/static/item/item_basket_closed.iff	0	873.41	12	874.392	0.71791	0	-0.696136	0		$|
5665368	0	object/static/item/item_basket_closed.iff	0	874.114	12	875.147	0.9499	0.256358	0.019263	0.177764		$|
5665369	0	object/static/item/item_basket_closed.iff	0	861.952	12	893.563	0.928665	0	-0.37092	0		$|
5665370	0	object/static/structure/tatooine/debris_tatt_drum_dented_1.iff	0	874.277	12.4743	896.919	0.443009	0.447105	-0.546938	0.551996		$|
5665371	0	object/static/structure/tatooine/debris_tatt_drum_dented_1.iff	0	874.912	12.0516	895.812	0.635923	0	0.771752	0		$|
5665372	0	object/static/structure/tatooine/debris_tatt_drum_dented_1.iff	0	875.959	12.0574	895.57	-0.04578	0	0.998952	0		$|
5665373	0	object/static/structure/tatooine/debris_tatt_drum_dented_1.iff	0	875.547	13.178	895.854	-0.629412	0	0.777072	0		$|
5665374	0	object/static/structure/tatooine/debris_tatt_crate_metal_1.iff	0	854.635	25.7377	942.595	0.886876	-0.0637171	0.456949	-0.0242763		$|
5665375	0	object/static/item/item_basket_frame.iff	0	854.619	25	942.395	0.879969	0	0.475032	0		$|
5665376	0	object/static/item/item_basket_shallow.iff	0	854.64	25.6324	942.381	0.879969	0	0.475032	0		$|
9705386	0	object/static/structure/dantooine/dant_fence_8m.iff	0	1968.54	12.2273	489.189	0.87221	-0.0170827	0.487878	-0.0305398		$|
9705388	0	object/static/structure/dantooine/dant_fence_8m.iff	0	1962.6	12.6187	493.759	0.988771	0	0.149438	0		$|
9705389	0	object/static/structure/dantooine/dant_fence_8m.iff	0	1955.13	12.3349	493.294	0.97449	-0.00557708	-0.223037	0.0243673		$|
9705391	0	object/static/structure/dantooine/dant_fence_8m.iff	0	1949.74	12.3981	487.936	0.854743	0.0155502	-0.518185	-0.02565		$|
9705392	0	object/static/structure/dantooine/dant_fence_8m.iff	0	1950.1	12.507	481.093	-0.480124	0	0.8772	0		$|
9705393	0	object/static/structure/dantooine/dant_fence_8m.iff	0	1956.14	12.0535	477.799	0.998201	0	0	-0.059964		$|
9705394	0	object/static/structure/dantooine/dant_fence_8m.iff	0	1964.06	11.2949	476.162	0.980054	-0.0135086	0.19357	-0.0429086		$|
9705395	0	object/static/structure/dantooine/dant_fence_8m.iff	0	1970.13	11.4914	481.978	0.776785	-0.0282861	-0.628157	0.034979		$|
9705397	0	object/static/structure/dantooine/dant_gate.iff	0	1968.45	11.0298	476.427	0.453596	0	0.891207	0		$|
9705541	0	object/static/structure/general/trash_pile_s01.iff	0	440.753	205.43	1808.45	1	0	0	0		$|
9705543	0	object/static/structure/general/escape_pod.iff	0	440.68	203.726	1805.27	0.971338	0	0	-0.237703		$|
9705547	0	object/static/structure/general/escape_pod_door.iff	0	437.893	205.72	1809.25	-0.707107	0.707107	0	0		$|
