objid	container	server_template_crc	cell_index	px	py	pz	qw	qx	qy	qz	scripts	objvars
i	i	h	i	f	f	f	f	f	f	f	s	p
923849	0	object/tangible/hq_destructible/power_regulator.iff	0	552.112	75.9845	532.317	0.139543	0	0.990216	0		$|
2935404	0	object/building/military/military_base_police_station_imperial_style_01.iff	0	578.724	75.8264	483.749	1	0	0	0		$|
2935405	2935404	object/cell/cell.iff	1	0	0	0	1	1.401298E-45	0	0		$|
2935406	2935404	object/cell/cell.iff	2	0	0	0	1	2.802597E-45	0	0		$|
923853	2935406	object/tangible/terminal/terminal_hq.iff	2	3.034732	2.01	4.631375	-0.3993396	0	0.9168031	0		$|
2935407	2935404	object/cell/cell.iff	3	0	0	0	1	4.203895E-45	0	0		$|
2935408	2935404	object/cell/cell.iff	4	0	0	0	1	5.605194E-45	0	0		$|
2935409	2935404	object/cell/cell.iff	5	0	0	0	1	7.006492E-45	0	0		$|
7328122	2935409	object/tangible/collection/plant_20.iff	3	9.444101	1.01	-7.504934	1	0	0	0		$|
2935410	2935404	object/cell/cell.iff	6	0	0	0	1	8.407791E-45	0	0		$|
2935411	2935404	object/cell/cell.iff	7	0	0	0	1	9.809089E-45	0	0		$|
2935412	2935404	object/cell/cell.iff	8	0	0	0	1	1.121039E-44	0	0		$|
2935413	2935404	object/cell/cell.iff	9	0	0	0	1	1.261169E-44	0	0		$|
2935414	2935404	object/cell/cell.iff	10	0	0	0	1	1.401298E-44	0	0		$|
923854	2935414	object/tangible/hq_destructible/security_terminal.iff	10	-15.19718	7.009588	-9.321508	-3.200127E-08	0	1	0		$|
2935415	2935404	object/cell/cell.iff	11	0	0	0	1	1.541428E-44	0	0		$|
2935416	2935404	object/cell/cell.iff	12	0	0	0	1	1.681558E-44	0	0		$|
2935418	0	object/static/vehicle/static_tie_fighter.iff	0	571.853	92.86	476.24	1	0	0	0		$|
2935419	0	object/static/vehicle/static_tie_fighter.iff	0	584.103	92.86	476.304	1	0	0	0		$|
2935420	0	object/building/military/military_outpost_guard_house_imperial.iff	0	530	75.9697	516	1	0	0	0		$|
2935421	2935420	object/cell/cell.iff	1	0	0	0	1	1.401298E-45	0	0		$|
2935422	2935420	object/cell/cell.iff	2	0	0	0	1	2.802597E-45	0	0		$|
2935423	0	object/building/military/military_outpost_guard_house_imperial.iff	0	530	75.63949	446	0.7071074	0	-0.7071061	0		$|
2935424	2935423	object/cell/cell.iff	1	0	0	0	1	1.401298E-45	0	0		$|
2935425	2935423	object/cell/cell.iff	2	0	0	0	1	2.802597E-45	0	0		$|
2935426	0	object/building/military/military_outpost_guard_house_imperial.iff	0	630	75.90626	446	-3.200127E-08	0	1	0		$|
2935427	2935426	object/cell/cell.iff	1	0	0	0	1	1.401298E-45	0	0		$|
2935428	2935426	object/cell/cell.iff	2	0	0	0	1	2.802597E-45	0	0		$|
2935429	0	object/building/military/military_outpost_guard_house_imperial.iff	0	630	75.90575	516	0.7071074	0	0.7071061	0		$|
2935430	2935429	object/cell/cell.iff	1	0	0	0	1	1.401298E-45	0	0		$|
2935431	2935429	object/cell/cell.iff	2	0	0	0	1	2.802597E-45	0	0		$|
2935432	0	object/building/military/military_outpost_guard_tower_1.iff	0	518	75.8981	490	1	0	0	0		$|
2935433	0	object/building/military/military_outpost_guard_tower_1.iff	0	518	75.7382	474	1	0	0	0		$|
2935434	0	object/static/structure/military/military_column_strong_imperial_style_01.iff	0	524.137	75.993	508.705	0.707107	0	-0.707107	0		$|
2935436	0	object/static/structure/military/military_wall_strong_imperial_16_style_01.iff	0	521.341	75.9913	501.596	0.826633	0	-0.562742	0		$|
2935437	0	object/static/structure/military/military_column_strong_imperial_style_01.iff	0	518.268	75.9929	493.599	0.770992	0	-0.636845	0		$|
2935438	0	object/static/structure/military/military_column_strong_imperial_style_01.iff	0	519.462	76.0017	469.964	-0.678265	0	0.734818	0		$|
2935439	0	object/static/structure/military/military_wall_strong_imperial_16_style_01.iff	0	522.284	76	461.479	-0.587606	0	0.809147	0		$|
2935440	0	object/static/structure/military/military_column_strong_imperial_style_01.iff	0	525.061	76.0016	453.157	-0.510183	0	0.860066	0		$|
2935441	0	object/building/military/military_outpost_guard_tower_1.iff	0	639.899	75.9865	471.857	-3.20013e-008	0	1	0		$|
2935442	0	object/building/military/military_outpost_guard_tower_1.iff	0	639.899	75.3398	487.857	-3.20013e-008	0	1	0		$|
2935443	0	object/static/structure/military/military_column_strong_imperial_style_01.iff	0	633.763	76.2325	453.152	0.707107	0	0.707107	0		$|
2935444	0	object/static/structure/military/military_wall_strong_imperial_16_style_01.iff	0	636.559	76.2308	460.261	0.562742	0	0.826632	0		$|
2935445	0	object/static/structure/military/military_column_strong_imperial_style_01.iff	0	639.632	76.2323	468.259	0.636845	0	0.770992	0		$|
2935446	0	object/static/structure/military/military_column_strong_imperial_style_01.iff	0	638.437	76.2412	491.893	0.734816	0	0.678267	0		$|
2935447	0	object/static/structure/military/military_wall_strong_imperial_16_style_01.iff	0	635.616	76.2395	500.379	0.809147	0	0.587606	0		$|
2935448	0	object/static/structure/military/military_column_strong_imperial_style_01.iff	0	632.839	76.241	508.7	0.860066	0	0.510183	0		$|
2935450	0	object/building/military/military_outpost_guard_tower_1.iff	0	578.32	75.9507	421.674	-0.707107	0	0.707107	0		$|
2935451	0	object/static/structure/military/military_wall_strong_imperial_32_style_01.iff	0	560.769	75.9991	423.991	-0.0848977	0	0.99639	0		$|
2935452	0	object/static/structure/military/military_column_strong_imperial_style_01.iff	0	533.408	75.9901	438.74	-0.40319	0	0.915116	0		$|
2935453	0	object/static/structure/military/military_wall_strong_imperial_16_style_01.iff	0	539.332	75.8878	432.965	-0.382683	0	0.92388	0		$|
2935454	0	object/static/structure/military/military_column_strong_imperial_style_01.iff	0	545.248	75.9992	426.92	-0.360873	0	0.932615	0		$|
2935455	0	object/static/structure/military/military_column_strong_imperial_style_01.iff	0	574.454	75.9955	421.507	-0.148651	0	0.98889	0		$|
2935456	0	object/static/structure/military/military_column_strong_imperial_style_01.iff	0	622.939	75.994	441.464	-3.20013e-008	0	1	0		$|
2935457	0	object/static/structure/military/military_column_strong_imperial_style_01.iff	0	610.488	75.9375	429.567	0.17903	0	0.983844	0		$|
2935458	0	object/static/structure/military/military_wall_strong_imperial_16_style_01.iff	0	616.643	75.992	435.251	0.382683	0	0.92388	0		$|
2935459	0	object/static/structure/military/military_wall_strong_imperial_32_style_01.iff	0	595.455	75.9814	425.325	0.124675	0	0.992198	0		$|
2935460	0	object/static/structure/military/military_column_strong_imperial_style_01.iff	0	581.785	75.9979	421.567	0.271547	0	0.962425	0		$|
2935472	0	object/building/military/military_outpost_guard_tower_1.iff	0	581.736	74.8387	540.762	0.707107	0	0.707107	0		$|
2935473	0	object/static/structure/military/military_wall_strong_imperial_32_style_01.iff	0	599.288	76.0869	538.446	0.99639	0	0.0848981	0		$|
2935474	0	object/static/structure/military/military_column_strong_imperial_style_01.iff	0	626.648	76.0779	523.698	0.915116	0	0.40319	0		$|
2935475	0	object/static/structure/military/military_wall_strong_imperial_16_style_01.iff	0	620.726	75.9756	529.472	0.92388	0	0.382683	0		$|
2935476	0	object/static/structure/military/military_column_strong_imperial_style_01.iff	0	614.81	76.087	535.517	0.932615	0	0.360873	0		$|
2935477	0	object/static/structure/military/military_column_strong_imperial_style_01.iff	0	585.603	76.0833	540.93	0.98889	0	0.148651	0		$|
2935478	0	object/static/structure/military/military_column_strong_imperial_style_01.iff	0	549.568	76.0253	532.869	0.983844	0	-0.17903	0		$|
2935479	0	object/static/structure/military/military_wall_strong_imperial_16_style_01.iff	0	543.413	76.0798	527.185	0.92388	0	-0.382683	0		$|
2935480	0	object/static/structure/military/military_wall_strong_imperial_32_style_01.iff	0	564.602	76.0692	537.111	0.992198	0	-0.124675	0		$|
2935481	0	object/static/structure/military/military_column_strong_imperial_style_01.iff	0	578.271	76.0857	540.869	0.962425	0	-0.271547	0		$|
2935482	0	object/static/structure/military/military_column_strong_imperial_style_01.iff	0	537.117	76.0818	520.973	1	0	0	0		$|
2935486	0	object/static/structure/military/military_wall_med_imperial_32_style_01.iff	0	624.188	76	480.902	0.707107	0	0.707106	0		$|
2935487	0	object/static/structure/military/military_column_med_imperial_style_01.iff	0	624.206	75.9995	464.374	1	0	0	0		$|
2935488	0	object/static/structure/military/military_column_med_imperial_style_01.iff	0	624.184	76	497.802	1	0	0	0		$|
2935489	0	object/static/structure/military/military_wall_med_imperial_32_style_01.iff	0	533.685	76.0005	481.396	0.707107	0	0.707107	0		$|
2935490	0	object/static/structure/military/military_column_med_imperial_style_01.iff	0	533.704	76	464.868	1	0	0	0		$|
2935491	0	object/static/structure/military/military_column_med_imperial_style_01.iff	0	533.682	76.0005	498.296	1	0	0	0		$|
2935492	0	object/building/military/military_base_shed_imperial_barracks_s01.iff	0	600.942	75.9913	529.669	-0.0848977	0	0.99639	0		$|
2935493	2935492	object/cell/cell.iff	1	0	0	0	1	1.401298E-45	0	0		$|
2935494	2935492	object/cell/cell.iff	2	0	0	0	1	2.802597E-45	0	0		$|
2935495	2935492	object/cell/cell.iff	3	0	0	0	1	4.203895E-45	0	0		$|
2935496	2935492	object/cell/cell.iff	4	0	0	0	1	5.605194E-45	0	0		$|
7326070	2935496	object/tangible/collection/storm_trooper_leggings.iff	4	2.410377	-0.136508	4.355163	0.5861354	0	0.7818655	0.002358019		$|
2935497	2935492	object/cell/cell.iff	5	0	0	0	1	7.006492E-45	0	0		$|
2935498	2935492	object/cell/cell.iff	6	0	0	0	1	8.407791E-45	0	0		$|
923847	2935498	object/tangible/hq_destructible/override_terminal.iff	6	-2.953927	0.125266	-0.1444933	-3.200127E-08	0	1	0		$|
2935506	0	object/static/vehicle/static_tie_bomber.iff	0	566.171	75.9997	530.824	0.124675	0	0.992198	0		$|
2935508	0	object/static/structure/general/landing_pad_shuttle.iff	0	563.597	75.9998	530.243	0.789748	0	0.613432	0		$|
2935511	0	object/static/creature/droids_r5.iff	0	564.05	76	528.153	-0.453596	0	0.891207	0		$|
2935514	0	object/static/particle/pt_poi_droid_weld_sparks.iff	0	563.871	76.6	528.058	0.703653	-0.185409	-0.178209	0.662372		$|
2935515	0	object/static/structure/corellia/corl_power_transformer_s01.iff	0	555.552	75.9981	530.974	0.119712	-2.47601e-005	0.992809	0.000416036		$|
2935516	0	object/static/structure/corellia/corl_power_bubble_node.iff	0	556.901	76.3833	525.626	0.992809	0	-0.119712	0		$|
2935517	0	object/static/structure/corellia/corl_power_connector.iff	0	556.623	76.0176	526.858	0.789992	0	0.613117	0		$|
3475363	0	object/building/military/military_base_shed_imperial_barracks_s01.iff	0	588.978	76	435.61	1	0	0	0		$|
3475364	3475363	object/cell/cell.iff	1	0	0	0	1	1.401298E-45	0	0		$|
3475365	3475363	object/cell/cell.iff	2	0	0	0	1	2.802597E-45	0	0		$|
3475366	3475363	object/cell/cell.iff	3	0	0	0	1	4.203895E-45	0	0		$|
3475367	3475363	object/cell/cell.iff	4	0	0	0	1	5.605194E-45	0	0		$|
3475368	3475363	object/cell/cell.iff	5	0	0	0	1	7.006492E-45	0	0		$|
923848	3475368	object/tangible/hq_destructible/uplink_terminal.iff	5	5.514453	0.125266	-3.865638	0.7071069	0	-0.7071065	0		$|
3475369	3475363	object/cell/cell.iff	6	0	0	0	1	8.407791E-45	0	0		$|
3475370	0	object/building/military/military_base_shed_imperial_style_officer_s01.iff	0	565.865	76	435.61	1	0	0	0		$|
3475371	3475370	object/cell/cell.iff	1	0	0	0	1	1.401298E-45	0	0		$|
3475372	3475370	object/cell/cell.iff	2	0	0	0	1	2.802597E-45	0	0		$|
3475373	3475370	object/cell/cell.iff	3	0	0	0	1	4.203895E-45	0	0		$|
3475374	3475370	object/cell/cell.iff	4	0	0	0	1	5.605194E-45	0	0		$|
3475375	3475370	object/cell/cell.iff	5	0	0	0	1	7.006492E-45	0	0		$|
3475376	3475370	object/cell/cell.iff	6	0	0	0	1	8.407791E-45	0	0		$|
9715926	0	object/static/structure/corellia/corl_fountain_brazier_square_s01.iff	0	1291.02	114.507	1891.04	0.941075	0	0.338197	0		$|
9715923	0	object/building/naboo/filler_building_naboo_theed_style_8.iff	0	1291.01	81.0771	1890.84	0.937647	0	0.34759	0		$|
