component	engine	booster	weapon_0	weapon_1	weapon_2	modification_0
s	s	s	s	s	s	s
collection_reward_booster_01_mk1		"xwing_booster_s02_pos:booster_pos1,xwing_booster_s02_neg:booster_neg1"				
collection_reward_booster_01_mk2		"xwing_booster_s02_pos:booster_pos1,xwing_booster_s02_neg:booster_neg1"				
collection_reward_booster_01_mk3		"xwing_booster_s02_pos:booster_pos1,xwing_booster_s02_neg:booster_neg1"				
collection_reward_booster_01_mk4		"xwing_booster_s02_pos:booster_pos1,xwing_booster_s02_neg:booster_neg1"				
collection_reward_booster_01_mk5		"xwing_booster_s02_pos:booster_pos1,xwing_booster_s02_neg:booster_neg1"				
bst_corellian_advanced_thrust_enhancer		"xwing_booster_s01_pos:booster_pos1,xwing_booster_s01_neg:booster_neg1"				
bst_corellian_elite_thrust_enhancer		"xwing_booster_s01_pos:booster_pos1,xwing_booster_s01_neg:booster_neg1"				
bst_corellian_experimental_tjh3		"xwing_booster_s01_pos:booster_pos1,xwing_booster_s01_neg:booster_neg1"				
bst_corellian_heavy_thrust_enhancer		"xwing_booster_s02_pos:booster_pos1,xwing_booster_s02_neg:booster_neg1"				
bst_corellian_highly_modified_elite_thrust_enhancer		"xwing_booster_s01_pos:booster_pos1,xwing_booster_s01_neg:booster_neg1"				
bst_corellian_performance_advanced_thrust_enhancer		"xwing_booster_s01_pos:booster_pos1,xwing_booster_s01_neg:booster_neg1"				
bst_corellian_promotional_standard_thrust_enhancer		"xwing_booster_s01_pos:booster_pos1,xwing_booster_s01_neg:booster_neg1"				
bst_corellian_standard_thrust_enhancer		"xwing_booster_s01_pos:booster_pos1,xwing_booster_s01_neg:booster_neg1"				
bst_corellian_tjh3		"xwing_booster_s01_pos:booster_pos1,xwing_booster_s01_neg:booster_neg1"				
bst_corellian_tuned_heavy_thrust_enhancer		"xwing_booster_s02_pos:booster_pos1,xwing_booster_s02_neg:booster_neg1"
bst_cygnus_flashboost3		"xwing_booster_s01_pos:booster_pos1,xwing_booster_s01_neg:booster_neg1"
bst_cygnus_flashboost4		"xwing_booster_s01_pos:booster_pos1,xwing_booster_s01_neg:booster_neg1"
bst_elite_booster		"xwing_booster_s01_pos:booster_pos1,xwing_booster_s01_neg:booster_neg1"
bst_freitek_outrunner_x1		"xwing_booster_s01_pos:booster_pos1,xwing_booster_s01_neg:booster_neg1"
bst_gallofree_light		"xwing_booster_s01_pos:booster_pos1,xwing_booster_s01_neg:booster_neg1"
bst_generic		"xwing_booster_s01_pos:booster_pos1,xwing_booster_s01_neg:booster_neg1"
bst_incom_deluxe_fynock		"xwing_booster_s01_pos:booster_pos1,xwing_booster_s01_neg:booster_neg1"
bst_incom_elite_sls_1		"xwing_booster_s01_pos:booster_pos1,xwing_booster_s01_neg:booster_neg1"
bst_incom_enhanced_mynock		"xwing_booster_s01_pos:booster_pos1,xwing_booster_s01_neg:booster_neg1"
bst_incom_fynock		"xwing_booster_s01_pos:booster_pos1,xwing_booster_s01_neg:booster_neg1"
bst_incom_intimidator_mk1		"xwing_booster_s01_pos:booster_pos1,xwing_booster_s01_neg:booster_neg1"
bst_incom_intimidator_mk2		"xwing_booster_s01_pos:booster_pos1,xwing_booster_s01_neg:booster_neg1"
bst_incom_intimidator_mk3		"xwing_booster_s01_pos:booster_pos1,xwing_booster_s01_neg:booster_neg1"
bst_incom_intimidator_mk4		"xwing_booster_s01_pos:booster_pos1,xwing_booster_s01_neg:booster_neg1"
bst_incom_mynock		"xwing_booster_s01_pos:booster_pos1,xwing_booster_s01_neg:booster_neg1"
bst_incom_nkj31		"xwing_booster_s01_pos:booster_pos1,xwing_booster_s01_neg:booster_neg1"
bst_incom_performance_nkj31		"xwing_booster_s01_pos:booster_pos1,xwing_booster_s01_neg:booster_neg1"
bst_incom_sls_1		"xwing_booster_s01_pos:booster_pos1,xwing_booster_s01_neg:booster_neg1"
bst_incom_supercharged_vynock		"xwing_booster_s02_pos:booster_pos1,xwing_booster_s02_neg:booster_neg1"
bst_incom_vynock		"xwing_booster_s01_pos:booster_pos1,xwing_booster_s01_neg:booster_neg1"
bst_kde_br12		"xwing_booster_s01_pos:booster_pos1,xwing_booster_s01_neg:booster_neg1"
bst_kessel_imperial_cygnus_hyperthrust		"xwing_booster_s01_pos:booster_pos1,xwing_booster_s01_neg:booster_neg1"
bst_kessel_imperial_sds_experimental_b7		"xwing_booster_s01_pos:booster_pos1,xwing_booster_s01_neg:booster_neg1"
bst_kessel_imperial_sfs_ultra_thrust		"xwing_booster_s01_pos:booster_pos1,xwing_booster_s01_neg:booster_neg1"
bst_kessel_rebel_incom_quicksilver		"xwing_booster_s01_pos:booster_pos1,xwing_booster_s01_neg:booster_neg1"
bst_kessel_rebel_incom_windrunner		"xwing_booster_s01_pos:booster_pos1,xwing_booster_s01_neg:booster_neg1"
bst_kessel_rebel_mandal_lightning_m1		"xwing_booster_s01_pos:booster_pos1,xwing_booster_s01_neg:booster_neg1"
bst_koensayr_advanced		"xwing_booster_s01_pos:booster_pos1,xwing_booster_s01_neg:booster_neg1"
bst_koensayr_charged_advanced		"xwing_booster_s01_pos:booster_pos1,xwing_booster_s01_neg:booster_neg1"
bst_koensayr_deluxe_elite		"xwing_booster_s01_pos:booster_pos1,xwing_booster_s01_neg:booster_neg1"
bst_koensayr_elite		"xwing_booster_s01_pos:booster_pos1,xwing_booster_s01_neg:booster_neg1"
bst_koensayr_evh12		"xwing_booster_s01_pos:booster_pos1,xwing_booster_s01_neg:booster_neg1"
bst_koensayr_heavy		"xwing_booster_s02_pos:booster_pos1,xwing_booster_s02_neg:booster_neg1"
bst_koensayr_modified_heavy		"xwing_booster_s02_pos:booster_pos1,xwing_booster_s02_neg:booster_neg1"
bst_koensayr_racer_mk1		"xwing_booster_s02_pos:booster_pos1,xwing_booster_s02_neg:booster_neg1"
bst_koensayr_racer_mk2		"xwing_booster_s02_pos:booster_pos1,xwing_booster_s02_neg:booster_neg1"
bst_koensayr_racer_mk3		"xwing_booster_s02_pos:booster_pos1,xwing_booster_s02_neg:booster_neg1"
bst_koensayr_racer_mk4		"xwing_booster_s02_pos:booster_pos1,xwing_booster_s02_neg:booster_neg1"
bst_koensayr_special_evh12		"xwing_booster_s01_pos:booster_pos1,xwing_booster_s01_neg:booster_neg1"
bst_koensayr_improved_standard		"xwing_booster_s01_pos:booster_pos1,xwing_booster_s01_neg:booster_neg1"
bst_koensayr_standard		"xwing_booster_s01_pos:booster_pos1,xwing_booster_s01_neg:booster_neg1"
bst_kse_als_1		"xwing_booster_s01_pos:booster_pos1,xwing_booster_s01_neg:booster_neg1"
bst_kse_bti1		"xwing_booster_s01_pos:booster_pos1,xwing_booster_s01_neg:booster_neg1"
bst_kse_bti2		"xwing_booster_s01_pos:booster_pos1,xwing_booster_s01_neg:booster_neg1"
bst_kse_bti3		"xwing_booster_s01_pos:booster_pos1,xwing_booster_s01_neg:booster_neg1"
bst_kse_cb6		"xwing_booster_s01_pos:booster_pos1,xwing_booster_s01_neg:booster_neg1"
bst_kse_deluxe_bti3		"xwing_booster_s01_pos:booster_pos1,xwing_booster_s01_neg:booster_neg1"
bst_kse_elite_als_1		"xwing_booster_s01_pos:booster_pos1,xwing_booster_s01_neg:booster_neg1"
bst_kse_enhanced_bti2		"xwing_booster_s01_pos:booster_pos1,xwing_booster_s01_neg:booster_neg1"
bst_kse_performance_bti1		"xwing_booster_s01_pos:booster_pos1,xwing_booster_s01_neg:booster_neg1"
bst_kse_performance_cb6		"xwing_booster_s01_pos:booster_pos1,xwing_booster_s01_neg:booster_neg1"
bst_kuat_military_mk1		"xwing_booster_s02_pos:booster_pos1,xwing_booster_s02_neg:booster_neg1"
bst_kuat_military_mk2		"xwing_booster_s02_pos:booster_pos1,xwing_booster_s02_neg:booster_neg1"
bst_kuat_military_mk3		"xwing_booster_s01_pos:booster_pos1,xwing_booster_s01_neg:booster_neg1"
bst_kuat_military_mk4		"xwing_booster_s02_pos:booster_pos1,xwing_booster_s02_neg:booster_neg1"
bst_mandal_deluxe_jbj_mk4		"xwing_booster_s01_pos:booster_pos1,xwing_booster_s01_neg:booster_neg1"
bst_mandal_enhanced_jbj_mk1		"xwing_booster_s01_pos:booster_pos1,xwing_booster_s01_neg:booster_neg1"
bst_mandal_improved_jbj_mk3		"xwing_booster_s01_pos:booster_pos1,xwing_booster_s01_neg:booster_neg1"
bst_mandal_jbj_mk1		"xwing_booster_s01_pos:booster_pos1,xwing_booster_s01_neg:booster_neg1"
bst_mandal_jbj_mk2		"xwing_booster_s01_pos:booster_pos1,xwing_booster_s01_neg:booster_neg1"
bst_mandal_jbj_mk3		"xwing_booster_s01_pos:booster_pos1,xwing_booster_s01_neg:booster_neg1"
bst_mandal_jbj_mk4		"xwing_booster_s01_pos:booster_pos1,xwing_booster_s01_neg:booster_neg1"
bst_mandal_jbj_mk5		"xwing_booster_s01_pos:booster_pos1,xwing_booster_s01_neg:booster_neg1"
bst_mandal_limited_jbj_mk5		"xwing_booster_s01_pos:booster_pos1,xwing_booster_s01_neg:booster_neg1"
bst_mandal_modified_jbj_mk2		"xwing_booster_s01_pos:booster_pos1,xwing_booster_s01_neg:booster_neg1"
bst_mission_reward_imperial_rss_ion_booster		"xwing_booster_s02_pos:booster_pos1,xwing_booster_s02_neg:booster_neg1"
bst_mission_reward_neutral_mandal_m_series		"xwing_booster_s02_pos:booster_pos1,xwing_booster_s02_neg:booster_neg1"
bst_mission_reward_neutral_mandal_q_series		"xwing_booster_s02_pos:booster_pos1,xwing_booster_s02_neg:booster_neg1"
bst_mission_reward_rebel_novaldex_hypernova		"xwing_booster_s02_pos:booster_pos1,xwing_booster_s02_neg:booster_neg1"
bst_mission_reward_rebel_qualdex_halcyon		"xwing_booster_s02_pos:booster_pos1,xwing_booster_s02_neg:booster_neg1"
bst_mk1		"xwing_booster_s01_pos:booster_pos1,xwing_booster_s01_neg:booster_neg1"
bst_mk2		"xwing_booster_s01_pos:booster_pos1,xwing_booster_s01_neg:booster_neg1"
bst_mk3		"xwing_booster_s02_pos:booster_pos1,xwing_booster_s02_neg:booster_neg1"
bst_mk4		"xwing_booster_s02_pos:booster_pos1,xwing_booster_s02_neg:booster_neg1"
bst_mk5		"xwing_booster_s02_pos:booster_pos1,xwing_booster_s02_neg:booster_neg1"
bst_moncal_advanced		"xwing_booster_s01_pos:booster_pos1,xwing_booster_s01_neg:booster_neg1"
bst_moncal_charged_heavy		"xwing_booster_s01_pos:booster_pos1,xwing_booster_s01_neg:booster_neg1"
bst_moncal_deluxe_standard		"xwing_booster_s01_pos:booster_pos1,xwing_booster_s01_neg:booster_neg1"
bst_moncal_elite		"xwing_booster_s01_pos:booster_pos1,xwing_booster_s01_neg:booster_neg1"
bst_moncal_enhanced_elite		"xwing_booster_s01_pos:booster_pos1,xwing_booster_s01_neg:booster_neg1"
bst_moncal_heavy		"xwing_booster_s01_pos:booster_pos1,xwing_booster_s01_neg:booster_neg1"
bst_moncal_jlc37		"xwing_booster_s01_pos:booster_pos1,xwing_booster_s01_neg:booster_neg1"
bst_moncal_limited_jlc37		"xwing_booster_s01_pos:booster_pos1,xwing_booster_s01_neg:booster_neg1"
bst_moncal_rare_advanced		"xwing_booster_s01_pos:booster_pos1,xwing_booster_s01_neg:booster_neg1"
bst_moncal_standard		"xwing_booster_s01_pos:booster_pos1,xwing_booster_s01_neg:booster_neg1"
bst_nova_breaker		"xwing_booster_s01_pos:booster_pos1,xwing_booster_s01_neg:booster_neg1"
bst_novaldex_pulsar		"xwing_booster_s01_pos:booster_pos1,xwing_booster_s01_neg:booster_neg1"
bst_novaldex_pulsar_advanced		"xwing_booster_s01_pos:booster_pos1,xwing_booster_s01_neg:booster_neg1"
bst_novaldex_quasar		"xwing_booster_s01_pos:booster_pos1,xwing_booster_s01_neg:booster_neg1"
bst_novaldex_quasar_advanced		"xwing_booster_s01_pos:booster_pos1,xwing_booster_s01_neg:booster_neg1"
bst_qualdex_xboost_mk1		"xwing_booster_s01_pos:booster_pos1,xwing_booster_s01_neg:booster_neg1"
bst_qualdex_xboost_mk2		"xwing_booster_s01_pos:booster_pos1,xwing_booster_s01_neg:booster_neg1"
bst_qualdex_xboost_mk3		"xwing_booster_s01_pos:booster_pos1,xwing_booster_s01_neg:booster_neg1"
bst_qualdex_xboost_mk4		"xwing_booster_s01_pos:booster_pos1,xwing_booster_s01_neg:booster_neg1"
bst_reward_incom_elite		"xwing_booster_s01_pos:booster_pos1,xwing_booster_s01_neg:booster_neg1"
bst_reward_koensayr_elite		"xwing_booster_s01_pos:booster_pos1,xwing_booster_s01_neg:booster_neg1"
bst_reward_kuat_elite		"xwing_booster_s01_pos:booster_pos1,xwing_booster_s01_neg:booster_neg1"
bst_reward_novaldex_elite		"xwing_booster_s01_pos:booster_pos1,xwing_booster_s01_neg:booster_neg1"
bst_reward_qualdex_elite		"xwing_booster_s01_pos:booster_pos1,xwing_booster_s01_neg:booster_neg1"
bst_rss_special		"xwing_booster_s01_pos:booster_pos1,xwing_booster_s01_neg:booster_neg1"
bst_sap_imperial_1		"xwing_booster_s01_pos:booster_pos1,xwing_booster_s01_neg:booster_neg1"
bst_sap_imperial_2		"xwing_booster_s01_pos:booster_pos1,xwing_booster_s01_neg:booster_neg1"
bst_sds_enhanced_imperial_2		"xwing_booster_s01_pos:booster_pos1,xwing_booster_s01_neg:booster_neg1"
bst_sfs_imperial_1		"xwing_booster_s01_pos:booster_pos1,xwing_booster_s01_neg:booster_neg1"
bst_sfs_imperial_2		"xwing_booster_s01_pos:booster_pos1,xwing_booster_s01_neg:booster_neg1"
bst_slayn_ion_booster_mk1		"xwing_booster_s01_pos:booster_pos1,xwing_booster_s01_neg:booster_neg1"
bst_sorosuub_enhanced_liberator_mk4		"xwing_booster_s01_pos:booster_pos1,xwing_booster_s01_neg:booster_neg1"
bst_sorosuub_improved_liberator_mk2		"xwing_booster_s01_pos:booster_pos1,xwing_booster_s01_neg:booster_neg1"
bst_sorosuub_liberator_mk1		"xwing_booster_s01_pos:booster_pos1,xwing_booster_s01_neg:booster_neg1"
bst_sorosuub_liberator_mk2		"xwing_booster_s01_pos:booster_pos1,xwing_booster_s01_neg:booster_neg1"
bst_sorosuub_liberator_mk3		"xwing_booster_s01_pos:booster_pos1,xwing_booster_s01_neg:booster_neg1"
bst_sorosuub_liberator_mk4		"xwing_booster_s01_pos:booster_pos1,xwing_booster_s01_neg:booster_neg1"
bst_sorosuub_liberator_mk5		"xwing_booster_s01_pos:booster_pos1,xwing_booster_s01_neg:booster_neg1"
bst_sorosuub_prized_liberator_mk1		"xwing_booster_s01_pos:booster_pos1,xwing_booster_s01_neg:booster_neg1"
bst_sorosuub_supercharged_liberator_mk3		"xwing_booster_s01_pos:booster_pos1,xwing_booster_s01_neg:booster_neg1"
bst_sorosuub_well_tuned_liberator_mk5		"xwing_booster_s01_pos:booster_pos1,xwing_booster_s01_neg:booster_neg1"
bst_subpro_accelatron_mk1		"xwing_booster_s01_pos:booster_pos1,xwing_booster_s01_neg:booster_neg1"
bst_subpro_accelatron_mk2		"xwing_booster_s01_pos:booster_pos1,xwing_booster_s01_neg:booster_neg1"
bst_subpro_accelatron_mk3		"xwing_booster_s01_pos:booster_pos1,xwing_booster_s01_neg:booster_neg1"
bst_subpro_accelatron_mk4		"xwing_booster_s01_pos:booster_pos1,xwing_booster_s01_neg:booster_neg1"
bst_subpro_accelatron_mk5		"xwing_booster_s01_pos:booster_pos1,xwing_booster_s01_neg:booster_neg1"
bst_subpro_deluxe_accelatron_mk3		"xwing_booster_s01_pos:booster_pos1,xwing_booster_s01_neg:booster_neg1"
bst_subpro_elite_accelatron_mk5		"xwing_booster_s01_pos:booster_pos1,xwing_booster_s01_neg:booster_neg1"
bst_subpro_enhanced_accelatron_mk2		"xwing_booster_s01_pos:booster_pos1,xwing_booster_s01_neg:booster_neg1"
bst_subpro_modified_accelatron_mk4		"xwing_booster_s01_pos:booster_pos1,xwing_booster_s01_neg:booster_neg1"
bst_subpro_tuned_accelatron_mk1		"xwing_booster_s01_pos:booster_pos1,xwing_booster_s01_neg:booster_neg1"
bst_surronian_accelerator_mk1		"xwing_booster_s01_pos:booster_pos1,xwing_booster_s01_neg:booster_neg1"
bst_surronian_accelerator_mk2		"xwing_booster_s01_pos:booster_pos1,xwing_booster_s01_neg:booster_neg1"
bst_surronian_nomad_x4		"xwing_booster_s01_pos:booster_pos1,xwing_booster_s01_neg:booster_neg1"
bst_surronian_nomad_x8		"xwing_booster_s01_pos:booster_pos1,xwing_booster_s01_neg:booster_neg1"
bst_tiefighter_basic		"xwing_booster_s02_pos:booster_pos1,xwing_booster_s02_neg:booster_neg1"
bst_xwing_booster_s01		"xwing_booster_s01_pos:booster_pos1,xwing_booster_s01_neg:booster_neg1"
bst_z95_basic		"xwing_booster_s01_pos:booster_pos1,xwing_booster_s01_neg:booster_neg1"
eng_bezelbok_kessel_runner	"xwing_engine_pos_s02:engine_pos1,xwing_engine_neg_s02:engine_neg1"	
eng_corellian_cruiser_grade_mk1	"xwing_engine_pos_s01:engine_pos1,xwing_engine_neg_s01:engine_neg1"	
eng_corellian_cruiser_grade_mk2	"xwing_engine_pos_s01:engine_pos1,xwing_engine_neg_s01:engine_neg1"	
eng_corellian_deluxe_cruiser_grade_mk1	"xwing_engine_pos_s01:engine_pos1,xwing_engine_neg_s01:engine_neg1"	
eng_crafted_incom_fusialthrust	"xwing_engine_pos_s01:engine_pos1,xwing_engine_neg_s01:engine_neg1"	
eng_crafted_novaldex_eventhorizon	"xwing_engine_pos_s02:engine_pos1,xwing_engine_neg_s02:engine_neg1"	
eng_crafted_qualdex_kyromaster	"xwing_engine_pos_s02:engine_pos1,xwing_engine_neg_s02:engine_neg1"	
eng_cygnus_hd3	"xwing_engine_pos_s01:engine_pos1,xwing_engine_neg_s01:engine_neg1"	
eng_cygnus_hd7	"xwing_engine_pos_s01:engine_pos1,xwing_engine_neg_s01:engine_neg1"	
eng_cygnus_hd8	"xwing_engine_pos_s01:engine_pos1,xwing_engine_neg_s01:engine_neg1"	
eng_cygnus_hd_5	"xwing_engine_pos_s01:engine_pos1,xwing_engine_neg_s01:engine_neg1"
eng_cygnus_hdx	"xwing_engine_pos_s01:engine_pos1,xwing_engine_neg_s01:engine_neg1"
eng_damorian_rx7	"xwing_engine_pos_s01:engine_pos1,xwing_engine_neg_s01:engine_neg1"
eng_freitek_dual_jet	"xwing_engine_pos_s01:engine_pos1,xwing_engine_neg_s01:engine_neg1"
eng_gallofree_advanced	"xwing_engine_pos_s01:engine_pos1,xwing_engine_neg_s01:engine_neg1"
eng_gallofree_jx2	"xwing_engine_pos_s01:engine_pos1,xwing_engine_neg_s01:engine_neg1"
eng_gallofree_jx3	"xwing_engine_pos_s01:engine_pos1,xwing_engine_neg_s01:engine_neg1"
eng_generic	"xwing_engine_pos_s01:engine_pos1,xwing_engine_neg_s01:engine_neg1"
eng_h17_singularity	"xwing_engine_pos_s02:engine_pos1,xwing_engine_neg_s02:engine_neg1"
eng_haor_chall_old_engine	"xwing_engine_pos_s01:engine_pos1,xwing_engine_neg_s01:engine_neg1"
eng_incom_advanced	"xwing_engine_pos_s01:engine_pos1,xwing_engine_neg_s01:engine_neg1"
eng_incom_advanced_fusialthrust	"xwing_engine_pos_s01:engine_pos1,xwing_engine_neg_s01:engine_neg1"
eng_incom_e16	"xwing_engine_pos_s01:engine_pos1,xwing_engine_neg_s01:engine_neg1"
eng_incom_elite	"xwing_engine_pos_s01:engine_pos1,xwing_engine_neg_s01:engine_neg1"
eng_incom_fusialthrust	"xwing_engine_pos_s01:engine_pos1,xwing_engine_neg_s01:engine_neg1"
eng_incom_fusialthrust_2	"xwing_engine_pos_s01:engine_pos1,xwing_engine_neg_s01:engine_neg1"
eng_incom_heavy_fusialthrust	"xwing_engine_pos_s01:engine_pos1,xwing_engine_neg_s01:engine_neg1"
eng_incom_improved_fusialthrust_2	"xwing_engine_pos_s01:engine_pos1,xwing_engine_neg_s01:engine_neg1"
eng_incom_light_fusialthrust	"xwing_engine_pos_s01:engine_pos1,xwing_engine_neg_s01:engine_neg1"
eng_koensayr_advanced	"xwing_engine_pos_s01:engine_pos1,xwing_engine_neg_s01:engine_neg1"
eng_koensayr_dual_small_ionjet	"xwing_engine_pos_s01:engine_pos1,xwing_engine_neg_s01:engine_neg1"
eng_koensayr_elite	"xwing_engine_pos_s01:engine_pos1,xwing_engine_neg_s01:engine_neg1"
eng_koensayr_enhanced_dual_small_ionjet	"xwing_engine_pos_s01:engine_pos1,xwing_engine_neg_s01:engine_neg1"
eng_koensayr_heavy_ionjet	"xwing_engine_pos_s01:engine_pos1,xwing_engine_neg_s01:engine_neg1"
eng_koensayr_ionjet	"xwing_engine_pos_s01:engine_pos1,xwing_engine_neg_s01:engine_neg1"
eng_koensayr_small_ionjet	"xwing_engine_pos_s01:engine_pos1,xwing_engine_neg_s01:engine_neg1"
eng_koensayr_tuned_small_ionjet	"xwing_engine_pos_s01:engine_pos1,xwing_engine_neg_s01:engine_neg1"
eng_kongar_defender	"xwing_engine_pos_s01:engine_pos1,xwing_engine_neg_s01:engine_neg1"
eng_kse_a2x	"xwing_engine_pos_s01:engine_pos1,xwing_engine_neg_s01:engine_neg1"
eng_kse_a5x	"xwing_engine_pos_s01:engine_pos1,xwing_engine_neg_s01:engine_neg1"
eng_kse_a7x	"xwing_engine_pos_s01:engine_pos1,xwing_engine_neg_s01:engine_neg1"
eng_kse_a8x	"xwing_engine_pos_s01:engine_pos1,xwing_engine_neg_s01:engine_neg1"
eng_kse_advanced	"xwing_engine_pos_s01:engine_pos1,xwing_engine_neg_s01:engine_neg1"
eng_kse_elite	"xwing_engine_pos_s01:engine_pos1,xwing_engine_neg_s01:engine_neg1"
eng_kse_improved_a2x	"xwing_engine_pos_s01:engine_pos1,xwing_engine_neg_s01:engine_neg1"
eng_kuat_a9x	"xwing_engine_pos_s01:engine_pos1,xwing_engine_neg_s01:engine_neg1"
eng_kuat_f31	"xwing_engine_pos_s01:engine_pos1,xwing_engine_neg_s01:engine_neg1"
eng_kuat_tc40	"xwing_engine_pos_s01:engine_pos1,xwing_engine_neg_s01:engine_neg1"
eng_mandal_advanced	"xwing_engine_pos_s01:engine_pos1,xwing_engine_neg_s01:engine_neg1"
eng_mandal_elite	"xwing_engine_pos_s01:engine_pos1,xwing_engine_neg_s01:engine_neg1"
eng_mandal_enhanced_heavy	"xwing_engine_pos_s01:engine_pos1,xwing_engine_neg_s01:engine_neg1"
eng_mandal_firestorm	"xwing_engine_pos_s01:engine_pos1,xwing_engine_neg_s01:engine_neg1"
eng_mandal_firestorm_2	"xwing_engine_pos_s01:engine_pos1,xwing_engine_neg_s01:engine_neg1"
eng_mandal_heavy	"xwing_engine_pos_s01:engine_pos1,xwing_engine_neg_s01:engine_neg1"
eng_mandal_x37_vandal	"xwing_engine_pos_s01:engine_pos1,xwing_engine_neg_s01:engine_neg1"
eng_mandal_x57_vandal	"xwing_engine_pos_s01:engine_pos1,xwing_engine_neg_s01:engine_neg1"
eng_mission_reward_imperial_cygnus_megadrive	"xwing_engine_pos_s02:engine_pos1,xwing_engine_neg_s02:engine_neg1"
eng_mission_reward_neutral_haor_chall_military	"xwing_engine_pos_s02:engine_pos1,xwing_engine_neg_s02:engine_neg1"
eng_mission_reward_neutral_mandal_inferno	"xwing_engine_pos_s02:engine_pos1,xwing_engine_neg_s02:engine_neg1"
eng_mission_reward_rebel_incom_military	"xwing_engine_pos_s02:engine_pos1,xwing_engine_neg_s02:engine_neg1"
eng_mk1	"xwing_engine_pos_s01:engine_pos1,xwing_engine_neg_s01:engine_neg1"
eng_mk2	"xwing_engine_pos_s01:engine_pos1,xwing_engine_neg_s01:engine_neg1"
eng_mk3	"xwing_engine_pos_s02:engine_pos1,xwing_engine_neg_s02:engine_neg1"
eng_mk4	"xwing_engine_pos_s02:engine_pos1,xwing_engine_neg_s02:engine_neg1"
eng_mk5	"xwing_engine_pos_s02:engine_pos1,xwing_engine_neg_s02:engine_neg1"
eng_moncal_charged_standard	"xwing_engine_pos_s01:engine_pos1,xwing_engine_neg_s01:engine_neg1"
eng_moncal_enhanced_light	"xwing_engine_pos_s01:engine_pos1,xwing_engine_neg_s01:engine_neg1"
eng_moncal_heavy	"xwing_engine_pos_s01:engine_pos1,xwing_engine_neg_s01:engine_neg1"
eng_moncal_ifs32	"xwing_engine_pos_s01:engine_pos1,xwing_engine_neg_s01:engine_neg1"
eng_moncal_ifs64	"xwing_engine_pos_s01:engine_pos1,xwing_engine_neg_s01:engine_neg1"
eng_moncal_improved_heavy	"xwing_engine_pos_s01:engine_pos1,xwing_engine_neg_s01:engine_neg1"
eng_moncal_light	"xwing_engine_pos_s01:engine_pos1,xwing_engine_neg_s01:engine_neg1"
eng_moncal_standard	"xwing_engine_pos_s01:engine_pos1,xwing_engine_neg_s01:engine_neg1"
eng_novaldex_advanced	"xwing_engine_pos_s01:engine_pos1,xwing_engine_neg_s01:engine_neg1"
eng_novaldex_eventhorizon	"xwing_engine_pos_s02:engine_pos1,xwing_engine_neg_s02:engine_neg1"
eng_novaldex_light_eventhorizon	"xwing_engine_pos_s01:engine_pos1,xwing_engine_neg_s01:engine_neg1"
eng_novaldex_singularity	"xwing_engine_pos_s02:engine_pos1,xwing_engine_neg_s02:engine_neg1"
eng_novaldex_x12	"xwing_engine_pos_s02:engine_pos1,xwing_engine_neg_s02:engine_neg1"
eng_novaldex_x6	"xwing_engine_pos_s01:engine_pos1,xwing_engine_neg_s01:engine_neg1"
eng_novaldex_x7	"xwing_engine_pos_s01:engine_pos1,xwing_engine_neg_s01:engine_neg1"
eng_novaldex_x9	"xwing_engine_pos_s01:engine_pos1,xwing_engine_neg_s01:engine_neg1"
eng_nubian_221	"xwing_engine_pos_s01:engine_pos1,xwing_engine_neg_s01:engine_neg1"
eng_nubian_221_racing_mod	"xwing_engine_pos_s01:engine_pos1,xwing_engine_neg_s01:engine_neg1"
eng_prototype	"xwing_engine_pos_s02:engine_pos1,xwing_engine_neg_s02:engine_neg1"
eng_qualdex_a10	"xwing_engine_pos_s02:engine_pos1,xwing_engine_neg_s02:engine_neg1"
eng_qualdex_a13	"xwing_engine_pos_s01:engine_pos1,xwing_engine_neg_s01:engine_neg1"
eng_qualdex_advanced	"xwing_engine_pos_s01:engine_pos1,xwing_engine_neg_s01:engine_neg1"
eng_qualdex_b10	"xwing_engine_pos_s01:engine_pos1,xwing_engine_neg_s01:engine_neg1"
eng_qualdex_elite	"xwing_engine_pos_s01:engine_pos1,xwing_engine_neg_s01:engine_neg1"
eng_qualdex_igt	"xwing_engine_pos_s02:engine_pos1,xwing_engine_neg_s02:engine_neg1"
eng_qualdex_kyromaster	"xwing_engine_pos_s02:engine_pos1,xwing_engine_neg_s02:engine_neg1"
eng_qualdex_small_kyromaster	"xwing_engine_pos_s01:engine_pos1,xwing_engine_neg_s01:engine_neg1"
eng_quantum_ion_drive	"xwing_engine_pos_s02:engine_pos1,xwing_engine_neg_s02:engine_neg1"
eng_rendili_demon_mk1	"xwing_engine_pos_s01:engine_pos1,xwing_engine_neg_s01:engine_neg1"
eng_rendili_elite	"xwing_engine_pos_s01:engine_pos1,xwing_engine_neg_s01:engine_neg1"
eng_rss_advanced	"xwing_engine_pos_s01:engine_pos1,xwing_engine_neg_s01:engine_neg1"
eng_rss_elite	"xwing_engine_pos_s01:engine_pos1,xwing_engine_neg_s01:engine_neg1"
eng_rss_imperial_skyrunner	"xwing_engine_pos_s01:engine_pos1,xwing_engine_neg_s01:engine_neg1"
eng_rss_imperial_skyrunner_2	"xwing_engine_pos_s01:engine_pos1,xwing_engine_neg_s01:engine_neg1"
eng_rss_imperial_skyrunner_3	"xwing_engine_pos_s01:engine_pos1,xwing_engine_neg_s01:engine_neg1"
eng_rss_imperial_skyrunner_4	"xwing_engine_pos_s01:engine_pos1,xwing_engine_neg_s01:engine_neg1"
eng_sds_imperial_1	"xwing_engine_pos_s01:engine_pos1,xwing_engine_neg_s01:engine_neg1"
eng_sds_imperial_2	"xwing_engine_pos_s01:engine_pos1,xwing_engine_neg_s01:engine_neg1"
eng_sds_limited_imperial_1	"xwing_engine_pos_s01:engine_pos1,xwing_engine_neg_s01:engine_neg1"
eng_seinar_ps56	"xwing_engine_pos_s01:engine_pos1,xwing_engine_neg_s01:engine_neg1"
eng_sfs_advanced	"xwing_engine_pos_s01:engine_pos1,xwing_engine_neg_s01:engine_neg1"
eng_sfs_elite	"xwing_engine_pos_s01:engine_pos1,xwing_engine_neg_s01:engine_neg1"
eng_sfs_imperial_1	"xwing_engine_pos_s01:engine_pos1,xwing_engine_neg_s01:engine_neg1"
eng_sfs_imperial_2	"xwing_engine_pos_s01:engine_pos1,xwing_engine_neg_s01:engine_neg1"
eng_sfs_imperial_3	"xwing_engine_pos_s01:engine_pos1,xwing_engine_neg_s01:engine_neg1"
eng_sfs_imperial_4	"xwing_engine_pos_s01:engine_pos1,xwing_engine_neg_s01:engine_neg1"
eng_sfs_imperial_5	"xwing_engine_pos_s01:engine_pos1,xwing_engine_neg_s01:engine_neg1"
eng_sfs_modified_imperial_3	"xwing_engine_pos_s01:engine_pos1,xwing_engine_neg_s01:engine_neg1"
eng_sfs_performance_imperial_1	"xwing_engine_pos_s01:engine_pos1,xwing_engine_neg_s01:engine_neg1"
eng_sfs_tuned_imperial_2	"xwing_engine_pos_s01:engine_pos1,xwing_engine_neg_s01:engine_neg1"
eng_sorosuub_l_337_ion_engine	"xwing_engine_pos_s01:engine_pos1,xwing_engine_neg_s01:engine_neg1"
eng_sorosuub_tuned_l_337_ion_engine	"xwing_engine_pos_s01:engine_pos1,xwing_engine_neg_s01:engine_neg1"
eng_sorosuub_u83r_ion_drive	"xwing_engine_pos_s01:engine_pos1,xwing_engine_neg_s01:engine_neg1"
eng_subpro_light_engines	"xwing_engine_pos_s01:engine_pos1,xwing_engine_neg_s01:engine_neg1"
eng_surronian_a2	"xwing_engine_pos_s02:engine_pos1,xwing_engine_neg_s02:engine_neg1"
eng_surronian_a25	"xwing_engine_pos_s02:engine_pos1,xwing_engine_neg_s02:engine_neg1"
eng_ubrikkian_n2	"xwing_engine_pos_s01:engine_pos1,xwing_engine_neg_s01:engine_neg1"
eng_kessel_imperial_rendili_hyperion_drive	"xwing_engine_pos_s01:engine_pos1,xwing_engine_neg_s01:engine_neg1"
eng_kessel_imperial_sds_special_forces	"xwing_engine_pos_s01:engine_pos1,xwing_engine_neg_s01:engine_neg1"
eng_kessel_imperial_sfs_special_forces	"xwing_engine_pos_s01:engine_pos1,xwing_engine_neg_s01:engine_neg1"
eng_kessel_rebel_incom_t11_elite	"xwing_engine_pos_s01:engine_pos1,xwing_engine_neg_s01:engine_neg1"
eng_kessel_rebel_novaldex_blackhole_elite	"xwing_engine_pos_s01:engine_pos1,xwing_engine_neg_s01:engine_neg1"
eng_kessel_rebel_novaldex_grb1138	"xwing_engine_pos_s01:engine_pos1,xwing_engine_neg_s01:engine_neg1"
eng_reward_kuat_elite	"xwing_engine_pos_s01:engine_pos1,xwing_engine_neg_s01:engine_neg1"
eng_nova_01	"xwing_engine_pos_s03:engine_pos1,xwing_engine_neg_s03:engine_neg1"
eng_orion_01	"xwing_engine_pos_s03:engine_pos1,xwing_engine_neg_s03:engine_neg1"
collection_reward_engine_01_mk1	"xwing_engine_pos_s01:engine_pos1,xwing_engine_neg_s01:engine_neg1"
collection_reward_engine_01_mk2	"xwing_engine_pos_s01:engine_pos1,xwing_engine_neg_s01:engine_neg1"
collection_reward_engine_01_mk3	"xwing_engine_pos_s01:engine_pos1,xwing_engine_neg_s01:engine_neg1"
collection_reward_engine_01_mk4	"xwing_engine_pos_s01:engine_pos1,xwing_engine_neg_s01:engine_neg1"
collection_reward_engine_01_mk5	"xwing_engine_pos_s01:engine_pos1,xwing_engine_neg_s01:engine_neg1"
eng_t86_shooting_star	"xwing_engine_pos_s01:engine_pos1,xwing_engine_neg_s01:engine_neg1"
eng_kuat_m24	"xwing_engine_pos_s01:engine_pos1,xwing_engine_neg_s01:engine_neg1"
mod_xwing_modification_s01						xwing_modification_s01:attach1
wpn_advanced_blaster			xwing_weapon1_pos_s05_0:weapon1_pos1	xwing_weapon1_neg_s05_0:weapon1_neg1	"xwing_weapon2_pos_s05_1:weapon2_pos1,xwing_weapon2_neg_s05_1:weapon2_neg1"	
wpn_advanced_blaster_green			xwing_weapon1_pos_s05_0:weapon1_pos1	xwing_weapon1_neg_s05_0:weapon1_neg1	"xwing_weapon2_pos_s05_1:weapon2_pos1,xwing_weapon2_neg_s05_1:weapon2_neg1"	
wpn_advanced_disruptor			xwing_weapon1_pos_s01_0:weapon1_pos1	xwing_weapon1_neg_s01_0:weapon1_neg1	"xwing_weapon2_pos_s01_1:weapon2_pos1,xwing_weapon2_neg_s01_1:weapon2_neg1"	
wpn_advanced_ioncannon			xwing_weapon1_pos_s06_0:weapon1_pos1	xwing_weapon1_neg_s06_0:weapon1_neg1	"xwing_weapon2_pos_s06_1:weapon2_pos1,xwing_weapon2_neg_s06_1:weapon2_neg1"	
wpn_armek_advanced			xwing_weapon1_pos_s01_0:weapon1_pos1	xwing_weapon1_neg_s01_0:weapon1_neg1	"xwing_weapon2_pos_s01_1:weapon2_pos1,xwing_weapon2_neg_s01_1:weapon2_neg1"	
wpn_armek_elite			xwing_weapon1_pos_s01_0:weapon1_pos1	xwing_weapon1_neg_s01_0:weapon1_neg1	"xwing_weapon2_pos_s01_1:weapon2_pos1,xwing_weapon2_neg_s01_1:weapon2_neg1"	
wpn_armek_sw4			xwing_weapon1_pos_s06_0:weapon1_pos1	xwing_weapon1_neg_s06_0:weapon1_neg1	"xwing_weapon2_pos_s05_1:weapon2_pos1,xwing_weapon2_neg_s05_1:weapon2_neg1"	
wpn_armek_sw6			xwing_weapon1_pos_s01_0:weapon1_pos1	xwing_weapon1_neg_s01_0:weapon1_neg1	"xwing_weapon2_pos_s01_1:weapon2_pos1,xwing_weapon2_neg_s01_1:weapon2_neg1"	
wpn_armek_sw7			xwing_weapon1_pos_s06_0:weapon1_pos1	xwing_weapon1_neg_s06_0:weapon1_neg1	"xwing_weapon2_pos_s05_1:weapon2_pos1,xwing_weapon2_neg_s05_1:weapon2_neg1"	
wpn_armek_sw8			xwing_weapon1_pos_s01_0:weapon1_pos1	xwing_weapon1_neg_s01_0:weapon1_neg1	"xwing_weapon2_pos_s01_1:weapon2_pos1,xwing_weapon2_neg_s01_1:weapon2_neg1"	
wpn_awing_blaster			xwing_weapon1_pos_s01_0:weapon1_pos1	xwing_weapon1_neg_s01_0:weapon1_neg1	"xwing_weapon2_pos_s01_1:weapon2_pos1,xwing_weapon2_neg_s01_1:weapon2_neg1"	
wpn_borstel_rg9			xwing_weapon1_pos_s06_0:weapon1_pos1	xwing_weapon1_neg_s06_0:weapon1_neg1	"xwing_weapon2_pos_s06_1:weapon2_pos1,xwing_weapon2_neg_s06_1:weapon2_neg1"	
wpn_bwing_blaster			xwing_weapon1_pos_s01_0:weapon1_pos1	xwing_weapon1_neg_s01_0:weapon1_neg1	"xwing_weapon2_pos_s01_1:weapon2_pos1,xwing_weapon2_neg_s01_1:weapon2_neg1"	
wpn_corellian_1d			xwing_weapon1_pos_s01_0:weapon1_pos1	xwing_weapon1_neg_s01_0:weapon1_neg1	"xwing_weapon2_pos_s01_1:weapon2_pos1,xwing_weapon2_neg_s01_1:weapon2_neg1"	
wpn_corellian_ag1g_laser			xwing_weapon1_pos_s01_0:weapon1_pos1	xwing_weapon1_neg_s01_0:weapon1_neg1	"xwing_weapon2_pos_s01_1:weapon2_pos1,xwing_weapon2_neg_s01_1:weapon2_neg1"	
wpn_corellian_ag2g_quad_laser			xwing_weapon1_pos_s04_0:weapon1_pos1	xwing_weapon1_neg_s04_0:weapon1_neg1	"xwing_weapon2_pos_s04_1:weapon2_pos1,xwing_weapon2_neg_s04_1:weapon2_neg1"
wpn_corellian_cruiser_grade_blaster_mk1			xwing_weapon1_pos_s01_0:weapon1_pos1	xwing_weapon1_neg_s01_0:weapon1_neg1	"xwing_weapon2_pos_s01_1:weapon2_pos1,xwing_weapon2_neg_s01_1:weapon2_neg1"
wpn_corellian_heavy_gauss			xwing_weapon1_pos_s06_0:weapon1_pos1	xwing_weapon1_neg_s06_0:weapon1_neg1	"xwing_weapon2_pos_s06_1:weapon2_pos1,xwing_weapon2_neg_s06_1:weapon2_neg1"
wpn_crafted_incom_disruptor			xwing_weapon1_pos_s01_0:weapon1_pos1	xwing_weapon1_neg_s01_0:weapon1_neg1	"xwing_weapon2_pos_s01_1:weapon2_pos1,xwing_weapon2_neg_s01_1:weapon2_neg1"
wpn_crafted_slayn_ioncannon			xwing_weapon1_pos_s01_0:weapon1_pos1	xwing_weapon1_neg_s02_0:weapon1_neg1	"xwing_weapon2_pos_s02_1:weapon2_pos1,xwing_weapon2_neg_s02_1:weapon2_neg1"
wpn_crafted_subpro_tripleblaster			xwing_weapon1_pos_s04_0:weapon1_pos1	xwing_weapon1_neg_s02_0:weapon1_neg1	"xwing_weapon2_pos_s04_1:weapon2_pos1,xwing_weapon2_neg_s04_1:weapon2_neg1"
wpn_crafted_tractor_beam			xwing_weapon1_pos_s01_0:weapon1_pos1	xwing_weapon1_neg_s01_0:weapon1_neg1	"xwing_weapon2_pos_s01_1:weapon2_pos1,xwing_weapon2_neg_s01_1:weapon2_neg1"
wpn_cygnus_destroyer_mk1			xwing_weapon1_pos_s01_0:weapon1_pos1	xwing_weapon1_neg_s01_0:weapon1_neg1	"xwing_weapon2_pos_s01_1:weapon2_pos1,xwing_weapon2_neg_s01_1:weapon2_neg1"
wpn_cygnus_destroyer_mk2			xwing_weapon1_pos_s01_0:weapon1_pos1	xwing_weapon1_neg_s01_0:weapon1_neg1	"xwing_weapon2_pos_s01_1:weapon2_pos1,xwing_weapon2_neg_s01_1:weapon2_neg1"
wpn_cygnus_elite			xwing_weapon1_pos_s01_0:weapon1_pos1	xwing_weapon1_neg_s01_0:weapon1_neg1	"xwing_weapon2_pos_s01_1:weapon2_pos1,xwing_weapon2_neg_s01_1:weapon2_neg1"
wpn_cygnus_eradicator_1			xwing_weapon1_pos_s01_0:weapon1_pos1	xwing_weapon1_neg_s01_0:weapon1_neg1	"xwing_weapon2_pos_s01_1:weapon2_pos1,xwing_weapon2_neg_s01_1:weapon2_neg1"
wpn_experimental_blaster			xwing_weapon1_pos_s05_0:weapon1_pos1	xwing_weapon1_neg_s05_0:weapon1_neg1	"xwing_weapon2_pos_s05_1:weapon2_pos1,xwing_weapon2_neg_s05_1:weapon2_neg1"
wpn_experimental_blaster_green			xwing_weapon1_pos_s05_0:weapon1_pos1	xwing_weapon1_neg_s05_0:weapon1_neg1	"xwing_weapon2_pos_s05_1:weapon2_pos1,xwing_weapon2_neg_s05_1:weapon2_neg1"
wpn_experimental_disruptor			xwing_weapon1_pos_s01_0:weapon1_pos1	xwing_weapon1_neg_s01_0:weapon1_neg1	"xwing_weapon2_pos_s01_1:weapon2_pos1,xwing_weapon2_neg_s01_1:weapon2_neg1"
wpn_experimental_ioncannon			xwing_weapon1_pos_s06_0:weapon1_pos1	xwing_weapon1_neg_s06_0:weapon1_neg1	"xwing_weapon2_pos_s06_1:weapon2_pos1,xwing_weapon2_neg_s06_1:weapon2_neg1"
wpn_fastspray_2000_disruptor			xwing_weapon1_pos_s06_0:weapon1_pos1	xwing_weapon1_neg_s06_0:weapon1_neg1	"xwing_weapon2_pos_s06_1:weapon2_pos1,xwing_weapon2_neg_s06_1:weapon2_neg1"
wpn_freitek_cannoneer_mk1			xwing_weapon1_pos_s06_0:weapon1_pos1	xwing_weapon1_neg_s06_0:weapon1_neg1	"xwing_weapon2_pos_s06_1:weapon2_pos1,xwing_weapon2_neg_s06_1:weapon2_neg1"
wpn_gyrhil_auto_blaster			xwing_weapon1_pos_s05_0:weapon1_pos1	xwing_weapon1_neg_s05_0:weapon1_neg1	"xwing_weapon2_pos_s05_1:weapon2_pos1,xwing_weapon2_neg_s05_1:weapon2_neg1"
wpn_gyrhil_r9x			xwing_weapon1_pos_s06_0:weapon1_pos1	xwing_weapon1_neg_s06_0:weapon1_neg1	"xwing_weapon2_pos_s06_1:weapon2_pos1,xwing_weapon2_neg_s06_1:weapon2_neg1"
wpn_haor_chall_speedblaster			xwing_weapon1_pos_s01_0:weapon1_pos1	xwing_weapon1_neg_s01_0:weapon1_neg1	"xwing_weapon2_pos_s01_1:weapon2_pos1,xwing_weapon2_neg_s01_1:weapon2_neg1"
wpn_heavy_blaster			xwing_weapon1_pos_s05_0:weapon1_pos1	xwing_weapon1_neg_s05_0:weapon1_neg1	"xwing_weapon2_pos_s05_1:weapon2_pos1,xwing_weapon2_neg_s05_1:weapon2_neg1"
wpn_heavy_blaster_green			xwing_weapon1_pos_s05_0:weapon1_pos1	xwing_weapon1_neg_s05_0:weapon1_neg1	"xwing_weapon2_pos_s05_1:weapon2_pos1,xwing_weapon2_neg_s05_1:weapon2_neg1"
wpn_heavy_disruptor			xwing_weapon1_pos_s06_0:weapon1_pos1	xwing_weapon1_neg_s06_0:weapon1_neg1	"xwing_weapon2_pos_s06_1:weapon2_pos1,xwing_weapon2_neg_s06_1:weapon2_neg1"
wpn_heavy_ioncannon			xwing_weapon1_pos_s05_0:weapon1_pos1	xwing_weapon1_neg_s05_0:weapon1_neg1	"xwing_weapon2_pos_s05_1:weapon2_pos1,xwing_weapon2_neg_s05_1:weapon2_neg1"
wpn_hk_modified_scorcher_elite			xwing_weapon1_pos_s01_0:weapon1_pos1	xwing_weapon1_neg_s01_0:weapon1_neg1	"xwing_weapon2_pos_s01_1:weapon2_pos1,xwing_weapon2_neg_s01_1:weapon2_neg1"
wpn_hk_scorcher			xwing_weapon1_pos_s01_0:weapon1_pos1	xwing_weapon1_neg_s01_0:weapon1_neg1	"xwing_weapon2_pos_s01_1:weapon2_pos1,xwing_weapon2_neg_s01_1:weapon2_neg1"
wpn_hk_scorcher_2			xwing_weapon1_pos_s06_0:weapon1_pos1	xwing_weapon1_neg_s06_0:weapon1_neg1	"xwing_weapon2_pos_s06_1:weapon2_pos1,xwing_weapon2_neg_s06_1:weapon2_neg1"
wpn_hk_scorcher_3			xwing_weapon1_pos_s06_0:weapon1_pos1	xwing_weapon1_neg_s06_0:weapon1_neg1	"xwing_weapon2_pos_s06_1:weapon2_pos1,xwing_weapon2_neg_s06_1:weapon2_neg1"
wpn_hk_scorcher_advanced			xwing_weapon1_pos_s01_0:weapon1_pos1	xwing_weapon1_neg_s01_0:weapon1_neg1	"xwing_weapon2_pos_s01_1:weapon2_pos1,xwing_weapon2_neg_s01_1:weapon2_neg1"
wpn_hk_scorcher_elite			xwing_weapon1_pos_s01_0:weapon1_pos1	xwing_weapon1_neg_s01_0:weapon1_neg1	"xwing_weapon2_pos_s01_1:weapon2_pos1,xwing_weapon2_neg_s01_1:weapon2_neg1"
wpn_hk_scorcher_heavy			xwing_weapon1_pos_s01_0:weapon1_pos1	xwing_weapon1_neg_s01_0:weapon1_neg1	"xwing_weapon2_pos_s01_1:weapon2_pos1,xwing_weapon2_neg_s01_1:weapon2_neg1"
wpn_hoersch_railgun			xwing_weapon1_pos_s06_0:weapon1_pos1	xwing_weapon1_neg_s06_0:weapon1_neg1	"xwing_weapon2_pos_s06_1:weapon2_pos1,xwing_weapon2_neg_s06_1:weapon2_neg1"
wpn_incom_advanced_blaster			xwing_weapon1_pos_s01_0:weapon1_pos1	xwing_weapon1_neg_s01_0:weapon1_neg1	"xwing_weapon2_pos_s01_1:weapon2_pos1,xwing_weapon2_neg_s01_1:weapon2_neg1"
wpn_incom_blaster			xwing_weapon1_pos_s01_0:weapon1_pos1	xwing_weapon1_neg_s01_0:weapon1_neg1	"xwing_weapon2_pos_s01_1:weapon2_pos1,xwing_weapon2_neg_s01_1:weapon2_neg1"
wpn_incom_disruptor			xwing_weapon1_pos_s01_0:weapon1_pos1	xwing_weapon1_neg_s01_0:weapon1_neg1	"xwing_weapon2_pos_s01_1:weapon2_pos1,xwing_weapon2_neg_s01_1:weapon2_neg1"
wpn_incom_elite_quad_blaster			xwing_weapon1_pos_s01_0:weapon1_pos1	xwing_weapon1_neg_s01_0:weapon1_neg1	"xwing_weapon2_pos_s01_1:weapon2_pos1,xwing_weapon2_neg_s01_1:weapon2_neg1"
wpn_incom_heavy_blaster			xwing_weapon1_pos_s01_0:weapon1_pos1	xwing_weapon1_neg_s01_0:weapon1_neg1	"xwing_weapon2_pos_s01_1:weapon2_pos1,xwing_weapon2_neg_s01_1:weapon2_neg1"
wpn_incom_heavy_quad_blaster			xwing_weapon1_pos_s01_0:weapon1_pos1	xwing_weapon1_neg_s01_0:weapon1_neg1	"xwing_weapon2_pos_s01_1:weapon2_pos1,xwing_weapon2_neg_s01_1:weapon2_neg1"
wpn_incom_light_blaster			xwing_weapon1_pos_s05_0:weapon1_pos1	xwing_weapon1_neg_s05_0:weapon1_neg1	"xwing_weapon2_pos_s05_1:weapon2_pos1,xwing_weapon2_neg_s05_1:weapon2_neg1"
wpn_incom_quad_blaster			xwing_weapon1_pos_s04_0:weapon1_pos1	xwing_weapon1_neg_s04_0:weapon1_neg1	"xwing_weapon2_pos_s04_1:weapon2_pos1,xwing_weapon2_neg_s04_1:weapon2_neg1"
wpn_incom_shredder			xwing_weapon1_pos_s05_0:weapon1_pos1	xwing_weapon1_neg_s05_0:weapon1_neg1	"xwing_weapon2_pos_s05_1:weapon2_pos1,xwing_weapon2_neg_s05_1:weapon2_neg1"
wpn_incom_tt13			xwing_weapon1_pos_s01_0:weapon1_pos1	xwing_weapon1_neg_s01_0:weapon1_neg1	"xwing_weapon2_pos_s01_1:weapon2_pos1,xwing_weapon2_neg_s01_1:weapon2_neg1"
wpn_incom_tt8			xwing_weapon1_pos_s01_0:weapon1_pos1	xwing_weapon1_neg_s01_0:weapon1_neg1	"xwing_weapon2_pos_s01_1:weapon2_pos1,xwing_weapon2_neg_s01_1:weapon2_neg1"
wpn_kdy_pounder_mk1			xwing_weapon1_pos_s06_0:weapon1_pos1	xwing_weapon1_neg_s06_0:weapon1_neg1	"xwing_weapon2_pos_s06_1:weapon2_pos1,xwing_weapon2_neg_s06_1:weapon2_neg1"
wpn_koensayr_deluxe_ion_accelerator			xwing_weapon1_pos_s06_0:weapon1_pos1	xwing_weapon1_neg_s06_0:weapon1_neg1	"xwing_weapon2_pos_s06_1:weapon2_pos1,xwing_weapon2_neg_s06_1:weapon2_neg1"
wpn_koensayr_ion_accelerator			xwing_weapon1_pos_s06_0:weapon1_pos1	xwing_weapon1_neg_s06_0:weapon1_neg1	"xwing_weapon2_pos_s06_1:weapon2_pos1,xwing_weapon2_neg_s06_1:weapon2_neg1"
wpn_koensayr_ion_accelerator_2			xwing_weapon1_pos_s06_0:weapon1_pos1	xwing_weapon1_neg_s06_0:weapon1_neg1	"xwing_weapon2_pos_s06_1:weapon2_pos1,xwing_weapon2_neg_s06_1:weapon2_neg1"
wpn_koensayr_ion_accelerator_3			xwing_weapon1_pos_s06_0:weapon1_pos1	xwing_weapon1_neg_s06_0:weapon1_neg1	"xwing_weapon2_pos_s06_1:weapon2_pos1,xwing_weapon2_neg_s06_1:weapon2_neg1"
wpn_koensayr_ion_accelerator_advanced			xwing_weapon1_pos_s06_0:weapon1_pos1	xwing_weapon1_neg_s06_0:weapon1_neg1	"xwing_weapon2_pos_s06_1:weapon2_pos1,xwing_weapon2_neg_s06_1:weapon2_neg1"
wpn_koensayr_light_disruptor			xwing_weapon1_pos_s01_0:weapon1_pos1	xwing_weapon1_neg_s01_0:weapon1_neg1	"xwing_weapon2_pos_s01_1:weapon2_pos1,xwing_weapon2_neg_s01_1:weapon2_neg1"
wpn_koensayr_tuned_light_disruptor			xwing_weapon1_pos_s01_0:weapon1_pos1	xwing_weapon1_neg_s01_0:weapon1_neg1	"xwing_weapon2_pos_s01_1:weapon2_pos1,xwing_weapon2_neg_s01_1:weapon2_neg1"
wpn_kse_double_blaster			xwing_weapon1_pos_s01_0:weapon1_pos1	xwing_weapon1_neg_s01_0:weapon1_neg1	"xwing_weapon2_pos_s01_1:weapon2_pos1,xwing_weapon2_neg_s01_1:weapon2_neg1"
wpn_kse_light_disruptor			xwing_weapon1_pos_s01_0:weapon1_pos1	xwing_weapon1_neg_s01_0:weapon1_neg1	"xwing_weapon2_pos_s01_1:weapon2_pos1,xwing_weapon2_neg_s01_1:weapon2_neg1"
wpn_laser_beam_gun			xwing_weapon1_pos_s05_0:weapon1_pos1	xwing_weapon1_neg_s05_0:weapon1_neg1	"xwing_weapon2_pos_s05_1:weapon2_pos1,xwing_weapon2_neg_s05_1:weapon2_neg1"
wpn_light_blaster			xwing_weapon1_pos_s05_0:weapon1_pos1	xwing_weapon1_neg_s05_0:weapon1_neg1	"xwing_weapon2_pos_s05_1:weapon2_pos1,xwing_weapon2_neg_s05_1:weapon2_neg1"
wpn_light_blaster_green			xwing_weapon1_pos_s05_0:weapon1_pos1	xwing_weapon1_neg_s05_0:weapon1_neg1	"xwing_weapon2_pos_s05_1:weapon2_pos1,xwing_weapon2_neg_s05_1:weapon2_neg1"
wpn_light_disruptor			xwing_weapon1_pos_s01_0:weapon1_pos1	xwing_weapon1_neg_s01_0:weapon1_neg1	"xwing_weapon2_pos_s01_1:weapon2_pos1,xwing_weapon2_neg_s01_1:weapon2_neg1"
wpn_light_ioncannon			xwing_weapon1_pos_s06_0:weapon1_pos1	xwing_weapon1_neg_s06_0:weapon1_neg1	"xwing_weapon2_pos_s06_1:weapon2_pos1,xwing_weapon2_neg_s06_1:weapon2_neg1"
wpn_mandal_advanced_annihilator			xwing_weapon1_pos_s01_0:weapon1_pos1	xwing_weapon1_neg_s01_0:weapon1_neg1	"xwing_weapon2_pos_s01_1:weapon2_pos1,xwing_weapon2_neg_s01_1:weapon2_neg1"
wpn_mandal_annihilator_mk2			xwing_weapon1_pos_s01_0:weapon1_pos1	xwing_weapon1_neg_s01_0:weapon1_neg1	"xwing_weapon2_pos_s01_1:weapon2_pos1,xwing_weapon2_neg_s01_1:weapon2_neg1"
wpn_mandal_annilhator_mk1			xwing_weapon1_pos_s01_0:weapon1_pos1	xwing_weapon1_neg_s01_0:weapon1_neg1	"xwing_weapon2_pos_s01_1:weapon2_pos1,xwing_weapon2_neg_s01_1:weapon2_neg1"
wpn_mandal_elite_annihilator			xwing_weapon1_pos_s01_0:weapon1_pos1	xwing_weapon1_neg_s01_0:weapon1_neg1	"xwing_weapon2_pos_s01_1:weapon2_pos1,xwing_weapon2_neg_s01_1:weapon2_neg1"
wpn_mandal_enhanced_mangler_mk1			xwing_weapon1_pos_s05_0:weapon1_pos1	xwing_weapon1_neg_s05_0:weapon1_neg1	"xwing_weapon2_pos_s05_1:weapon2_pos1,xwing_weapon2_neg_s05_1:weapon2_neg1"
wpn_mandal_heavy_annihilator			xwing_weapon1_pos_s01_0:weapon1_pos1	xwing_weapon1_neg_s01_0:weapon1_neg1	"xwing_weapon2_pos_s01_1:weapon2_pos1,xwing_weapon2_neg_s01_1:weapon2_neg1"
wpn_mandal_mangler_mk1			xwing_weapon1_pos_s01_0:weapon1_pos1	xwing_weapon1_neg_s01_0:weapon1_neg1	"xwing_weapon2_pos_s01_1:weapon2_pos1,xwing_weapon2_neg_s01_1:weapon2_neg1"
wpn_mandal_qv3_disruptor			xwing_weapon1_pos_s01_0:weapon1_pos1	xwing_weapon1_neg_s01_0:weapon1_neg1	"xwing_weapon2_pos_s01_1:weapon2_pos1,xwing_weapon2_neg_s01_1:weapon2_neg1"
wpn_mandal_qv5_disruptor			xwing_weapon1_pos_s01_0:weapon1_pos1	xwing_weapon1_neg_s01_0:weapon1_neg1	"xwing_weapon2_pos_s01_1:weapon2_pos1,xwing_weapon2_neg_s01_1:weapon2_neg1"
wpn_mandal_super_mangler			xwing_weapon1_pos_s01_0:weapon1_pos1	xwing_weapon1_neg_s01_0:weapon1_neg1	"xwing_weapon2_pos_s01_1:weapon2_pos1,xwing_weapon2_neg_s01_1:weapon2_neg1"
wpn_medium_blaster			xwing_weapon1_pos_s05_0:weapon1_pos1	xwing_weapon1_neg_s05_0:weapon1_neg1	"xwing_weapon2_pos_s05_1:weapon2_pos1,xwing_weapon2_neg_s05_1:weapon2_neg1"
wpn_medium_blaster_green			xwing_weapon1_pos_s05_0:weapon1_pos1	xwing_weapon1_neg_s05_0:weapon1_neg1	"xwing_weapon2_pos_s05_1:weapon2_pos1,xwing_weapon2_neg_s05_1:weapon2_neg1"
wpn_medium_disruptor			xwing_weapon1_pos_s01_0:weapon1_pos1	xwing_weapon1_neg_s01_0:weapon1_neg1	"xwing_weapon2_pos_s01_1:weapon2_pos1,xwing_weapon2_neg_s01_1:weapon2_neg1"
wpn_medium_ioncannon			xwing_weapon1_pos_s06_0:weapon1_pos1	xwing_weapon1_neg_s06_0:weapon1_neg1	"xwing_weapon2_pos_s06_1:weapon2_pos1,xwing_weapon2_neg_s06_1:weapon2_neg1"
wpn_mining_laser_mk1			xwing_weapon1_pos_s05_0:weapon1_pos1	xwing_weapon1_neg_s05_0:weapon1_neg1	"xwing_weapon2_pos_s05_1:weapon2_pos1,xwing_weapon2_neg_s05_1:weapon2_neg1"
wpn_mining_laser_mk2			xwing_weapon1_pos_s05_0:weapon1_pos1	xwing_weapon1_neg_s05_0:weapon1_neg1	"xwing_weapon2_pos_s05_1:weapon2_pos1,xwing_weapon2_neg_s05_1:weapon2_neg1"
wpn_mining_laser_mk3			xwing_weapon1_pos_s05_0:weapon1_pos1	xwing_weapon1_neg_s05_0:weapon1_neg1	"xwing_weapon2_pos_s05_1:weapon2_pos1,xwing_weapon2_neg_s05_1:weapon2_neg1"
wpn_mission_reward_imperial_cygnus_starblaster			xwing_weapon1_pos_s06_0:weapon1_pos1	xwing_weapon1_neg_s06_0:weapon1_neg1	"xwing_weapon2_pos_s06_1:weapon2_pos1,xwing_weapon2_neg_s06_1:weapon2_neg1"
wpn_mission_reward_imperial_sds_boltdriver			xwing_weapon1_pos_s06_0:weapon1_pos1	xwing_weapon1_neg_s06_0:weapon1_neg1	"xwing_weapon2_pos_s06_1:weapon2_pos1,xwing_weapon2_neg_s06_1:weapon2_neg1"
wpn_mission_reward_neutral_borstel_disruptor			xwing_weapon1_pos_s01_0:weapon1_pos1	xwing_weapon1_neg_s01_0:weapon1_neg1	"xwing_weapon2_pos_s01_1:weapon2_pos1,xwing_weapon2_neg_s01_1:weapon2_neg1"
wpn_mission_reward_neutral_hk_military_blaster			xwing_weapon1_pos_s01_0:weapon1_pos1	xwing_weapon1_neg_s01_0:weapon1_neg1	"xwing_weapon2_pos_s01_1:weapon2_pos1,xwing_weapon2_neg_s01_1:weapon2_neg1"
wpn_mission_reward_neutral_mandal_light_blaster			xwing_weapon1_pos_s01_0:weapon1_pos1	xwing_weapon1_neg_s01_0:weapon1_neg1	"xwing_weapon2_pos_s01_1:weapon2_pos1,xwing_weapon2_neg_s01_1:weapon2_neg1"
wpn_mission_reward_rebel_incom_tricannon			xwing_weapon1_pos_s01_0:weapon1_pos1	xwing_weapon1_neg_s01_0:weapon1_neg1	"xwing_weapon2_pos_s01_1:weapon2_pos1,xwing_weapon2_neg_s01_1:weapon2_neg1"
wpn_mission_reward_rebel_taim_ion_driver			xwing_weapon1_pos_s06_0:weapon1_pos1	xwing_weapon1_neg_s06_0:weapon1_neg1	"xwing_weapon2_pos_s06_1:weapon2_pos1,xwing_weapon2_neg_s06_1:weapon2_neg1"
wpn_moncal_light_blaster			xwing_weapon1_pos_s05_0:weapon1_pos1	xwing_weapon1_neg_s05_0:weapon1_neg1	"xwing_weapon2_pos_s05_1:weapon2_pos1,xwing_weapon2_neg_s05_1:weapon2_neg1"
wpn_prototype			xwing_weapon1_pos_s04_0:weapon1_pos1	xwing_weapon1_neg_s04_0:weapon1_neg1	"xwing_weapon2_pos_s04_1:weapon2_pos1,xwing_weapon2_neg_s04_1:weapon2_neg1"
wpn_prototype_tie			xwing_weapon1_pos_s04_0:weapon1_pos1	xwing_weapon1_neg_s04_0:weapon1_neg1	"xwing_weapon2_pos_s04_1:weapon2_pos1,xwing_weapon2_neg_s04_1:weapon2_neg1"
wpn_rendili_advanced			xwing_weapon1_pos_s01_0:weapon1_pos1	xwing_weapon1_neg_s01_0:weapon1_neg1	"xwing_weapon2_pos_s01_1:weapon2_pos1,xwing_weapon2_neg_s01_1:weapon2_neg1"
wpn_rendili_fr13_disruptor			xwing_weapon1_pos_s01_0:weapon1_pos1	xwing_weapon1_neg_s01_0:weapon1_neg1	"xwing_weapon2_pos_s01_1:weapon2_pos1,xwing_weapon2_neg_s01_1:weapon2_neg1"
wpn_rendili_fr9_disruptor			xwing_weapon1_pos_s01_0:weapon1_pos1	xwing_weapon1_neg_s01_0:weapon1_neg1	"xwing_weapon2_pos_s01_1:weapon2_pos1,xwing_weapon2_neg_s01_1:weapon2_neg1"
wpn_rendili_sc3_disruptor			xwing_weapon1_pos_s01_0:weapon1_pos1	xwing_weapon1_neg_s01_0:weapon1_neg1	"xwing_weapon2_pos_s01_1:weapon2_pos1,xwing_weapon2_neg_s01_1:weapon2_neg1"
wpn_rendili_sc8_disruptor			xwing_weapon1_pos_s01_0:weapon1_pos1	xwing_weapon1_neg_s01_0:weapon1_neg1	"xwing_weapon2_pos_s01_1:weapon2_pos1,xwing_weapon2_neg_s01_1:weapon2_neg1"
wpn_rss_imperial_cannon			xwing_weapon1_pos_s06_0:weapon1_pos1	xwing_weapon1_neg_s06_0:weapon1_neg1	"xwing_weapon2_pos_s06_1:weapon2_pos1,xwing_weapon2_neg_s06_1:weapon2_neg1"
wpn_sds_elite			xwing_weapon1_pos_s01_0:weapon1_pos1	xwing_weapon1_neg_s01_0:weapon1_neg1	"xwing_weapon2_pos_s01_1:weapon2_pos1,xwing_weapon2_neg_s01_1:weapon2_neg1"
wpn_sds_heavy_imperial_spc_forces_cannon			xwing_weapon1_pos_s06_0:weapon1_pos1	xwing_weapon1_neg_s06_0:weapon1_neg1	"xwing_weapon2_pos_s06_1:weapon2_pos1,xwing_weapon2_neg_s06_1:weapon2_neg1"
wpn_sds_imperial_blaster_1			xwing_weapon1_pos_s05_0:weapon1_pos1	xwing_weapon1_neg_s05_0:weapon1_neg1	"xwing_weapon2_pos_s05_1:weapon2_pos1,xwing_weapon2_neg_s05_1:weapon2_neg1"
wpn_sds_imperial_blaster_2			xwing_weapon1_pos_s01_0:weapon1_pos1	xwing_weapon1_neg_s01_0:weapon1_neg1	"xwing_weapon2_pos_s01_1:weapon2_pos1,xwing_weapon2_neg_s01_1:weapon2_neg1"
wpn_sds_imperial_special_forces_cannon			xwing_weapon1_pos_s06_0:weapon1_pos1	xwing_weapon1_neg_s06_0:weapon1_neg1	"xwing_weapon2_pos_s06_1:weapon2_pos1,xwing_weapon2_neg_s06_1:weapon2_neg1"
wpn_sds_modified_elite			xwing_weapon1_pos_s01_0:weapon1_pos1	xwing_weapon1_neg_s01_0:weapon1_neg1	"xwing_weapon2_pos_s01_1:weapon2_pos1,xwing_weapon2_neg_s01_1:weapon2_neg1"
wpn_seinar_disruptor			xwing_weapon1_pos_s01_0:weapon1_pos1	xwing_weapon1_neg_s01_0:weapon1_neg1	"xwing_weapon2_pos_s01_1:weapon2_pos1,xwing_weapon2_neg_s01_1:weapon2_neg1"
wpn_seinar_ion_cannon			xwing_weapon1_pos_s06_0:weapon1_pos1	xwing_weapon1_neg_s06_0:weapon1_neg1	"xwing_weapon2_pos_s06_1:weapon2_pos1,xwing_weapon2_neg_s06_1:weapon2_neg1"
wpn_seinar_linked_cannon			xwing_weapon1_pos_s06_0:weapon1_pos1	xwing_weapon1_neg_s06_0:weapon1_neg1	"xwing_weapon2_pos_s06_1:weapon2_pos1,xwing_weapon2_neg_s06_1:weapon2_neg1"
wpn_seinar_ls1			xwing_weapon1_pos_s05_0:weapon1_pos1	xwing_weapon1_neg_s05_0:weapon1_neg1	"xwing_weapon2_pos_s05_1:weapon2_pos1,xwing_weapon2_neg_s05_1:weapon2_neg1"
wpn_seinar_ls72			xwing_weapon1_pos_s05_0:weapon1_pos1	xwing_weapon1_neg_s05_0:weapon1_neg1	"xwing_weapon2_pos_s05_1:weapon2_pos1,xwing_weapon2_neg_s05_1:weapon2_neg1"
wpn_sfs_elite			xwing_weapon1_pos_s01_0:weapon1_pos1	xwing_weapon1_neg_s01_0:weapon1_neg1	"xwing_weapon2_pos_s01_1:weapon2_pos1,xwing_weapon2_neg_s01_1:weapon2_neg1"
wpn_sfs_imperial_blaster_1			xwing_weapon1_pos_s05_0:weapon1_pos1	xwing_weapon1_neg_s05_0:weapon1_neg1	"xwing_weapon2_pos_s05_1:weapon2_pos1,xwing_weapon2_neg_s05_1:weapon2_neg1"
wpn_sfs_imperial_blaster_2			xwing_weapon1_pos_s01_0:weapon1_pos1	xwing_weapon1_neg_s01_0:weapon1_neg1	"xwing_weapon2_pos_s01_1:weapon2_pos1,xwing_weapon2_neg_s01_1:weapon2_neg1"
wpn_sfs_imperial_blaster_3			xwing_weapon1_pos_s01_0:weapon1_pos1	xwing_weapon1_neg_s01_0:weapon1_neg1	"xwing_weapon2_pos_s01_1:weapon2_pos1,xwing_weapon2_neg_s01_1:weapon2_neg1"
wpn_sfs_imperial_blaster_4			xwing_weapon1_pos_s01_0:weapon1_pos1	xwing_weapon1_neg_s01_0:weapon1_neg1	"xwing_weapon2_pos_s01_1:weapon2_pos1,xwing_weapon2_neg_s01_1:weapon2_neg1"
wpn_sfs_imperial_special_forces_blaster			xwing_weapon1_pos_s01_0:weapon1_pos1	xwing_weapon1_neg_s01_0:weapon1_neg1	"xwing_weapon2_pos_s01_1:weapon2_pos1,xwing_weapon2_neg_s01_1:weapon2_neg1"
wpn_sfs_improved_imperial_blaster_2			xwing_weapon1_pos_s01_0:weapon1_pos1	xwing_weapon1_neg_s01_0:weapon1_neg1	"xwing_weapon2_pos_s01_1:weapon2_pos1,xwing_weapon2_neg_s01_1:weapon2_neg1"
wpn_slayn_deluxe_light_ioncannon			xwing_weapon1_pos_s06_0:weapon1_pos1	xwing_weapon1_neg_s06_0:weapon1_neg1	"xwing_weapon2_pos_s06_1:weapon2_pos1,xwing_weapon2_neg_s06_1:weapon2_neg1"
wpn_slayn_ioncannon			xwing_weapon1_pos_s01_0:weapon1_pos1	xwing_weapon1_neg_s02_0:weapon1_neg1	"xwing_weapon2_pos_s02_1:weapon2_pos1,xwing_weapon2_neg_s02_1:weapon2_neg1"
wpn_slayn_light_ioncannon			xwing_weapon1_pos_s06_0:weapon1_pos1	xwing_weapon1_neg_s06_0:weapon1_neg1	"xwing_weapon2_pos_s06_1:weapon2_pos1,xwing_weapon2_neg_s06_1:weapon2_neg1"
wpn_subpro_advanced_cannon			xwing_weapon1_pos_s06_0:weapon1_pos1	xwing_weapon1_neg_s06_0:weapon1_neg1	"xwing_weapon2_pos_s06_1:weapon2_pos1,xwing_weapon2_neg_s06_1:weapon2_neg1"
wpn_subpro_improved_light_ioncannon			xwing_weapon1_pos_s06_0:weapon1_pos1	xwing_weapon1_neg_s06_0:weapon1_neg1	"xwing_weapon2_pos_s06_1:weapon2_pos1,xwing_weapon2_neg_s06_1:weapon2_neg1"
wpn_subpro_light_ioncannon			xwing_weapon1_pos_s06_0:weapon1_pos1	xwing_weapon1_neg_s06_0:weapon1_neg1	"xwing_weapon2_pos_s06_1:weapon2_pos1,xwing_weapon2_neg_s06_1:weapon2_neg1"
wpn_subpro_modified_tricannon			xwing_weapon1_pos_s01_0:weapon1_pos1	xwing_weapon1_neg_s01_0:weapon1_neg1	"xwing_weapon2_pos_s01_1:weapon2_pos1,xwing_weapon2_neg_s01_1:weapon2_neg1"
wpn_subpro_tricannon			xwing_weapon1_pos_s01_0:weapon1_pos1	xwing_weapon1_neg_s01_0:weapon1_neg1	"xwing_weapon2_pos_s01_1:weapon2_pos1,xwing_weapon2_neg_s01_1:weapon2_neg1"
wpn_subpro_tripleblaster			xwing_weapon1_pos_s04_0:weapon1_pos1	xwing_weapon1_neg_s04_0:weapon1_neg1	"xwing_weapon2_pos_s04_1:weapon2_pos1,xwing_weapon2_neg_s04_1:weapon2_neg1"
wpn_subpro_tripleblaster_mark2			xwing_weapon1_pos_s04_0:weapon1_pos1	xwing_weapon1_neg_s04_0:weapon1_neg1	"xwing_weapon2_pos_s04_1:weapon2_pos1,xwing_weapon2_neg_s04_1:weapon2_neg1"
wpn_subpro_tripleblaster_mark3			xwing_weapon1_pos_s01_0:weapon1_pos1	xwing_weapon1_neg_s01_0:weapon1_neg1	"xwing_weapon2_pos_s01_1:weapon2_pos1,xwing_weapon2_neg_s01_1:weapon2_neg1"
wpn_taim_elite			xwing_weapon1_pos_s01_0:weapon1_pos1	xwing_weapon1_neg_s01_0:weapon1_neg1	"xwing_weapon2_pos_s01_1:weapon2_pos1,xwing_weapon2_neg_s01_1:weapon2_neg1"
wpn_taim_heavy_laser			xwing_weapon1_pos_s03_0:weapon1_pos1	xwing_weapon1_neg_s03_0:weapon1_neg1	"xwing_weapon2_pos_s03_1:weapon2_pos1,xwing_weapon2_neg_s03_1:weapon2_neg1"
wpn_taim_ix4			xwing_weapon1_pos_s03_0:weapon1_pos1	xwing_weapon1_neg_s03_0:weapon1_neg1	"xwing_weapon2_pos_s03_1:weapon2_pos1,xwing_weapon2_neg_s03_1:weapon2_neg1"
wpn_taim_ix5			xwing_weapon1_pos_s01_0:weapon1_pos1	xwing_weapon1_neg_s01_0:weapon1_neg1	"xwing_weapon2_pos_s01_1:weapon2_pos1,xwing_weapon2_neg_s01_1:weapon2_neg1"
wpn_taim_kx5			xwing_weapon1_pos_s03_0:weapon1_pos1	xwing_weapon1_neg_s03_0:weapon1_neg1	"xwing_weapon2_pos_s03_1:weapon2_pos1,xwing_weapon2_neg_s03_1:weapon2_neg1"
wpn_taim_kx8			xwing_weapon1_pos_s01_0:weapon1_pos1	xwing_weapon1_neg_s01_0:weapon1_neg1	"xwing_weapon2_pos_s01_1:weapon2_pos1,xwing_weapon2_neg_s01_1:weapon2_neg1"
wpn_taim_kx9			xwing_weapon1_pos_s03_0:weapon1_pos1	xwing_weapon1_neg_s03_0:weapon1_neg1	"xwing_weapon2_pos_s03_1:weapon2_pos1,xwing_weapon2_neg_s03_1:weapon2_neg1"
wpn_tieadvanced_blaster			xwing_weapon1_pos_s01_0:weapon1_pos1	xwing_weapon1_neg_s01_0:weapon1_neg1	"xwing_weapon2_pos_s01_1:weapon2_pos1,xwing_weapon2_neg_s01_1:weapon2_neg1"
wpn_tractor_beam_gun			xwing_weapon1_pos_s05_0:weapon1_pos1	xwing_weapon1_neg_s05_0:weapon1_neg1	"xwing_weapon2_pos_s05_1:weapon2_pos1,xwing_weapon2_neg_s05_1:weapon2_neg1"
wpn_tractor_pulse_gun			xwing_weapon1_pos_s05_0:weapon1_pos1	xwing_weapon1_neg_s05_0:weapon1_neg1	"xwing_weapon2_pos_s05_1:weapon2_pos1,xwing_weapon2_neg_s05_1:weapon2_neg1"
wpn_trandoshan_fg1a			xwing_weapon1_pos_s06_0:weapon1_pos1	xwing_weapon1_neg_s06_0:weapon1_neg1	"xwing_weapon2_pos_s06_1:weapon2_pos1,xwing_weapon2_neg_s06_1:weapon2_neg1"
wpn_vengeance_ion_cannon			xwing_weapon1_pos_s06_0:weapon1_pos1	xwing_weapon1_neg_s06_0:weapon1_neg1	"xwing_weapon2_pos_s06_1:weapon2_pos1,xwing_weapon2_neg_s06_1:weapon2_neg1"
wpn_vulcan_cannon			xwing_weapon1_pos_s06_0:weapon1_pos1	xwing_weapon1_neg_s06_0:weapon1_neg1	"xwing_weapon2_pos_s06_1:weapon2_pos1,xwing_weapon2_neg_s06_1:weapon2_neg1"
wpn_z95_blaster			xwing_weapon1_pos_s01_0:weapon1_pos1	xwing_weapon1_neg_s01_0:weapon1_neg1	"xwing_weapon2_pos_s01_1:weapon2_pos1,xwing_weapon2_neg_s01_1:weapon2_neg1"
wpn_heavy_ionic_pulse_weapon			xwing_weapon1_pos_s06_0:weapon1_pos1	xwing_weapon1_neg_s06_0:weapon1_neg1	"xwing_weapon2_pos_s06_1:weapon2_pos1,xwing_weapon2_neg_s06_1:weapon2_neg1"
wpn_crafted_mining_laser_mk1			xwing_weapon1_pos_s05_0:weapon1_pos1	xwing_weapon1_neg_s05_0:weapon1_neg1	"xwing_weapon2_pos_s05_1:weapon2_pos1,xwing_weapon2_neg_s05_1:weapon2_neg1"
wpn_crafted_mining_laser_mk2			xwing_weapon1_pos_s05_0:weapon1_pos1	xwing_weapon1_neg_s05_0:weapon1_neg1	"xwing_weapon2_pos_s05_1:weapon2_pos1,xwing_weapon2_neg_s05_1:weapon2_neg1"
wpn_crafted_mining_laser_mk3			xwing_weapon1_pos_s05_0:weapon1_pos1	xwing_weapon1_neg_s05_0:weapon1_neg1	"xwing_weapon2_pos_s05_1:weapon2_pos1,xwing_weapon2_neg_s05_1:weapon2_neg1"
wpn_crafted_mining_laser_elite			xwing_weapon1_pos_s05_0:weapon1_pos1	xwing_weapon1_neg_s05_0:weapon1_neg1	"xwing_weapon2_pos_s05_1:weapon2_pos1,xwing_weapon2_neg_s05_1:weapon2_neg1"
wpn_ionic_pulse_weapon			xwing_weapon1_pos_s06_0:weapon1_pos1	xwing_weapon1_neg_s06_0:weapon1_neg1	"xwing_weapon2_pos_s06_1:weapon2_pos1,xwing_weapon2_neg_s06_1:weapon2_neg1"
wpn_reward_seinar_elite			xwing_weapon1_pos_s06_0:weapon1_pos1	xwing_weapon1_neg_s06_0:weapon1_neg1	"xwing_weapon2_pos_s06_1:weapon2_pos1,xwing_weapon2_neg_s06_1:weapon2_neg1"
wpn_kessel_imperial_rendili_prototype_x			xwing_weapon1_pos_s06_0:weapon1_pos1	xwing_weapon1_neg_s06_0:weapon1_neg1	"xwing_weapon2_pos_s06_1:weapon2_pos1,xwing_weapon2_neg_s06_1:weapon2_neg1"
wpn_kessel_imperial_sds_experimental_secret_ops			xwing_weapon1_pos_s06_0:weapon1_pos1	xwing_weapon1_neg_s06_0:weapon1_neg1	"xwing_weapon2_pos_s06_1:weapon2_pos1,xwing_weapon2_neg_s06_1:weapon2_neg1"
wpn_kessel_imperial_sfs_elite_ops			xwing_weapon1_pos_s06_0:weapon1_pos1	xwing_weapon1_neg_s06_0:weapon1_neg1	"xwing_weapon2_pos_s06_1:weapon2_pos1,xwing_weapon2_neg_s06_1:weapon2_neg1"
wpn_kessel_rebel_incom_dualcore_flashcannon			xwing_weapon1_pos_s06_0:weapon1_pos1	xwing_weapon1_neg_s06_0:weapon1_neg1	"xwing_weapon2_pos_s06_1:weapon2_pos1,xwing_weapon2_neg_s06_1:weapon2_neg1"
wpn_kessel_rebel_riiz_combine_slammer_cannon			xwing_weapon1_pos_s06_0:weapon1_pos1	xwing_weapon1_neg_s06_0:weapon1_neg1	"xwing_weapon2_pos_s06_1:weapon2_pos1,xwing_weapon2_neg_s06_1:weapon2_neg1"
wpn_kessel_rebel_unknown_rayslinger			xwing_weapon1_pos_s06_0:weapon1_pos1	xwing_weapon1_neg_s06_0:weapon1_neg1	"xwing_weapon2_pos_s06_1:weapon2_pos1,xwing_weapon2_neg_s06_1:weapon2_neg1"
wpn_reward_incom_elite			xwing_weapon1_pos_s06_0:weapon1_pos1	xwing_weapon1_neg_s06_0:weapon1_neg1	"xwing_weapon2_pos_s06_1:weapon2_pos1,xwing_weapon2_neg_s06_1:weapon2_neg1"
wpn_reward_seinar_elite			xwing_weapon1_pos_s06_0:weapon1_pos1	xwing_weapon1_neg_s06_0:weapon1_neg1	"xwing_weapon2_pos_s06_1:weapon2_pos1,xwing_weapon2_neg_s06_1:weapon2_neg1"
wpn_reward_slayn_elite			xwing_weapon1_pos_s06_0:weapon1_pos1	xwing_weapon1_neg_s06_0:weapon1_neg1	"xwing_weapon2_pos_s06_1:weapon2_pos1,xwing_weapon2_neg_s06_1:weapon2_neg1"
wpn_reward_subpro_elite			xwing_weapon1_pos_s06_0:weapon1_pos1	xwing_weapon1_neg_s06_0:weapon1_neg1	"xwing_weapon2_pos_s06_1:weapon2_pos1,xwing_weapon2_neg_s06_1:weapon2_neg1"
wpn_reward_taim_elite			xwing_weapon1_pos_s06_0:weapon1_pos1	xwing_weapon1_neg_s06_0:weapon1_neg1	"xwing_weapon2_pos_s06_1:weapon2_pos1,xwing_weapon2_neg_s06_1:weapon2_neg1"
wpn_nova_ioncannon			xwing_weapon1_pos_s07_0:weapon1_pos1	xwing_weapon1_neg_s07_0:weapon1_neg1	"xwing_weapon2_pos_s07_1:weapon2_pos1,xwing_weapon2_neg_s07_1:weapon2_neg1"
wpn_orion_disruptor			xwing_weapon1_pos_s07_0:weapon1_pos1	xwing_weapon1_neg_s07_0:weapon1_neg1	"xwing_weapon2_pos_s07_1:weapon2_pos1,xwing_weapon2_neg_s07_1:weapon2_neg1"
