component	engine	booster	weapon_0	weapon_1
s	s	s	s	s
collection_reward_booster_01_mk1		ykl37r_booster_s02:booster1		
collection_reward_booster_01_mk2		ykl37r_booster_s02:booster1		
collection_reward_booster_01_mk3		ykl37r_booster_s02:booster1		
collection_reward_booster_01_mk4		ykl37r_booster_s02:booster1		
collection_reward_booster_01_mk5		ykl37r_booster_s02:booster1		
bst_corellian_advanced_thrust_enhancer		ykl37r_booster_s01:booster1		
bst_corellian_elite_thrust_enhancer		ykl37r_booster_s01:booster1		
bst_corellian_experimental_tjh3		ykl37r_booster_s01:booster1		
bst_corellian_heavy_thrust_enhancer		ykl37r_booster_s02:booster1		
bst_corellian_highly_modified_elite_thrust_enhancer		ykl37r_booster_s01:booster1		
bst_corellian_performance_advanced_thrust_enhancer		ykl37r_booster_s01:booster1		
bst_corellian_promotional_standard_thrust_enhancer		ykl37r_booster_s01:booster1		
bst_corellian_standard_thrust_enhancer		ykl37r_booster_s01:booster1		
bst_corellian_tjh3		ykl37r_booster_s01:booster1		
bst_corellian_tuned_heavy_thrust_enhancer		ykl37r_booster_s02:booster1
bst_cygnus_flashboost3		ykl37r_booster_s01:booster1
bst_cygnus_flashboost4		ykl37r_booster_s01:booster1
bst_elite_booster		ykl37r_booster_s01:booster1
bst_freitek_outrunner_x1		ykl37r_booster_s01:booster1
bst_gallofree_light		ykl37r_booster_s01:booster1
bst_generic		ykl37r_booster_s01:booster1
bst_incom_deluxe_fynock		ykl37r_booster_s01:booster1
bst_incom_elite_sls_1		ykl37r_booster_s01:booster1
bst_incom_enhanced_mynock		ykl37r_booster_s01:booster1
bst_incom_fynock		ykl37r_booster_s01:booster1
bst_incom_intimidator_mk1		ykl37r_booster_s01:booster1
bst_incom_intimidator_mk2		ykl37r_booster_s01:booster1
bst_incom_intimidator_mk3		ykl37r_booster_s01:booster1
bst_incom_intimidator_mk4		ykl37r_booster_s01:booster1
bst_incom_mynock		ykl37r_booster_s01:booster1
bst_incom_nkj31		ykl37r_booster_s01:booster1
bst_incom_performance_nkj31		ykl37r_booster_s01:booster1
bst_incom_sls_1		ykl37r_booster_s01:booster1
bst_incom_supercharged_vynock		ykl37r_booster_s02:booster1
bst_incom_vynock		ykl37r_booster_s01:booster1
bst_kde_br12		ykl37r_booster_s01:booster1
bst_kessel_imperial_cygnus_hyperthrust		ykl37r_booster_s01:booster1
bst_kessel_imperial_sds_experimental_b7		ykl37r_booster_s01:booster1
bst_kessel_imperial_sfs_ultra_thrust		ykl37r_booster_s01:booster1
bst_kessel_rebel_incom_quicksilver		ykl37r_booster_s01:booster1
bst_kessel_rebel_incom_windrunner		ykl37r_booster_s01:booster1
bst_kessel_rebel_mandal_lightning_m1		ykl37r_booster_s01:booster1
bst_koensayr_advanced		ykl37r_booster_s01:booster1
bst_koensayr_charged_advanced		ykl37r_booster_s01:booster1
bst_koensayr_deluxe_elite		ykl37r_booster_s01:booster1
bst_koensayr_elite		ykl37r_booster_s01:booster1
bst_koensayr_evh12		ykl37r_booster_s01:booster1
bst_koensayr_heavy		ykl37r_booster_s02:booster1
bst_koensayr_modified_heavy		ykl37r_booster_s02:booster1
bst_koensayr_racer_mk1		ykl37r_booster_s02:booster1
bst_koensayr_racer_mk2		ykl37r_booster_s02:booster1
bst_koensayr_racer_mk3		ykl37r_booster_s02:booster1
bst_koensayr_racer_mk4		ykl37r_booster_s02:booster1
bst_koensayr_special_evh12		ykl37r_booster_s01:booster1
bst_koensayr_improved_standard		ykl37r_booster_s01:booster1
bst_koensayr_standard		ykl37r_booster_s01:booster1
bst_kse_als_1		ykl37r_booster_s01:booster1
bst_kse_bti1		ykl37r_booster_s01:booster1
bst_kse_bti2		ykl37r_booster_s01:booster1
bst_kse_bti3		ykl37r_booster_s01:booster1
bst_kse_cb6		ykl37r_booster_s01:booster1
bst_kse_deluxe_bti3		ykl37r_booster_s01:booster1
bst_kse_elite_als_1		ykl37r_booster_s01:booster1
bst_kse_enhanced_bti2		ykl37r_booster_s01:booster1
bst_kse_performance_bti1		ykl37r_booster_s01:booster1
bst_kse_performance_cb6		ykl37r_booster_s01:booster1
bst_kuat_military_mk1		ykl37r_booster_s02:booster1
bst_kuat_military_mk2		ykl37r_booster_s02:booster1
bst_kuat_military_mk3		ykl37r_booster_s01:booster1
bst_kuat_military_mk4		ykl37r_booster_s02:booster1
bst_mandal_deluxe_jbj_mk4		ykl37r_booster_s01:booster1
bst_mandal_enhanced_jbj_mk1		ykl37r_booster_s01:booster1
bst_mandal_improved_jbj_mk3		ykl37r_booster_s01:booster1
bst_mandal_jbj_mk1		ykl37r_booster_s01:booster1
bst_mandal_jbj_mk2		ykl37r_booster_s01:booster1
bst_mandal_jbj_mk3		ykl37r_booster_s01:booster1
bst_mandal_jbj_mk4		ykl37r_booster_s01:booster1
bst_mandal_jbj_mk5		ykl37r_booster_s01:booster1
bst_mandal_limited_jbj_mk5		ykl37r_booster_s01:booster1
bst_mandal_modified_jbj_mk2		ykl37r_booster_s01:booster1
bst_mission_reward_imperial_rss_ion_booster		ykl37r_booster_s02:booster1
bst_mission_reward_neutral_mandal_m_series		ykl37r_booster_s02:booster1
bst_mission_reward_neutral_mandal_q_series		ykl37r_booster_s02:booster1
bst_mission_reward_rebel_novaldex_hypernova		ykl37r_booster_s02:booster1
bst_mission_reward_rebel_qualdex_halcyon		ykl37r_booster_s02:booster1
bst_mk1		ykl37r_booster_s01:booster1
bst_mk2		ykl37r_booster_s01:booster1
bst_mk3		ykl37r_booster_s02:booster1
bst_mk4		ykl37r_booster_s02:booster1
bst_mk5		ykl37r_booster_s02:booster1
bst_moncal_advanced		ykl37r_booster_s01:booster1
bst_moncal_charged_heavy		ykl37r_booster_s01:booster1
bst_moncal_deluxe_standard		ykl37r_booster_s01:booster1
bst_moncal_elite		ykl37r_booster_s01:booster1
bst_moncal_enhanced_elite		ykl37r_booster_s01:booster1
bst_moncal_heavy		ykl37r_booster_s01:booster1
bst_moncal_jlc37		ykl37r_booster_s01:booster1
bst_moncal_limited_jlc37		ykl37r_booster_s01:booster1
bst_moncal_rare_advanced		ykl37r_booster_s01:booster1
bst_moncal_standard		ykl37r_booster_s01:booster1
bst_nova_breaker		ykl37r_booster_s01:booster1
bst_novaldex_pulsar		ykl37r_booster_s01:booster1
bst_novaldex_pulsar_advanced		ykl37r_booster_s01:booster1
bst_novaldex_quasar		ykl37r_booster_s01:booster1
bst_novaldex_quasar_advanced		ykl37r_booster_s01:booster1
bst_qualdex_xboost_mk1		ykl37r_booster_s01:booster1
bst_qualdex_xboost_mk2		ykl37r_booster_s01:booster1
bst_qualdex_xboost_mk3		ykl37r_booster_s01:booster1
bst_qualdex_xboost_mk4		ykl37r_booster_s01:booster1
bst_reward_incom_elite		ykl37r_booster_s01:booster1
bst_reward_koensayr_elite		ykl37r_booster_s01:booster1
bst_reward_kuat_elite		ykl37r_booster_s01:booster1
bst_reward_novaldex_elite		ykl37r_booster_s01:booster1
bst_reward_qualdex_elite		ykl37r_booster_s01:booster1
bst_rss_special		ykl37r_booster_s01:booster1
bst_sap_imperial_1		ykl37r_booster_s01:booster1
bst_sap_imperial_2		ykl37r_booster_s01:booster1
bst_sds_enhanced_imperial_2		ykl37r_booster_s01:booster1
bst_sfs_imperial_1		ykl37r_booster_s01:booster1
bst_sfs_imperial_2		ykl37r_booster_s01:booster1
bst_slayn_ion_booster_mk1		ykl37r_booster_s01:booster1
bst_sorosuub_enhanced_liberator_mk4		ykl37r_booster_s01:booster1
bst_sorosuub_improved_liberator_mk2		ykl37r_booster_s01:booster1
bst_sorosuub_liberator_mk1		ykl37r_booster_s01:booster1
bst_sorosuub_liberator_mk2		ykl37r_booster_s01:booster1
bst_sorosuub_liberator_mk3		ykl37r_booster_s01:booster1
bst_sorosuub_liberator_mk4		ykl37r_booster_s01:booster1
bst_sorosuub_liberator_mk5		ykl37r_booster_s01:booster1
bst_sorosuub_prized_liberator_mk1		ykl37r_booster_s01:booster1
bst_sorosuub_supercharged_liberator_mk3		ykl37r_booster_s01:booster1
bst_sorosuub_well_tuned_liberator_mk5		ykl37r_booster_s01:booster1
bst_subpro_accelatron_mk1		ykl37r_booster_s01:booster1
bst_subpro_accelatron_mk2		ykl37r_booster_s01:booster1
bst_subpro_accelatron_mk3		ykl37r_booster_s01:booster1
bst_subpro_accelatron_mk4		ykl37r_booster_s01:booster1
bst_subpro_accelatron_mk5		ykl37r_booster_s01:booster1
bst_subpro_deluxe_accelatron_mk3		ykl37r_booster_s01:booster1
bst_subpro_elite_accelatron_mk5		ykl37r_booster_s01:booster1
bst_subpro_enhanced_accelatron_mk2		ykl37r_booster_s01:booster1
bst_subpro_modified_accelatron_mk4		ykl37r_booster_s01:booster1
bst_subpro_tuned_accelatron_mk1		ykl37r_booster_s01:booster1
bst_surronian_accelerator_mk1		ykl37r_booster_s01:booster1
bst_surronian_accelerator_mk2		ykl37r_booster_s01:booster1
bst_surronian_nomad_x4		ykl37r_booster_s01:booster1
bst_surronian_nomad_x8		ykl37r_booster_s01:booster1
bst_tiefighter_basic		ykl37r_booster_s02:booster1
bst_xwing_booster_s01		ykl37r_booster_s01:booster1
bst_z95_basic		ykl37r_booster_s01:booster1
eng_bezelbok_kessel_runner	ykl37r_engine_s02:engine1	
eng_corellian_cruiser_grade_mk1	ykl37r_engine_s01:engine1	
eng_corellian_cruiser_grade_mk2	ykl37r_engine_s01:engine1	
eng_corellian_deluxe_cruiser_grade_mk1	ykl37r_engine_s01:engine1	
eng_crafted_incom_fusialthrust	ykl37r_engine_s01:engine1	
eng_crafted_novaldex_eventhorizon	ykl37r_engine_s02:engine1	
eng_crafted_qualdex_kyromaster	ykl37r_engine_s02:engine1	
eng_cygnus_hd3	ykl37r_engine_s01:engine1	
eng_cygnus_hd7	ykl37r_engine_s01:engine1	
eng_cygnus_hd8	ykl37r_engine_s01:engine1	
eng_cygnus_hd_5	ykl37r_engine_s01:engine1
eng_cygnus_hdx	ykl37r_engine_s01:engine1
eng_damorian_rx7	ykl37r_engine_s01:engine1
eng_elite_engine	ykl37r_engine_s02:engine1
eng_elite_mk2	ykl37r_engine_s02:engine1
eng_freitek_dual_jet	ykl37r_engine_s01:engine1
eng_gallofree_advanced	ykl37r_engine_s01:engine1
eng_gallofree_jx2	ykl37r_engine_s01:engine1
eng_gallofree_jx3	ykl37r_engine_s01:engine1
eng_generic	ykl37r_engine_s01:engine1
eng_h17_singularity	ykl37r_engine_s02:engine1
eng_haor_chall_old_engine	ykl37r_engine_s01:engine1
eng_incom_advanced	ykl37r_engine_s01:engine1
eng_incom_advanced_fusialthrust	ykl37r_engine_s01:engine1
eng_incom_e16	ykl37r_engine_s01:engine1
eng_incom_elite	ykl37r_engine_s01:engine1
eng_incom_fusialthrust	ykl37r_engine_s01:engine1
eng_incom_fusialthrust_2	ykl37r_engine_s01:engine1
eng_incom_heavy_fusialthrust	ykl37r_engine_s01:engine1
eng_incom_improved_fusialthrust_2	ykl37r_engine_s01:engine1
eng_incom_light_fusialthrust	ykl37r_engine_s01:engine1
eng_koensayr_advanced	ykl37r_engine_s01:engine1
eng_koensayr_dual_small_ionjet	ykl37r_engine_s01:engine1
eng_koensayr_elite	ykl37r_engine_s01:engine1
eng_koensayr_enhanced_dual_small_ionjet	ykl37r_engine_s01:engine1
eng_koensayr_heavy_ionjet	ykl37r_engine_s01:engine1
eng_koensayr_ionjet	ykl37r_engine_s01:engine1
eng_koensayr_small_ionjet	ykl37r_engine_s01:engine1
eng_koensayr_tuned_small_ionjet	ykl37r_engine_s01:engine1
eng_kongar_defender	ykl37r_engine_s01:engine1
eng_kse_a2x	ykl37r_engine_s01:engine1
eng_kse_a5x	ykl37r_engine_s01:engine1
eng_kse_a7x	ykl37r_engine_s01:engine1
eng_kse_a8x	ykl37r_engine_s01:engine1
eng_kse_advanced	ykl37r_engine_s01:engine1
eng_kse_elite	ykl37r_engine_s01:engine1
eng_kse_improved_a2x	ykl37r_engine_s01:engine1
eng_kuat_a9x	ykl37r_engine_s01:engine1
eng_kuat_f31	ykl37r_engine_s01:engine1
eng_kuat_tc40	ykl37r_engine_s01:engine1
eng_mandal_advanced	ykl37r_engine_s01:engine1
eng_mandal_elite	ykl37r_engine_s01:engine1
eng_mandal_enhanced_heavy	ykl37r_engine_s01:engine1
eng_mandal_firestorm	ykl37r_engine_s01:engine1
eng_mandal_firestorm_2	ykl37r_engine_s01:engine1
eng_mandal_heavy	ykl37r_engine_s01:engine1
eng_mandal_x37_vandal	ykl37r_engine_s01:engine1
eng_mandal_x57_vandal	ykl37r_engine_s01:engine1
eng_mission_reward_imperial_cygnus_megadrive	ykl37r_engine_s02:engine1
eng_mission_reward_neutral_haor_chall_military	ykl37r_engine_s02:engine1
eng_mission_reward_neutral_mandal_inferno	ykl37r_engine_s02:engine1
eng_mission_reward_rebel_incom_military	ykl37r_engine_s02:engine1
eng_mk1	ykl37r_engine_s01:engine1
eng_mk2	ykl37r_engine_s01:engine1
eng_mk3	ykl37r_engine_s02:engine1
eng_mk4	ykl37r_engine_s02:engine1
eng_mk5	ykl37r_engine_s02:engine1
eng_moncal_charged_standard	ykl37r_engine_s01:engine1
eng_moncal_enhanced_light	ykl37r_engine_s01:engine1
eng_moncal_heavy	ykl37r_engine_s01:engine1
eng_moncal_ifs32	ykl37r_engine_s01:engine1
eng_moncal_ifs64	ykl37r_engine_s01:engine1
eng_moncal_improved_heavy	ykl37r_engine_s01:engine1
eng_moncal_light	ykl37r_engine_s01:engine1
eng_moncal_standard	ykl37r_engine_s01:engine1
eng_novaldex_advanced	ykl37r_engine_s01:engine1
eng_novaldex_eventhorizon	ykl37r_engine_s02:engine1
eng_novaldex_light_eventhorizon	ykl37r_engine_s01:engine1
eng_novaldex_singularity	ykl37r_engine_s02:engine1
eng_novaldex_x12	ykl37r_engine_s02:engine1
eng_novaldex_x6	ykl37r_engine_s01:engine1
eng_novaldex_x7	ykl37r_engine_s01:engine1
eng_novaldex_x9	ykl37r_engine_s01:engine1
eng_nubian_221	ykl37r_engine_s01:engine1
eng_nubian_221_racing_mod	ykl37r_engine_s01:engine1
eng_prototype	ykl37r_engine_s02:engine1
eng_qualdex_a10	ykl37r_engine_s02:engine1
eng_qualdex_a13	ykl37r_engine_s01:engine1
eng_qualdex_advanced	ykl37r_engine_s01:engine1
eng_qualdex_b10	ykl37r_engine_s01:engine1
eng_qualdex_elite	ykl37r_engine_s01:engine1
eng_qualdex_igt	ykl37r_engine_s02:engine1
eng_qualdex_kyromaster	ykl37r_engine_s02:engine1
eng_qualdex_small_kyromaster	ykl37r_engine_s01:engine1
eng_quantum_ion_drive	ykl37r_engine_s02:engine1
eng_rendili_demon_mk1	ykl37r_engine_s01:engine1
eng_rendili_elite	ykl37r_engine_s01:engine1
eng_rss_advanced	ykl37r_engine_s01:engine1
eng_rss_elite	ykl37r_engine_s01:engine1
eng_rss_imperial_skyrunner	ykl37r_engine_s01:engine1
eng_rss_imperial_skyrunner_2	ykl37r_engine_s01:engine1
eng_rss_imperial_skyrunner_3	ykl37r_engine_s01:engine1
eng_rss_imperial_skyrunner_4	ykl37r_engine_s01:engine1
eng_sds_imperial_1	ykl37r_engine_s01:engine1
eng_sds_imperial_2	ykl37r_engine_s01:engine1
eng_sds_limited_imperial_1	ykl37r_engine_s01:engine1
eng_seinar_ps56	ykl37r_engine_s01:engine1
eng_sfs_advanced	ykl37r_engine_s01:engine1
eng_sfs_elite	ykl37r_engine_s01:engine1
eng_sfs_imperial_1	ykl37r_engine_s01:engine1
eng_sfs_imperial_2	ykl37r_engine_s01:engine1
eng_sfs_imperial_3	ykl37r_engine_s01:engine1
eng_sfs_imperial_4	ykl37r_engine_s01:engine1
eng_sfs_imperial_5	ykl37r_engine_s01:engine1
eng_sfs_modified_imperial_3	ykl37r_engine_s01:engine1
eng_sfs_performance_imperial_1	ykl37r_engine_s01:engine1
eng_sfs_tuned_imperial_2	ykl37r_engine_s01:engine1
eng_sorosuub_l_337_ion_engine	ykl37r_engine_s01:engine1
eng_sorosuub_tuned_l_337_ion_engine	ykl37r_engine_s01:engine1
eng_sorosuub_u83r_ion_drive	ykl37r_engine_s01:engine1
eng_subpro_light_engines	ykl37r_engine_s01:engine1
eng_surronian_a2	ykl37r_engine_s02:engine1
eng_surronian_a25	ykl37r_engine_s02:engine1
eng_ubrikkian_n2	ykl37r_engine_s01:engine1
eng_kessel_imperial_rendili_hyperion_drive	ykl37r_engine_s01:engine1
eng_kessel_imperial_sds_special_forces	ykl37r_engine_s01:engine1
eng_kessel_imperial_sfs_special_forces	ykl37r_engine_s01:engine1
eng_kessel_rebel_incom_t11_elite	ykl37r_engine_s01:engine1
eng_kessel_rebel_novaldex_blackhole_elite	ykl37r_engine_s01:engine1
eng_kessel_rebel_novaldex_grb1138	ykl37r_engine_s01:engine1
eng_reward_kuat_elite	ykl37r_engine_s01:engine1
eng_nova_01	ykl37r_engine_s01:engine1
eng_orion_01	ykl37r_engine_s01:engine1
collection_reward_engine_01_mk1	ykl37r_engine_s01:engine1
collection_reward_engine_01_mk2	ykl37r_engine_s01:engine1
collection_reward_engine_01_mk3	ykl37r_engine_s01:engine1
collection_reward_engine_01_mk4	ykl37r_engine_s01:engine1
collection_reward_engine_01_mk5	ykl37r_engine_s01:engine1
eng_t86_shooting_star	ykl37r_engine_s01:engine1			
eng_kuat_m24	ykl37r_engine_s01:engine1			
wpn_advanced_blaster			ykl37r_turret_base:turretyaw1	ykl37r_turret_base:turretyaw2
wpn_advanced_blaster_green			ykl37r_turret_base:turretyaw1	ykl37r_turret_base:turretyaw2
wpn_advanced_disruptor			ykl37r_turret_base:turretyaw1	ykl37r_turret_base:turretyaw2
wpn_advanced_ioncannon			ykl37r_turret_base:turretyaw1	ykl37r_turret_base:turretyaw2
wpn_armek_advanced			ykl37r_turret_base:turretyaw1	ykl37r_turret_base:turretyaw2
wpn_armek_elite			ykl37r_turret_base:turretyaw1	ykl37r_turret_base:turretyaw2
wpn_armek_sw4			ykl37r_turret_base:turretyaw1	ykl37r_turret_base:turretyaw2
wpn_armek_sw6			ykl37r_turret_base:turretyaw1	ykl37r_turret_base:turretyaw2
wpn_armek_sw7			ykl37r_turret_base:turretyaw1	ykl37r_turret_base:turretyaw2
wpn_armek_sw8			ykl37r_turret_base:turretyaw1	ykl37r_turret_base:turretyaw2
wpn_awing_blaster			ykl37r_turret_base:turretyaw1	ykl37r_turret_base:turretyaw2
wpn_borstel_rg9			ykl37r_turret_base:turretyaw1	ykl37r_turret_base:turretyaw2
wpn_bwing_blaster			ykl37r_turret_base:turretyaw1	ykl37r_turret_base:turretyaw2
wpn_corellian_1d			ykl37r_turret_base:turretyaw1	ykl37r_turret_base:turretyaw2
wpn_corellian_ag1g_laser			ykl37r_turret_base:turretyaw1	ykl37r_turret_base:turretyaw2
wpn_corellian_ag2g_quad_laser			ykl37r_turret_base:turretyaw1	ykl37r_turret_base:turretyaw2
wpn_corellian_cruiser_grade_blaster_mk1			ykl37r_turret_base:turretyaw1	ykl37r_turret_base:turretyaw2
wpn_corellian_heavy_gauss			ykl37r_turret_base:turretyaw1	ykl37r_turret_base:turretyaw2
wpn_crafted_incom_disruptor			ykl37r_turret_base:turretyaw1	ykl37r_turret_base:turretyaw2
wpn_crafted_slayn_ioncannon			ykl37r_turret_base:turretyaw1	ykl37r_turret_base:turretyaw2
wpn_crafted_subpro_tripleblaster			ykl37r_turret_base:turretyaw1	ykl37r_turret_base:turretyaw2
wpn_crafted_tractor_beam			ykl37r_turret_base:turretyaw1	ykl37r_turret_base:turretyaw2
wpn_cygnus_destroyer_mk1			ykl37r_turret_base:turretyaw1	ykl37r_turret_base:turretyaw2
wpn_cygnus_destroyer_mk2			ykl37r_turret_base:turretyaw1	ykl37r_turret_base:turretyaw2
wpn_cygnus_elite			ykl37r_turret_base:turretyaw1	ykl37r_turret_base:turretyaw2
wpn_cygnus_eradicator_1			ykl37r_turret_base:turretyaw1	ykl37r_turret_base:turretyaw2
wpn_elite_gauss			ykl37r_turret_base:turretyaw1	ykl37r_turret_base:turretyaw2
wpn_elite_null_bolt			ykl37r_turret_base:turretyaw1	ykl37r_turret_base:turretyaw2
wpn_elite_railgun			ykl37r_turret_base:turretyaw1	ykl37r_turret_base:turretyaw2
wpn_experimental_blaster			ykl37r_turret_base:turretyaw1	ykl37r_turret_base:turretyaw2
wpn_experimental_blaster_green			ykl37r_turret_base:turretyaw1	ykl37r_turret_base:turretyaw2
wpn_experimental_disruptor			ykl37r_turret_base:turretyaw1	ykl37r_turret_base:turretyaw2
wpn_experimental_ioncannon			ykl37r_turret_base:turretyaw1	ykl37r_turret_base:turretyaw2
wpn_fastspray_2000_disruptor			ykl37r_turret_base:turretyaw1	ykl37r_turret_base:turretyaw2
wpn_freitek_cannoneer_mk1			ykl37r_turret_base:turretyaw1	ykl37r_turret_base:turretyaw2
wpn_gyrhil_auto_blaster			ykl37r_turret_base:turretyaw1	ykl37r_turret_base:turretyaw2
wpn_gyrhil_r9x			ykl37r_turret_base:turretyaw1	ykl37r_turret_base:turretyaw2
wpn_haor_chall_speedblaster			ykl37r_turret_base:turretyaw1	ykl37r_turret_base:turretyaw2
wpn_heavy_blaster			ykl37r_turret_base:turretyaw1	ykl37r_turret_base:turretyaw2
wpn_heavy_blaster_green			ykl37r_turret_base:turretyaw1	ykl37r_turret_base:turretyaw2
wpn_heavy_disruptor			ykl37r_turret_base:turretyaw1	ykl37r_turret_base:turretyaw2
wpn_heavy_ioncannon			ykl37r_turret_base:turretyaw1	ykl37r_turret_base:turretyaw2
wpn_hk_modified_scorcher_elite			ykl37r_turret_base:turretyaw1	ykl37r_turret_base:turretyaw2
wpn_hk_scorcher			ykl37r_turret_base:turretyaw1	ykl37r_turret_base:turretyaw2
wpn_hk_scorcher_2			ykl37r_turret_base:turretyaw1	ykl37r_turret_base:turretyaw2
wpn_hk_scorcher_3			ykl37r_turret_base:turretyaw1	ykl37r_turret_base:turretyaw2
wpn_hk_scorcher_advanced			ykl37r_turret_base:turretyaw1	ykl37r_turret_base:turretyaw2
wpn_hk_scorcher_elite			ykl37r_turret_base:turretyaw1	ykl37r_turret_base:turretyaw2
wpn_hk_scorcher_heavy			ykl37r_turret_base:turretyaw1	ykl37r_turret_base:turretyaw2
wpn_hoersch_railgun			ykl37r_turret_base:turretyaw1	ykl37r_turret_base:turretyaw2
wpn_incom_advanced_blaster			ykl37r_turret_base:turretyaw1	ykl37r_turret_base:turretyaw2
wpn_incom_blaster			ykl37r_turret_base:turretyaw1	ykl37r_turret_base:turretyaw2
wpn_incom_disruptor			ykl37r_turret_base:turretyaw1	ykl37r_turret_base:turretyaw2
wpn_incom_elite_quad_blaster			ykl37r_turret_base:turretyaw1	ykl37r_turret_base:turretyaw2
wpn_incom_heavy_blaster			ykl37r_turret_base:turretyaw1	ykl37r_turret_base:turretyaw2
wpn_incom_heavy_quad_blaster			ykl37r_turret_base:turretyaw1	ykl37r_turret_base:turretyaw2
wpn_incom_light_blaster			ykl37r_turret_base:turretyaw1	ykl37r_turret_base:turretyaw2
wpn_incom_proton_missile_s01			ykl37r_turret_base:turretyaw1	ykl37r_turret_base:turretyaw2
wpn_incom_quad_blaster			ykl37r_turret_base:turretyaw1	ykl37r_turret_base:turretyaw2
wpn_incom_seismic_missile_s01			ykl37r_turret_base:turretyaw1	ykl37r_turret_base:turretyaw2
wpn_incom_shredder			ykl37r_turret_base:turretyaw1	ykl37r_turret_base:turretyaw2
wpn_incom_tt13			ykl37r_turret_base:turretyaw1	ykl37r_turret_base:turretyaw2
wpn_incom_tt8			ykl37r_turret_base:turretyaw1	ykl37r_turret_base:turretyaw2
wpn_ionic_pulse_weapon			ykl37r_turret_base:turretyaw1	ykl37r_turret_base:turretyaw2
wpn_kdy_pounder_mk1			ykl37r_turret_base:turretyaw1	ykl37r_turret_base:turretyaw2
wpn_koensayr_deluxe_ion_accelerator			ykl37r_turret_base:turretyaw1	ykl37r_turret_base:turretyaw2
wpn_koensayr_ion_accelerator			ykl37r_turret_base:turretyaw1	ykl37r_turret_base:turretyaw2
wpn_koensayr_ion_accelerator_2			ykl37r_turret_base:turretyaw1	ykl37r_turret_base:turretyaw2
wpn_koensayr_ion_accelerator_3			ykl37r_turret_base:turretyaw1	ykl37r_turret_base:turretyaw2
wpn_koensayr_ion_accelerator_advanced			ykl37r_turret_base:turretyaw1	ykl37r_turret_base:turretyaw2
wpn_koensayr_light_disruptor			ykl37r_turret_base:turretyaw1	ykl37r_turret_base:turretyaw2
wpn_koensayr_tuned_light_disruptor			ykl37r_turret_base:turretyaw1	ykl37r_turret_base:turretyaw2
wpn_kse_double_blaster			ykl37r_turret_base:turretyaw1	ykl37r_turret_base:turretyaw2
wpn_kse_light_disruptor			ykl37r_turret_base:turretyaw1	ykl37r_turret_base:turretyaw2
wpn_light_blaster			ykl37r_turret_base:turretyaw1	ykl37r_turret_base:turretyaw2
wpn_light_blaster_green			ykl37r_turret_base:turretyaw1	ykl37r_turret_base:turretyaw2
wpn_light_disruptor			ykl37r_turret_base:turretyaw1	ykl37r_turret_base:turretyaw2
wpn_light_ioncannon			ykl37r_turret_base:turretyaw1	ykl37r_turret_base:turretyaw2
wpn_mandal_advanced_annihilator			ykl37r_turret_base:turretyaw1	ykl37r_turret_base:turretyaw2
wpn_mandal_annihilator_mk2			ykl37r_turret_base:turretyaw1	ykl37r_turret_base:turretyaw2
wpn_mandal_annilhator_mk1			ykl37r_turret_base:turretyaw1	ykl37r_turret_base:turretyaw2
wpn_mandal_elite_annihilator			ykl37r_turret_base:turretyaw1	ykl37r_turret_base:turretyaw2
wpn_mandal_enhanced_mangler_mk1			ykl37r_turret_base:turretyaw1	ykl37r_turret_base:turretyaw2
wpn_mandal_heavy_annihilator			ykl37r_turret_base:turretyaw1	ykl37r_turret_base:turretyaw2
wpn_mandal_mangler_mk1			ykl37r_turret_base:turretyaw1	ykl37r_turret_base:turretyaw2
wpn_mandal_qv3_disruptor			ykl37r_turret_base:turretyaw1	ykl37r_turret_base:turretyaw2
wpn_mandal_qv5_disruptor			ykl37r_turret_base:turretyaw1	ykl37r_turret_base:turretyaw2
wpn_mandal_super_mangler			ykl37r_turret_base:turretyaw1	ykl37r_turret_base:turretyaw2
wpn_medium_blaster			ykl37r_turret_base:turretyaw1	ykl37r_turret_base:turretyaw2
wpn_medium_blaster_green			ykl37r_turret_base:turretyaw1	ykl37r_turret_base:turretyaw2
wpn_medium_disruptor			ykl37r_turret_base:turretyaw1	ykl37r_turret_base:turretyaw2
wpn_medium_ioncannon			ykl37r_turret_base:turretyaw1	ykl37r_turret_base:turretyaw2
wpn_mining_laser_mk1			ykl37r_turret_base:turretyaw1	ykl37r_turret_base:turretyaw2
wpn_mining_laser_mk2			ykl37r_turret_base:turretyaw1	ykl37r_turret_base:turretyaw2
wpn_mining_laser_mk3			ykl37r_turret_base:turretyaw1	ykl37r_turret_base:turretyaw2
wpn_mission_reward_imperial_cygnus_starblaster			ykl37r_turret_base:turretyaw1	ykl37r_turret_base:turretyaw2
wpn_mission_reward_imperial_sds_boltdriver			ykl37r_turret_base:turretyaw1	ykl37r_turret_base:turretyaw2
wpn_mission_reward_neutral_borstel_disruptor			ykl37r_turret_base:turretyaw1	ykl37r_turret_base:turretyaw2
wpn_mission_reward_neutral_hk_military_blaster			ykl37r_turret_base:turretyaw1	ykl37r_turret_base:turretyaw2
wpn_mission_reward_neutral_mandal_light_blaster			ykl37r_turret_base:turretyaw1	ykl37r_turret_base:turretyaw2
wpn_mission_reward_rebel_incom_tricannon			ykl37r_turret_base:turretyaw1	ykl37r_turret_base:turretyaw2
wpn_mission_reward_rebel_taim_ion_driver			ykl37r_turret_base:turretyaw1	ykl37r_turret_base:turretyaw2
wpn_moncal_light_blaster			ykl37r_turret_base:turretyaw1	ykl37r_turret_base:turretyaw2
wpn_prototype			ykl37r_turret_base:turretyaw1	ykl37r_turret_base:turretyaw2
wpn_prototype_tie			ykl37r_turret_base:turretyaw1	ykl37r_turret_base:turretyaw2
wpn_rendili_advanced			ykl37r_turret_base:turretyaw1	ykl37r_turret_base:turretyaw2
wpn_rendili_fr13_disruptor			ykl37r_turret_base:turretyaw1	ykl37r_turret_base:turretyaw2
wpn_rendili_fr9_disruptor			ykl37r_turret_base:turretyaw1	ykl37r_turret_base:turretyaw2
wpn_rendili_sc3_disruptor			ykl37r_turret_base:turretyaw1	ykl37r_turret_base:turretyaw2
wpn_rendili_sc8_disruptor			ykl37r_turret_base:turretyaw1	ykl37r_turret_base:turretyaw2
wpn_rss_imperial_cannon			ykl37r_turret_base:turretyaw1	ykl37r_turret_base:turretyaw2
wpn_sds_elite			ykl37r_turret_base:turretyaw1	ykl37r_turret_base:turretyaw2
wpn_sds_heavy_imperial_spc_forces_cannon			ykl37r_turret_base:turretyaw1	ykl37r_turret_base:turretyaw2
wpn_sds_imperial_blaster_1			ykl37r_turret_base:turretyaw1	ykl37r_turret_base:turretyaw2
wpn_sds_imperial_blaster_2			ykl37r_turret_base:turretyaw1	ykl37r_turret_base:turretyaw2
wpn_sds_imperial_special_forces_cannon			ykl37r_turret_base:turretyaw1	ykl37r_turret_base:turretyaw2
wpn_sds_modified_elite			ykl37r_turret_base:turretyaw1	ykl37r_turret_base:turretyaw2
wpn_seinar_concussion_missile_s01			ykl37r_turret_base:turretyaw1	ykl37r_turret_base:turretyaw2
wpn_seinar_disruptor			ykl37r_turret_base:turretyaw1	ykl37r_turret_base:turretyaw2
wpn_seinar_ion_cannon			ykl37r_turret_base:turretyaw1	ykl37r_turret_base:turretyaw2
wpn_seinar_linked_cannon			ykl37r_turret_base:turretyaw1	ykl37r_turret_base:turretyaw2
wpn_seinar_ls1			ykl37r_turret_base:turretyaw1	ykl37r_turret_base:turretyaw2
wpn_seinar_ls72			ykl37r_turret_base:turretyaw1	ykl37r_turret_base:turretyaw2
wpn_sfs_elite			ykl37r_turret_base:turretyaw1	ykl37r_turret_base:turretyaw2
wpn_sfs_imperial_blaster_1			ykl37r_turret_base:turretyaw1	ykl37r_turret_base:turretyaw2
wpn_sfs_imperial_blaster_2			ykl37r_turret_base:turretyaw1	ykl37r_turret_base:turretyaw2
wpn_sfs_imperial_blaster_3			ykl37r_turret_base:turretyaw1	ykl37r_turret_base:turretyaw2
wpn_sfs_imperial_blaster_4			ykl37r_turret_base:turretyaw1	ykl37r_turret_base:turretyaw2
wpn_sfs_imperial_special_forces_blaster			ykl37r_turret_base:turretyaw1	ykl37r_turret_base:turretyaw2
wpn_sfs_improved_imperial_blaster_2			ykl37r_turret_base:turretyaw1	ykl37r_turret_base:turretyaw2
wpn_sienar_heatseeker_missile_s01			ykl37r_turret_base:turretyaw1	ykl37r_turret_base:turretyaw2
wpn_slayn_deluxe_light_ioncannon			ykl37r_turret_base:turretyaw1	ykl37r_turret_base:turretyaw2
wpn_slayn_imagerec_missile_s01			ykl37r_turret_base:turretyaw1	ykl37r_turret_base:turretyaw2
wpn_slayn_ioncannon			ykl37r_turret_base:turretyaw1	ykl37r_turret_base:turretyaw2
wpn_slayn_light_ioncannon			ykl37r_turret_base:turretyaw1	ykl37r_turret_base:turretyaw2
wpn_subpro_advanced_cannon			ykl37r_turret_base:turretyaw1	ykl37r_turret_base:turretyaw2
wpn_subpro_improved_light_ioncannon			ykl37r_turret_base:turretyaw1	ykl37r_turret_base:turretyaw2
wpn_subpro_light_ioncannon			ykl37r_turret_base:turretyaw1	ykl37r_turret_base:turretyaw2
wpn_subpro_modified_tricannon			ykl37r_turret_base:turretyaw1	ykl37r_turret_base:turretyaw2
wpn_subpro_tricannon			ykl37r_turret_base:turretyaw1	ykl37r_turret_base:turretyaw2
wpn_subpro_tripleblaster			ykl37r_turret_base:turretyaw1	ykl37r_turret_base:turretyaw2
wpn_subpro_tripleblaster_mark2			ykl37r_turret_base:turretyaw1	ykl37r_turret_base:turretyaw2
wpn_subpro_tripleblaster_mark3			ykl37r_turret_base:turretyaw1	ykl37r_turret_base:turretyaw2
wpn_taim_elite			ykl37r_turret_base:turretyaw1	ykl37r_turret_base:turretyaw2
wpn_taim_heavy_laser			ykl37r_turret_base:turretyaw1	ykl37r_turret_base:turretyaw2
wpn_taim_ix4			ykl37r_turret_base:turretyaw1	ykl37r_turret_base:turretyaw2
wpn_taim_ix5			ykl37r_turret_base:turretyaw1	ykl37r_turret_base:turretyaw2
wpn_taim_kx5			ykl37r_turret_base:turretyaw1	ykl37r_turret_base:turretyaw2
wpn_taim_kx8			ykl37r_turret_base:turretyaw1	ykl37r_turret_base:turretyaw2
wpn_taim_kx9			ykl37r_turret_base:turretyaw1	ykl37r_turret_base:turretyaw2
wpn_tieadvanced_blaster			ykl37r_turret_base:turretyaw1	ykl37r_turret_base:turretyaw2
wpn_tractor_pulse_gun			ykl37r_turret_base:turretyaw1	ykl37r_turret_base:turretyaw2
wpn_trandoshan_fg1a			ykl37r_turret_base:turretyaw1	ykl37r_turret_base:turretyaw2
wpn_vengeance_ion_cannon			ykl37r_turret_base:turretyaw1	ykl37r_turret_base:turretyaw2
wpn_vulcan_cannon			ykl37r_turret_base:turretyaw1	ykl37r_turret_base:turretyaw2
wpn_z95_blaster			ykl37r_turret_base:turretyaw1	ykl37r_turret_base:turretyaw2
wpn_heavy_ionic_pulse_weapon			ykl37r_turret_base:turretyaw1	ykl37r_turret_base:turretyaw2
wpn_crafted_mining_laser_mk1			ykl37r_turret_base:turretyaw1	ykl37r_turret_base:turretyaw2
wpn_crafted_mining_laser_mk2			ykl37r_turret_base:turretyaw1	ykl37r_turret_base:turretyaw2
wpn_crafted_mining_laser_mk3			ykl37r_turret_base:turretyaw1	ykl37r_turret_base:turretyaw2
wpn_crafted_mining_laser_elite			ykl37r_turret_base:turretyaw1	ykl37r_turret_base:turretyaw2
wpn_ionic_pulse_weapon			ykl37r_turret_base:turretyaw1	ykl37r_turret_base:turretyaw2
wpn_reward_seinar_elite			ykl37r_turret_base:turretyaw1	ykl37r_turret_base:turretyaw2
wpn_kessel_imperial_rendili_prototype_x			ykl37r_turret_base:turretyaw1	ykl37r_turret_base:turretyaw2
wpn_kessel_imperial_sds_experimental_secret_ops			ykl37r_turret_base:turretyaw1	ykl37r_turret_base:turretyaw2
wpn_kessel_imperial_sfs_elite_ops			ykl37r_turret_base:turretyaw1	ykl37r_turret_base:turretyaw2
wpn_kessel_rebel_incom_dualcore_flashcannon			ykl37r_turret_base:turretyaw1	ykl37r_turret_base:turretyaw2
wpn_kessel_rebel_riiz_combine_slammer_cannon			ykl37r_turret_base:turretyaw1	ykl37r_turret_base:turretyaw2
wpn_kessel_rebel_unknown_rayslinger			ykl37r_turret_base:turretyaw1	ykl37r_turret_base:turretyaw2
wpn_reward_incom_elite			ykl37r_turret_base:turretyaw1	ykl37r_turret_base:turretyaw2
wpn_reward_seinar_elite			ykl37r_turret_base:turretyaw1	ykl37r_turret_base:turretyaw2
wpn_reward_slayn_elite			ykl37r_turret_base:turretyaw1	ykl37r_turret_base:turretyaw2
wpn_reward_subpro_elite			ykl37r_turret_base:turretyaw1	ykl37r_turret_base:turretyaw2
wpn_reward_taim_elite			ykl37r_turret_base:turretyaw1	ykl37r_turret_base:turretyaw2
wpn_nova_ioncannon			ykl37r_turret_base:turretyaw1	ykl37r_turret_base:turretyaw2
wpn_orion_disruptor			ykl37r_turret_base:turretyaw1	ykl37r_turret_base:turretyaw2
