objid	container	server_template_crc	cell_index	px	py	pz	qw	qx	qy	qz	scripts	objvars
i	i	h	i	f	f	f	f	f	f	f	s	p
4546344	0	object/static/structure/tatooine/concrete_slab_tatooine_16x8.iff	0	628.581	77.2821	1982.59	1	0	0	0		$|
4546345	0	object/static/structure/corellia/corl_tent_small.iff	0	626.864	85.4017	1985.63	0.9998	0	0.0199987	0		$|
4546346	0	object/tangible/furniture/all/frn_all_chair_metal_s1.iff	0	626.798	85.2283	1985.9	1	0	0	0		$|
9825363	0	object/tangible/furniture/all/frn_all_professor_desk.iff	0	626.544	85.2445	1986.63	-0.000398576	-0.000596609	0.999987	-0.00496429		$|
9825373	0	object/static/structure/tatooine/antenna_tatt_style_2.iff	0	626.886	84.1642	1988.34	0.99995	0	0.0099997	0		$|
9825381	0	object/static/structure/tatooine/debris_tatt_crate_metal_1.iff	0	628.081	85.9623	1986.61	-0.663731	0	0.747971	0		$|
9825382	0	object/static/structure/tatooine/debris_tatt_crate_1.iff	0	628.036	85.2784	1986.6	-0.663731	0	0.747971	0		$|
