 	deliveryPoint	deliveryShip	numAttackShipLists	attackShips1	attackShips2	attackShips3	attackShips4	attackShips5	attackShips6	attackShips7	attackShips8	attackPeriod	attackListType	triggerEvent	triggerSplitCondition	triggerArg	triggerArg2	triggerOn	triggerEndsMission	triggerDelay	autoReward	questDelay	_DESIGNER NOTES_	questSeries
s	s	s	i	s	s	s	s	s	s	s	s	i	"e(sequential=0,random=1)[sequential]"	"e(none=0,splitquest=1,surpriseattack=2)[none]"	"e(triggerOn=0,success=1,failure=2,both=3)[triggerOn]"	s	s	i	i	i	i	i	s	s
space_endor	space_endor:tatooine_imperial_tier4_deliver2	imp_freighterlight_tier4	3	reb_ywing_tier4	reb_awing_tier4	reb_bwing_tier4						90	sequential	none	triggerOn			-1	0	0	0	0		pilot_profession
				reb_ywing_tier4	reb_awing_tier4	reb_bwing_tier4																		
				reb_xwing_tier4	reb_awing_tier4	reb_awing_tier4																		
				reb_xwing_tier4	reb_awing_tier4	reb_awing_tier4																		
				reb_xwing_tier4	reb_awing_tier4	reb_awing_tier4																		
