db_id	templateFilename
s	s
hair_twilek_male_s01	object/tangible/hair/twilek/hair_twilek_male_s01.iff
hair_twilek_male_s02	object/tangible/hair/twilek/hair_twilek_male_s02.iff
hair_twilek_male_s03	object/tangible/hair/twilek/hair_twilek_male_s03.iff
hair_twilek_male_s04	object/tangible/hair/twilek/hair_twilek_male_s04.iff
hair_twilek_male_s05	object/tangible/hair/twilek/hair_twilek_male_s05.iff
hair_twilek_male_s06	object/tangible/hair/twilek/hair_twilek_male_s06.iff
hair_twilek_male_s07	object/tangible/hair/twilek/hair_twilek_male_s07.iff
hair_twilek_male_s08	object/tangible/hair/twilek/hair_twilek_male_s08.iff
