objid	container	server_template_crc	cell_index	px	py	pz	qw	qx	qy	qz	scripts	objvars
i	i	h	i	f	f	f	f	f	f	f	s	p
367317	0	object/static/structure/general/tato_cave_rock_large.iff	0	1600.99	21.6016	232.9	1	0	0	0		$|
367318	0	object/static/structure/general/campfire_ash.iff	0	1553.38	18.6099	202.572	1	0	0	0		$|
8215604	0	object/static/structure/dantooine/dant_jedi_wall_1.iff	0	212.357	23.2844	667.595	0.889293	0	0.457338	0		$|
8215605	0	object/static/structure/dantooine/dant_jedi_wall_2.iff	0	210.224	23.2805	671.072	0.952212	0	-0.305437	0		$|
8215606	0	object/static/structure/dantooine/dant_jedi_temple_pillar_fallen.iff	0	218.846	23.2981	677.273	0.617686	0	0.786425	0		$|
8215618	0	object/static/structure/dantooine/dant_fence_8m.iff	0	1094.22	1.49301	528.711	1	0	0	0		$|
8215619	0	object/static/structure/dantooine/dant_fence_8m.iff	0	1093.85	1.41694	532.996	1	0	0	0		$|
8215620	0	object/static/structure/dantooine/dant_fence_4m.iff	0	1098.02	1.3897	530.758	-0.663433	0	0.748235	0		$|
8215621	0	object/static/structure/dantooine/dant_fence_4m.iff	0	1090.02	1.59076	530.689	0.707107	0	-0.707106	0		$|
8215623	0	object/static/structure/dantooine/dant_large_rock_hut.iff	0	1103.76	1.22292	537.511	1	0	0	0		$|
8215624	0	object/static/structure/general/tato_cave_rock_large.iff	0	1107.73	0.77288	531.883	0.57352	0	0.819192	0		$|
8215626	0	object/static/structure/general/tato_cave_rock_med.iff	0	1102.32	1.44298	548.19	0.937646	0	0.34759	0		$|
8215627	0	object/static/structure/general/tato_cave_rock_med.iff	0	1098.56	1.18475	544.175	0.422133	0	0.906534	0		$|
8215628	0	object/static/structure/general/tato_cave_rock_med.iff	0	1097.91	1.28132	537.237	0.819648	0	-0.572867	0		$|
8215629	0	object/static/structure/general/tato_cave_rock_med.iff	0	1111.8	1.30343	532.512	0.963663	-0.00400081	0.014456	-0.266701		$|
8215632	0	object/static/structure/general/tato_cave_rock_med.iff	0	1109.41	1.22474	526.01	0.83973	0.277279	0.457425	0.0934482		$|
8215633	0	object/static/structure/general/tato_cave_rock_med.iff	0	1102.84	1.11297	530.223	-0.588329	-0.336571	0.732092	0.0680454		$|
8215635	0	object/static/structure/general/tato_cave_rock_med.iff	0	1106.37	1.0959	529.833	0.353944	0.524347	0.715173	-0.297173		$|
8215637	0	object/static/structure/general/tato_cave_rock_med.iff	0	1109.77	0.85496	529.893	0.796084	0	-0.605186	0		$|
8215638	0	object/static/structure/general/tato_cave_rock_med.iff	0	1111.25	1.2711	533.955	-0.629412	0	0.777072	0		$|
8215639	0	object/static/structure/general/tato_cave_rock_med.iff	0	1114.05	1.25708	531.377	0.877201	-0.19909	0.0461906	0.434451		$|
8215640	0	object/static/structure/general/tato_cave_rock_med.iff	0	1114.03	1.28247	536.198	0.797539	0.397273	0.41547	-0.183003		$|
8215641	0	object/static/structure/general/tato_cave_rock_med.iff	0	1112.04	1.18411	530.566	1	0	0	0		$|
8215648	0	object/static/structure/general/tato_cave_rock_large.iff	0	1111.74	2.15186	531.316	0.637151	0	0.770739	0		$|
8215649	0	object/static/structure/general/tato_cave_rock_large.iff	0	1104.7	1.13819	530.558	0.731689	0	0.681638	0		$|
8215650	0	object/static/structure/general/tato_cave_rock_large.iff	0	1105.84	1.20938	527.763	0.928665	0	0.37092	0		$|
8215651	0	object/static/structure/general/tato_cave_rock_large.iff	0	1094.98	1.52618	534.887	-0.21707	-0.13876	0.880989	-0.396843		$|
8215652	0	object/static/structure/general/tato_cave_rock_large.iff	0	1113.17	1.19225	539.107	0.961055	0	-0.276356	0		$|
8215657	0	object/static/structure/naboo/gungan_damaged_wide_arch_s01.iff	0	1592.11	14.5419	237.964	-0.286893	0.344	0.891205	-0.0714875		$|
8215658	0	object/static/structure/naboo/gungan_pillar_ruined_s01.iff	0	1588.22	14.4302	237.847	0.473816	-0.4245	0.759535	-0.13566		$|
8215659	0	object/static/structure/naboo/gungan_pillar_damaged_s01.iff	0	1591.02	11.282	241.849	1	0	0	0		$|
8215660	0	object/static/structure/tatooine/guild_ball_free_style_01.iff	0	1600.77	16.5458	233.06	1	0	0	0		$|
8215686	0	object/static/structure/dantooine/dant_skull_thune.iff	0	1956.71	31.0486	578.86	-0.137596	-0.173958	0.905297	0.362274		$|
8215690	0	object/static/structure/tatooine/skeleton_krayt_tail.iff	0	1956.68	30.2802	580.351	0.025804	0.0273319	0.996941	0.0685253		$|
8265387	0	object/building/endor/endor_lake_platform_cap.iff	0	1553.28	8.14694	202.625	0.988771	0	-0.149438	0		$|
8265390	0	object/static/structure/dantooine/dant_rack_spears.iff	0	1550.42	18.5365	201.749	0.833712	0	0.552199	0		$|
8265391	0	object/static/structure/dantooine/dant_boundary_post.iff	0	1559.98	14.9574	202.704	0.227202	0	0.973848	0		$|
8265394	0	object/static/structure/general/skeleton_human_headandbody.iff	0	1553.74	18.5562	202.697	-0.617686	0	0.786425	0		$|
8685355	0	object/static/structure/dantooine/dant_fence_8m.iff	0	1552.31	15.7873	199.951	0.988102	-0.0603057	-0.136176	-0.0383981		$|
8685356	0	object/static/structure/dantooine/dant_fence_4m.iff	0	1557.85	15.4197	201.915	0.975987	-0.0439491	-0.213131	-0.00959739		$|
8685357	0	object/static/structure/dantooine/dant_fence_4m.iff	0	1548.26	16.0663	200.94	-0.591993	-0.0437577	0.802488	-0.0603453		$|
8685358	0	object/static/structure/dantooine/dant_fence_4m.iff	0	1556.35	15.617	205.951	0.995452	-0.0096126	-0.0833729	-0.0450692		$|
8685359	0	object/static/structure/dantooine/dant_fence_8m.iff	0	1550.9	16.0406	204.131	0.982715	-0.00434496	-0.18377	-0.021931		$|
8685360	0	object/static/structure/dantooine/dant_fence_4m.iff	0	1558.79	15.3157	204.521	-0.571675	0.0665384	0.8157	0.0582638		$|
