skill_mod	profession	category	display	rank	divisor	percent	comment
s	s[ALL]	s	b	i[-1]	i	b	s
combat_slow	ALL	combat	1	3790			*Does this even exist?
invis	ALL	stealth	1	3780			*Does this exist?
private_place_bank	ALL	politics		3770			*Does this exist?
private_place_cityhall	ALL	politics		3760			*Does this exist?
private_place_cloning	ALL	politics		3750			*Does this exist?
private_place_exotic_garden	ALL	politics		3740			*Does this exist?
private_place_garage	ALL	politics		3730			*Does this exist?
private_place_hospital	ALL	politics		3720			*Does this exist?
private_place_large_garden	ALL	politics		3710			*Does this exist?
private_place_medium_garden	ALL	politics		3700			*Does this exist?
private_place_shuttleport	ALL	politics		3690			*Does this exist?
private_place_small_garden	ALL	politics		3680			*Does this exist?
expertise_critical_1h	officer_1a	officer	1	3670	1	1	1-H Critical Chance
expertise_damage_weapon_4	officer_1a	officer	1	3660	1	1	1-Handed Melee Damage
expertise_bm_enhanced_skill_acquisition	ALL	beastmaster	1	3655			Ability Acquisition Bonus
accuracy_modifier	ALL	attributes	1	3650			Accuracy
expertise_dot_duration_line_co_armor_splash	commando_1a	commando	1	3640			Acid DOT Duration
expertise_action_all	ALL	combat	1	3630			Action Cost Reduction
expertise_action_line_sm_dm	smuggler_1a	smuggler	1	3620			Action Decrease
expertise_bm_add_pet_bar	ALL	beastmaster	1	3615			Additional Combat Command
expertise_en_holographic_additional_backup	entertainer_1a	entertainer	1	3610			Additional Holographic Images
advanced_assembly	ALL	trader	1	3600			Advanced Assembly
advanced_ship_experimentation	ALL	trader	1	3590			Advanced Component Experimentation
agility_modified	ALL	attributes	1	3580			Agility
expertise_damage_all	ALL	combat	1	3570	1	1	All Attacks Damage
expertise_action_line_sp_stealth_melee	spy_1a	spy	1	3550			Ambush Action Cost
expertise_cooldown_line_dm_crit	bounty_hunter_1a	bounty_hunter	1	3540			Ambush Cooldown
expertise_critical_line_sp_stealth_melee	spy_1a	spy	1	3530			Ambush Critical Chance
expertise_critical_line_dm_crit	bounty_hunter_1a	bounty_hunter	1	3540			Ambush Critical Chance
expertise_damage_line_dm_crit	bounty_hunter_1a	bounty_hunter	1	3520			Ambush Damage
expertise_damage_line_sp_stealth_melee	spy_1a	spy	1	3510			Ambush Damage Increase
expertise_dot_damage_line_sp_stealth_melee	spy_1a	spy	1	3505	1	1	Ambush DOT Increase
expertise_critical_line_of_aoe	officer_1a	officer	1	3500			AOE Critical Chance
expertise_damage_area_effect	ALL	combat	1	3490			AOE Damage Bonus
area_damage_resist_full_percentage	ALL	combat	1	3480			AOE Resistance
expertise_assembly_increase_architect	ALL	trader	1	3470			Architect Assembly Increase
expertise_complexity_decrease_architect	ALL	trader	1	3460			Architect Complexity Decrease
expertise_experimentation_point_architect	ALL	trader	1	3450			Architect Experiment Point
expertise_experimentation_increase_architect	ALL	trader	1	3440			Architect Experimentation
expertise_action_line_of_aoe	officer_1a	officer	1	3430			Area Effect Action Cost
expertise_damage_line_of_aoe	officer_1a	officer	1	3420			Area Effect Damage
expertise_cooldown_line_me_aoe_revive	medic_1a	medic	1	3410			Area Revive Cooldown
armor_assembly	ALL	trader	1	3400			Armor Assembly
expertise_innate_reduction_all_player	bounty_hunter_1a	combat	1	3395			Armor Break
armor_customization	ALL	trader	1	3390			Armor Customization
expertise_riddle_armor	commando_1a	commando	1	3380			Armor Decrease
armor_experimentation	ALL	trader	1	3370			Armor Experimentation
kill_meter_co_armor_splash_proc	commando_1a	commando	1	3360			Armor Splash Chance
expertise_assembly_increase_armorsmith	ALL	trader	1	3350			Armorsmith Assembly Increase
expertise_complexity_decrease_armorsmith	ALL	trader	1	3340			Armorsmith Complexity Decrease
expertise_experimentation_point_armorsmith	ALL	trader	1	3330			Armorsmith Experiment Point
expertise_experimentation_increase_armorsmith	ALL	trader	1	3320			Armorsmith Experimentation
expertise_freeshot_of_aoe	officer_1a	officer	1	3317			Area Effect Freeshot Chance
fast_attack_line_of_aoe	officer_1a	officer	1	3313			Area Effect Fast Attack
general_assembly	ALL	trader	1	3310			Artisan Assembly
expertise_assembly_increase_artisan	ALL	trader	1	3300			Artisan Assembly Increase
expertise_experimentation_point_artisan	ALL	trader	1	3290			Artisan Experiment Point
expertise_experimentation_increase_artisan	ALL	trader	1	3280			Artisan Experimentation
general_experimentation	ALL	trader	1	3270			Artisan Experimentation
expertise_action_line_sp_dm	spy_1a	spy	1	3260			Assassinate Action Cost
expertise_cooldown_line_sp_dm	spy_1a	spy	1	3257			Assassinate Action Cost
expertise_critical_line_sp_dm	spy_1a	spy	1	3250			Assassinate Critical Chance
expertise_damage_line_sp_dm	spy_1a	spy	1	3240			Assassinate Damage
expertise_freeshot_sp_dm	spy_1a	spy	1	3230			Assassinate Freeshot Chance
fast_attack_line_sp_dm	spy_1a	spy	1	3227			Assassinate Fast-Attack
expertise_action_line_dm_crit	bounty_hunter_1a	bounty_hunter	1	3225			Assault Action Cost
expertise_action_line_dm	bounty_hunter_1a	bounty_hunter	1	3220			Assault Action Cost
expertise_cooldown_line_dm	bounty_hunter_1a	bounty_hunter	1	3210			Assault Cooldown
expertise_critical_line_dm	bounty_hunter_1a	bounty_hunter	1	3200			Assault Critical Chance
expertise_damage_line_dm	bounty_hunter_1a	bounty_hunter	1	3190			Assault Damage
expertise_freeshot_dm	bounty_hunter_1a	bounty_hunter	1	3180			Assault Freeshot
expertise_armorset_glancing_blow_melee_2	ALL	combat	1	3170			Assault Melee Defense
expertise_armorset_glancing_blow_ranged_2	ALL	combat	1	3165			Assault Ranged Defense
expertise_attacker_action_gain	ALL	combat	1	3163	1	1	Attack Damage Action Bonus
expertise_armorset_ranged_dodge_2	ALL	combat	1	3162			Ranged Dodge Chance
expertise_armorset_melee_block_2	ALL	combat	1	3161			Melee Block Chance
expertise_bm_pet_attack_speed	ALL	beastmaster	1	3148			Beast Attack Speed Increase
expertise_bm_self_debuff_reduction	ALL	beastmaster	1	3149			Attention Penalty Reduction
expertise_bm_pet_armor	ALL	beastmaster	1	3147			Beast Armor Percent
expertise_bm_pet_damage	ALL	beastmaster	1	3146			Beast Damage Percent
bm_xp_mod_boost	ALL	beastmaster	1	3144	1	1	Beast Expertise Bonus
expertise_bm_pet_happiness	ALL	beastmaster	1	3141			Beast Happiness
expertise_bm_pet_health	ALL	beastmaster	1	3140			Beast Hitpoint Percent
expertise_bm_pet_movement_rate	ALL	beastmaster	1	3130			Beast Movement Rate
expertise_bm_pet_recovery	ALL	beastmaster	1	3129			Beast Recovery Percent
expertise_bm_pet_regen	ALL	beastmaster	1	3128			Beast Regeneration Rate
expertise_bm_pet_revive_time	ALL	beastmaster	1	3127			Beast Revive Speed
bm_creature_knowledge	ALL	beastmaster	1	3126			Creature Knowledge
absorption_bleeding	ALL	combat	1	3125			Bleeding Absorption
resistance_bleeding	ALL	combat	1	3120			Bleeding Resistance
combat_block_chance	ALL	combat	1	3115			Block Chance
combat_block_value	ALL	combat	1	3114			Block Value
booster_assembly	ALL	trader	1	3110			Booster Assembly
booster_experimentation	ALL	trader	1	3100			Booster Experimentation
bounty_mission_level	bounty_hunter_1a	bounty_hunter	1	3090			Bounty Mission Difficulty
expertise_action_line_sp_burst_shadows	spy_1a	spy	1	3080			Burst of Shadows
expertise_cooldown_line_sp_burst_of_shadows	spy_1a	spy	1	3070			Burst of Shadows Cooldown
expertise_buff_duration_line_sp_burst_shadows	spy_1a	spy	1	3060			Burst of Shadows Duration
expertise_action_line_me_burst	medic_1a	medic	1	3055			Burst Action Cost
camouflage	ALL	stealth	1	3050			Camouflage
expertise_en_performance_increase	entertainer_1a	entertainer	1	3040			Camp Performace Increase
expertise_action_weapon_1	ALL	combat	1	3030			Carbine Action Cost
expertise_critical_carbine	ALL	combat	1	3020	1	1	Carbine Critical Chance
expertise_range_bonus_carbine	ALL	combat	1	3015			Carbine Range Bonus
expertise_damage_weapon_1	ALL	combat	1	3010	1	1	Carbine Damage
expertise_lucky_break_chance	smuggler_1a	smuggler	1	3000			Card Up Your Sleeve
chassis_assembly	ALL	trader	1	2990			Chassis Assembly
chassis_experimentation	ALL	trader	1	2980			Chassis Experimentation
engineering_reverse	ALL	trader	1	2970			Chassis/Armor Reverse Engineering
expertise_assembly_increase_chef	ALL	trader	1	2960			Chef Assembly Increase
expertise_complexity_decrease_chef	ALL	trader	1	2950			Chef Complexity Decrease
expertise_experimentation_point_chef	ALL	trader	1	2940			Chef Experiment Point
expertise_experimentation_increase_chef	ALL	trader	1	2930			Chef Experimentation
expertise_damage_line_fs_dm_cc	force_sensitive_1a	force_sensitive	1	2920	1	1	Choke Damage
expertise_buff_duration_line_fs_dm_cc	force_sensitive_1a	force_sensitive	1	2910			Choke Duration
expertise_root_chance_fs_dm_cc	force_sensitive_1a	force_sensitive	1	2900			Choke Root
clothing_assembly	ALL	trader	1	2890			Clothing Assembly
clothing_customization	ALL	trader	1	2880			Clothing Customization
clothing_experimentation	ALL	trader	1	2870			Clothing Experimentation
expertise_area_size_single_fs_mind_trick_2	force_sensitive_1a	force_sensitive	1	2865			Cloud Minds Size
display_only_block	ALL	combat	1	2859	100	1	Combat Defense: Block
display_only_dodge	ALL	combat	1	2858	100	1	Combat Defense: Dodge
display_only_evasion	ALL	combat	1	2857	100	1	Combat Defense: Evasion
display_only_glancing_blow	ALL	combat	1	2856	100	1	Combat Defense: Glancing Blow
display_only_parry	ALL	combat	1	2855	100	1	Combat Defense: Parry
display_only_expertise_critical_hit_reduction	ALL	combat	1	2854	100	1	Combat Defense: Critical Hit Reduction
display_only_expertise_critical_hit_pvp_reduction	ALL	combat	1	2853	100	1	Combat Defense: PvP Critical Hit Reduction
expertise_hit_by_luck	smuggler_1a	smuggler	1	2852	1	1	Combat Hit Increase Percentage
expertise_miss_by_luck	smuggler_1a	smuggler	1	2851	1	1	Combat Miss Increase Percentage
display_only_parry_reduction	ALL	combat	1	2850	100	1	Combat Offense: Combat Parry Reduction
display_only_critical	ALL	combat	1	2849	100	1	Combat Offense: Critical Chance
display_only_tohit	ALL	combat	1	2848	100	1	Combat Offense: To-hit Bonus
display_only_opp_block_reduction	ALL	combat	1	2847	100	1	Combat Offense: Opponent Block Reduction
display_only_opp_dodge_reduction	ALL	combat	1	2846	100	1	Combat Offense: Opponent Dodge Reduction
display_only_strikethrough	ALL	combat	1	2785	100	1	Combat Offense: Strikethrough
expertise_action_rifle	ALL	combat	1	2784	1	1	Rifle Action Cost Reduction
expertise_action_carbine	ALL	combat	1	2783	1	1	Carbine Action Cost Reduction
expertise_cooldown_line_sm_dm_cc	smuggler_1a	smuggler	1	2448			Concussion Shot Cooldown
expertise_freeshot_sm_dm_cc	smuggler_1a	smuggler	1	2845			Concussion Shot Freeshot Chance
constitution_modified	ALL	attributes	1	2844			Constitution
expertise_damage_convert_to_action	force_sensitive_1a	combat	1	2840			Convert Damage
expertise_bm_train_mount	ALL	beastmaster	1	2835			Create Mount
expertise_critical_niche_creature	ALL	combat	1	2830			Creature Critical Chance
creature_harvesting	ALL	misc	1	2820			Creature Harvesting
expertise_damage_line_dm_cc	bounty_hunter_1a	bounty_hunter	1	2810			Cripple Damage
fast_attack_line_dm_cc	bounty_hunter_1a	bounty_hunter	1	2805			Cripple Fast Attack
expertise_sp_cripple_trap_proc_increase	spy_1a	spy	1	2800			Cripple Trap Proc Chance
expertise_on_target_critical	commando_1a	commando	1	2790			Critical Chance
expertise_spot_a_sucker_critical_decrease	smuggler_1a	smuggler	1	2780			Critical Chance Decrease
expertise_critical_niche_all	ALL	combat	1	2770	1	1	Critical Chance Increase
expertise_on_target_protection	commando_1a	commando	1	2760			Critical Hit Protection
critical_hit_vulnerable	ALL	combat	1	2750			Critical Hit Vulnerability
expertise_damage_add_to_action	force_sensitive_1a	combat	1	2740	1	1	Damage Adds To Action
expertise_damage_attacker_action	force_sensitive_1a	combat	1	2730			Damage Attacker Action
damage_decrease_percentage	ALL	combat	1	2720	1	1	Damage Decrease
expertise_damage_decrease_chance	ALL	combat	1	2710			Damage Decrease Chance
level_add_to_damage	ALL	combat	1	2705	1	1	Damage Increase By Level
expertise_dot_increase	ALL	combat	1	2701			Damage Over Time Increase
expertise_buff_best_deal_ever	smuggler_1a	smuggler	1	2700			Damage Reduction
healing_dance_ability	entertainer_1a	entertainer	1	2690			Dance Knowledge
healing_dance_wound	entertainer_1a	entertainer	1	2680			Dancing Enhancement
expertise_cooldown_line_of_purge	officer_1a	officer	1	2675			Debuff/DoT Purge Cooldown
expertise_buff_duration_line_sp_decoy	spy_1a	spy	1	2670			Decoy Duration
defense_reverse	ALL	trader	1	2660			Defense Reverse Engineering
detect_hidden	ALL	stealth	1	2650			Detect Camoflage
expertise_devastation_bonus	commando_1a	commando	1	2645	10	1	Innate Devastation Value
expertise_burst_fire_devastation_bonus	commando_1a	commando	1	2640			Devastation Bonus
bh_dire_root	ALL	combat	1	2636			Dire Root Chance
bh_dire_snare	ALL	combat	1	2635			Dire Snare Chance
absorption_disease	ALL	combat	1	2630			Disease Absorption
resistance_disease	ALL	combat	1	2620			Disease Resistance
expertise_bm_dna_harvesting_1	ALL	beastmaster	1	2615			DNA Harvesting
combat_dodge	ALL	combat	1	2612			Dodge Chance
expertise_dot_duration_line_me_dot	medic_1a	medic	1	2610			DoT Duration
expertise_damage_line_me_dot	medic_1a	medic	1	2600			DoT Potency
expertise_dot_absorption_all	ALL	combat	1	2590	1	1	DOT Resistance
me_doom_chance	medic_1a	medic	1	2585			DOOM Chance
expertise_double_deal_chance	smuggler_1a	smuggler	1	2580			Double Deal Chance
expertise_double_hit_chance	smuggler_1a	smuggler	1	2570			Double Hit Chance
cybernetic_assembly	ALL	trader	1	2569			Cybernetic Assembly
cybernetic_customization	ALL	trader	1	2568			Cybernetic Customization
cybernetic_experimentation	ALL	trader	1	2567			Cybernetic Experimentation
expertise_experimentation_increase_cybernetic	ALL	trader	1	2566			Cybernetic Experimentation Roll Increase (Expertise)
droid_assembly	ALL	trader	1	2560			Droid Assembly
expertise_assembly_increase_droid	ALL	trader	1	2550			Droid Assembly Increase
expertise_complexity_decrease_droid	ALL	trader	1	2540			Droid Complexity Decrease
expertise_critical_niche_droid	ALL	combat	1	2530			Droid Critical Chance
droid_customization	ALL	trader	1	2520			Droid Customization
expertise_experimentation_point_droid	ALL	trader	1	2510			Droid Experiment Point
droid_experimentation	ALL	trader	1	2500			Droid Experimentation
expertise_experimentation_increase_droid	ALL	trader	1	2480			Droid Experimentation
droid_find_chance	bounty_hunter_1a	bounty_hunter	1	2470			Droid Precision
droid_find_speed	bounty_hunter_1a	bounty_hunter	1	2460			Droid Speed
droid_track_speed	bounty_hunter_1a	bounty_hunter	1	2450			Droid Tracking Speed
expertise_dueterium_rounds_proc	medic_1a	medic	1	2440			Dueterium Rounds
expertise_armorset_protection_1_energy	ALL	combat	1	2430			Energy Armor
expertise_armorset_protection_2_energy	ALL	combat	1	2420			Energy Armor
expertise_dot_duration_line_co_shock_tracer	commando_1a	commando	1	2410			Energy DOT Duration
expertise_innate_protection_energy	ALL	combat	1	2400			Energy Protection
engine_assembly	ALL	trader	1	2390			Engine Assembly
engine_experimentation	ALL	trader	1	2380			Engine Experimentation
expertise_buff_duration_line_me_enhance	medic_1a	medic	1	2370			Enhancement Duration
expertise_bm_enzyme_enhancement	ALL	beastmaster	1	2365			Enzyme Enhancement
expertise_force_cloak_combat_escape	force_sensitive_1a	force_sensitive	1	2360			Escape Combat
combat_evasion_chance	ALL	combat	1	2355			Evasion Chance
expertise_cooldown_line_me_evasion	medic_1a	medic	1	2354			Evasion Cooldown
combat_evasion_value	ALL	combat	1	2352			Evasion Value
expertise_factory_maintenance_decrease	ALL	trader	1	2350			Factory Cost Decrease
expertise_factory_energy_decrease	ALL	trader	1	2340			Factory Energy Decrease
expertise_factory_production_increase	ALL	trader	1	2330			Factory Production Increase
factory_speed	ALL	trader	1	2320			Factory Speed
expertise_cooldown_line_sm_false_hope	smuggler_1a	smuggler	1	2315			False Hope Cooldown
expertise_buff_duration_line_sm_false_hope	smuggler_1a	smuggler	1	2310			False Hope Duration
expertise_cooldown_line_sm_dm	smuggler_1a	smuggler	1	2305			Fast Draw Cooldown
expertise_critical_line_sm_dm	smuggler_1a	smuggler	1	2300			Fast Draw Critical Chance
expertise_damage_line_sm_dm	smuggler_1a	smuggler	1	2290			Fast Draw Damage
expertise_freeshot_sm_dm	smuggler_1a	smuggler	1	2280			Fast Draw Freeshot Chance
fast_attack_line_sm_dm	smuggler_1a	smuggler	1	2275			Fast Draw Quick Attack
expertise_fast_talk_bonus	smuggler_1a	smuggler	1	2270			Fast Talk Bonus
expertise_fast_talk_rank	smuggler_1a	smuggler	1	2260			Fast Talk Bonus Each Rank
expertise_sm_feeling_lucky_chance_proc	smuggler_1a	smuggler	1	2250			Feeling Lucky Proc
absorption_fire	ALL	combat	1	2240			Fire Absorption
expertise_dot_duration_line_co_it_burns	commando_1a	commando	1	2230			Fire DOT Duration
resistance_fire	ALL	combat	1	2220			Fire Resistance
expertise_cooldown_line_bh_flawless_strike	medic_1a	medic	1	2217			Flawless Strike
expertise_action_line_me_smash	medic_1a	medic	1	2215			Flurry Action Cost
expertise_focus_critical_buff_line	force_sensitive_1a	force_sensitive	1	2210	1	1	Focus Critical
expertise_focus_stamina	force_sensitive_1a	force_sensitive	1	2205			Focus Stamina
expertise_focus_strength	force_sensitive_1a	force_sensitive	1	2200			Focus Strength
expertise_action_line_co_dm	commando_1a	commando	1	2190	1	1	Focused Fire Action
expertise_critical_line_co_dm	commando_1a	commando	1	2180	1	1	Focused Fire Critical Chance
expertise_damage_line_co_dm	commando_1a	commando	1	2170			Focused Fire Damage
expertise_freeshot_co_dm	commando_1a	commando	1	2160	1	1	Focused Fire Freeshot Chance
food_assembly	ALL	trader	1	2150			Food Assembly
food_experimentation	ALL	trader	1	2140			Food Experimentation
expertise_damage_line_fs_ae_dm_cc	force_sensitive_1a	force_sensitive	1	2137	1	1	Force Electrical Damage
expertise_action_line_fs_cc_crit	force_sensitive_1a	force_sensitive	1	2135			Force Lightning Action Cost
expertise_cooldown_line_fs_cc_crit	force_sensitive_1a	force_sensitive	1	2133			Force Lightning Cooldown
expertise_buff_chance_line_fs_ae_dm_cc	force_sensitive_1a	force_sensitive	1	2130	1	1	Force Lightning Snare
expertise_buff_duration_line_fs_force_run	force_sensitive_1a	force_sensitive	1	2120			Force Run Duration
expertise_movement_buff_fs_force_run	force_sensitive_1a	force_sensitive	1	2110			Force Run Movement
expertise_action_line_fs_ae_dm_cc	force_sensitive_1a	force_sensitive	1	2105			Force Shockwave Action Cost
expertise_cooldown_line_fs_ae_dm_cc	force_sensitive_1a	force_sensitive	1	2103			Force Shockwave Cooldown
expertise_damage_line_fs_force_throw	force_sensitive_1a	force_sensitive	1	2100	1	1	Force Throw Damage
expertise_buff_chance_fs_force_throw_root	force_sensitive_1a	force_sensitive	1	2095	1	1	Force Throw Root
expertise_buff_chance_line_fs_force_throw	force_sensitive_1a	force_sensitive	1	2090	1	1	Force Throw Snare
fast_attack_line_fs_powers	force_sensitive_1a	force_sensitive	1	2087			Fury Chance
expertise_bm_genetic_engineering	ALL	beastmaster	1	2085			Genetic Engineering
expertise_spot_a_sucker_glance_chance	smuggler_1a	smuggler	1	2080			Glancing Blow Chance
expertise_glancing_blow_melee	ALL	combat	1	2070	1	1	Glancing Blow Chance (Melee)
expertise_glancing_blow_ranged	ALL	combat	1	2060	1	1	Glancing Blow Chance (Ranged)
expertise_co_muscle_spasm	commando_1a	commando	1	2050			Glancing Blow Increase
expertise_glancing_blow_all	ALL	combat	1	2040			Glancing Blow Increase
expertise_glancing_blow_all	force_sensitive_1a	combat	1	2030			Glancing Blow Increase
expertise_skill_buff_glancing_blow_vulnerable	commando_1a	commando	1	2020			Glancing Blow Increase
glancing_blow_vulnerable	ALL	combat	1	2010			Glancing Blow Increase
expertise_glancing_blow_melee_defense	ALL	combat	1	2005	1	1	Glancing Blow Melee Defense
expertise_action_line_co_grenade	commando_1a	commando	1	2000			Grenade Action Decrease
expertise_damage_line_co_grenade	commando_1a	commando	1	1990			Grenade Damage Increase
kill_meter_damage_line_co_grenade	commando_1a	commando	1	1980			Grenade Damage Increase
expertise_dot_duration_line_co_grenade	commando_1a	commando	1	1970			Grenade DOT Duration
expertise_freeshot_co_grenade	commando_1a	commando	1	1967			Grenade Freeshot Chance
fast_attack_line_co_grenade	commando_1a	commando	1	1965			Grenade Fast Attack Chance
expertise_area_size_line_co_grenade	commando_1a	commando	1	1960			Grenade Radius Increase
expertise_action_line_of_group_buff	officer_1a	officer	1	1950			Group Buff Action Cost
cooldown_percent_of_group_buff	officer_1a	officer	1	1945			Group Buff Cooldown Percent
expertise_buff_duration_line_of_group_buff	officer_1a	officer	1	1940			Group Buff Duration
expertise_sm_ranged_shot_proc	smuggler_1a	smuggler	1	1930			Hammer Fanning Chance
expertise_harvester_collection_increase	ALL	trader	1	1920			Harvester Collection Increase
expertise_harvester_maintenance_decrease	ALL	trader	1	1910			Harvester Cost Decrease
expertise_harvester_energy_decrease	ALL	trader	1	1900			Harvester Energy Decrease
expertise_havester_storage_increase	ALL	trader	1	1890			Havester Hopper Increase
expertise_cooldown_line_of_heal	officer_1a	officer	1	1880			Heal Cooldown
expertise_buff_chance_line_fs_heal	force_sensitive_1a	force_sensitive	1	1860	1	1	Heal DOT Chance
expertise_action_line_me_heal	medic_1a	medic	1	1850			Heal Efficiency
expertise_healing_line_me_hot	medic_1a	medic	1	1840			Heal Over Time Potency
expertise_healing_line_me_heal	medic_1a	medic	1	1830			Heal Potency
expertise_healing_line_of_heal	officer_1a	officer	1	1820			Heal Potency
expertise_agro_healing	medic_1a	medic	1	1810			Healing Hate Reduction
expertise_healing_all	medic_1a	medic	1	1800			Healing Potency
expertise_action_weapon_3	ALL	combat	1	1790			Heavy Weapon Action Cost
expertise_critical_heavy	ALL	combat	1	1780	1	1	Heavy Weapon Critical Chance
expertise_damage_weapon_3	ALL	combat	1	1770	1	1	Heavy Weapon Damage
hiring	ALL	trader	1	1760			Hiring
expertise_increase_hit_by_luck	smuggler_1a	smuggler	1	1755	1	1	Hit Roll Percentage Increase
expertise_critical_niche_npc	bounty_hunter_1a	bounty_hunter	1	1750			Humanoid Critical Chance
expertise_critical_niche_npc	medic_1a	medic	1	1740			Humanoid Critical Chance
expertise_buff_duration_line_fs_heal	force_sensitive_1a	force_sensitive	1	1730			Immunity Duration
expertise_buff_duration_line_sm_impossible_odds	smuggler_1a	smuggler	1	1726			Impossible Odds Duration Increase
expertise_en_improv	entertainer_1a	entertainer	1	1720			Improv Performances 20% Effectiveness
expertise_damage_to_healing_fs_ae_dm_cc	force_sensitive_1a	force_sensitive	1	1719	1	1	Improved Force Drain
expertise_avoidance_overpower	spy_1a	spy	1	1718			Indefensible Attack
expertise_bm_incubation_time	ALL	beastmaster	1	1717			Incubation Processing Time
expertise_bm_incubation_quality	ALL	beastmaster	1	1713			Incubation Quality
expertise_innate_protection_all	ALL	combat	1	1710			Innate Armor
expertise_underworld_boss	smuggler_1a	smuggler	1	1700			Innate Armor Bonus
expertise_youll_regret_that	commando_1a	commando	1	1690			Innate Armor Increase
tka_armor	force_sensitive_1a	combat	1	1680			Innate Teras Kasi Armor
expertise_en_inspire_attrib_increase	entertainer_1a	entertainer	1	1670			Inspire Attribute Bonus
expertise_en_inspire_base_point_increase	entertainer_1a	entertainer	1	1660			Inspire Base Point Increase
expertise_en_inspire_buff_duration_increase	entertainer_1a	entertainer	1	1650			Inspire Buff Duration Increase
expertise_en_combat_buff_increase	entertainer_1a	entertainer	1	1640			Inspire Effect
expertise_en_inspire_proc_chance_increase	entertainer_1a	entertainer	1	1630			Inspire Effect
expertise_en_inspire_pulse_duration_increase	entertainer_1a	entertainer	1	1620			Inspire Pulse Duration Increase
expertise_en_inspire_resist_increase	entertainer_1a	entertainer	1	1610			Inspire ResistanceIncrease
expertise_en_inspire_trader_increase	entertainer_1a	entertainer	1	1600			Inspire Trade Increase
of_inspired_action_chance	officer_1a	officer	1	1595			Inspired Action Chance
instrument_assembly	entertainer_1a	entertainer	1	1590			Instrument Assembly
kill_meter_co_it_burns_proc	commando_1a	commando	1	1580			It Burns Chance
expertise_action_line_fs_dm	force_sensitive_1a	force_sensitive	1	1570			Jedi Strike Action Cost
expertise_cooldown_line_fs_dm	force_sensitive_1a	force_sensitive	1	1565			Jedi Strike Cooldown
expertise_critical_line_fs_dm	force_sensitive_1a	force_sensitive	1	1560			Jedi Strike Critical Chance
expertise_freeshot_fs_dm	force_sensitive_1a	force_sensitive	1	1550			Jedi Strike Freeshot Chance
expertise_action_line_fs_sweep	force_sensitive_1a	force_sensitive	1	1545			Jedi Sweep Action Cost
expertise_cooldown_line_fs_sweep	force_sensitive_1a	force_sensitive	1	1543			Jedi Sweep Cooldown
expertise_armorset_protection_1_kinetic	ALL	combat	1	1540			Kinetic Armor
expertise_armorset_protection_2_kinetic	ALL	combat	1	1530			Kinetic Armor
expertise_innate_protection_kinetic	ALL	combat	1	1520			Kinetic Protection
expertise_buff_duration_line_fs_ae_dm_cc	force_sensitive_1a	force_sensitive	1	1510			Lightning Duration
jedi_saber_assembly	force_sensitive_1a	force_sensitive	1	1500			Lightsaber Assembly
jedi_saber_experimentation	force_sensitive_1a	force_sensitive	1	1490			Lightsaber Experimentation
luck_modified	ALL	attributes	1	1480			Luck
expertise_buff_duration_line_me_debuff	medic_1a	medic	1	1479			Medic Buff Duration
expertise_cooldown_line_me_dot	medic_1a	medic	1	1478			Medic DoT Cooldown
fast_attack_line_me_debuff	medic_1a	medic	1	1477			Medic Debuff Fast-Attack
expertise_freeshot_me_debuff	medic_1a	medic	1	1476			Medic Debuff Freeshot
expertise_freeshot_me_heal	medic_1a	medic	1	1475			Medic Heal Freeshot
expertise_critical_melee	ALL	combat	1	1473	1	1	Melee Critical Increase
expertise_damage_melee	ALL	combat	1	1470			Melee Damage Increase
expertise_damage_weapon_29	ALL	combat	1	1465	1	1	Melee Damage Increase
expertise_sm_card_melee_proc	smuggler_1a	smuggler	1	1460			Melee Double Attack
expertise_sm_melee_stun_proc	smuggler_1a	smuggler	1	1450			Melee Stun Chance
expertise_action_weapon_melee	ALL	combat	1	1445			Melee Weapon Action Cost
expertise_buff_duration_line_fs_mind_trick	force_sensitive_1a	force_sensitive	1	1440			Mind Trick Duration
missile_launching	ALL	piloting	1	1430			Missile Launching Skill
healing_music_ability	entertainer_1a	entertainer	1	1420			Music Knowledge
healing_music_wound	entertainer_1a	entertainer	1	1410			Musical Enhancement
expertise_sm_melee_proc	smuggler_1a	smuggler	1	1400			One Two Pummel Chance
expertise_damage_weapon_9	ALL	combat	1	1390	1	1	One-Hand Lightsaber Damage
expertise_action_weapon_4	ALL	combat	1	1380			One-Hand Melee Action Cost
expertise_action_weapon_9	ALL	combat	1	1370			One-Handed Lightsaber Action Cost
expertise_overridable_protection_generic	ALL	combat	1	1360			Overridable Protection
expertise_action_line_of_paint	officer_1a	officer	1	1350			Paint Target Action Cost
expertise_cooldown_line_of_paint	officer_1a	officer	1	1345			Paint Target Cooldown
expertise_damage_line_of_paint	officer_1a	officer	1	1340			Paint Target Damage
combat_parry	ALL	combat	1	1335			Parry Rating
fast_attack_line_sp_perfect	spy_1a	spy	1	1337			Perfect Opportunity Chance
pilot_special_tactics	ALL	piloting	1	1330			Pilot Special Tactics
expertise_action_weapon_2	ALL	combat	1	1320			Pistol Action Cost
expertise_critical_pistol	ALL	combat	1	1310	1	1	Pistol Critical Chance
expertise_damage_weapon_2	ALL	combat	1	1300	1	1	Pistol Damage
expertise_damage_pistol	ALL	combat	1	1290			Pistol Damage Increase
expertise_range_bonus_pistol	ALL	combat	1	1280			Pistol Range Bonus
absorption_poison	ALL	combat	1	1270			Poison Absorption
expertise_poison_knuckle_proc	medic_1a	medic	1	1260			Poison Knuckle
resistance_poison	ALL	combat	1	1250			Poison Resistance
expertise_action_weapon_7	ALL	combat	1	1240			Polearm Action Cost
expertise_critical_polearm	ALL	combat	1	1230	1	1	Polearm Critical Chance
expertise_damage_weapon_7	ALL	combat	1	1220	1	1	Polearm Damage
expertise_action_weapon_11	ALL	combat	1	1210			Polearm Lightsaber Action Cost
expertise_damage_weapon_11	ALL	combat	1	1200	1	1	Polearm Lightsaber Damage
power_systems	ALL	trader	1	1190			Power Systems
power_systems_experimentation	ALL	trader	1	1180			Power Systems Experimentation
precision_modified	ALL	attributes	1	1170			Precision
expertise_co_flash_bang	commando_1a	commando	1	1160			Precision Decrease
expertise_buff_duration_line_sp_preparation	spy_1a	spy	1	1157			Preparation Duration
expertise_cooldown_line_sp_preparation	spy_1a	spy	1	1155			Preparation Cooldown
propulsion_reverse	ALL	trader	1	1150			Propulsion Reverse Engineering
expertise_critical_niche_pvp	bounty_hunter_1a	bounty_hunter	1	1140			PvP Critical Chance
expertise_critical_niche_pvp	medic_1a	medic	1	1130			PvP Critical Chance
expertise_range_bonus_all	ALL	combat	1	1120			Range Increase
expertise_range_bonus_ranged	ALL	combat	1	1119			Range Increase (Ranged Weapons)
expertise_range_bonus_melee	ALL	combat	1	1118			Range Increase (Melee Weapons)
expertise_damage_ranged	ALL	combat	1	1110			Ranged Damage Increase
expertise_sm_card_ranged_proc	smuggler_1a	smuggler	1	1100			Ranged Double Attack
expertise_action_line_sp_hd_melee	spy_1a	spy	1	1090			Razor Slash Action Cost
expertise_damage_line_sp_hd_melee	spy_1a	spy	1	1080			Razor Slash Damage
kill_meter_co_youll_regret_that_reac	commando_1a	commando	1	1070			Regret Chance
expertise_damage_line_co_remote_detonator	commando_1a	commando	1	1060			Remote Detonator Damage
expertise_delay_line_co_remote_detonator	commando_1a	commando	1	1050			Remote Detonator Duration
expertise_area_size_line_co_remote_detonator	commando_1a	commando	1	1040			Remote Detonator Radius
expertise_resource_quality_increase	ALL	trader	1	1030			Resource Quality Increase
expertise_buff_duration_line_bh_return_fire	bounty_hunter_1a	bounty_hunter	1	1027			Return Fire Duration
expertise_cooldown_line_bh_return_fire	bounty_hunter_1a	bounty_hunter	1	1023			Return Fire Cooldown
expertise_cooldown_line_sp_reveal_shadows	spy_1a	spy	1	1020			Reveal Shadows
expertise_sp_reveal_shadows_detect_chance_increase	spy_1a	spy	1	1010			Reveal Shadows
expertise_sp_reveal_shadows_distance_increase	spy_1a	spy	1	1000			Reveal Shadows
expertise_reverse_engineering_bonus	ALL	trader	1	990			Reverse Engineering Chance
expertise_cooldown_line_me_revive	medic_1a	medic	1	980			Revive Cooldown
expertise_cooldown_line_co_riddle_armor	commando_1a	commando	1	975			Riddle Armor Cooldown
expertise_action_weapon_0	ALL	combat	1	970			Rifle Action Cost
expertise_critical_rifle	ALL	combat	1	960	1	1	Rifle Critical Chance
expertise_damage_weapon_0	ALL	combat	1	950	1	1	Rifle Damage
expertise_damage_line_fs_saber_reflect	force_sensitive_1a	force_sensitive	1	940	1	1	Saber Reflect Damage
expertise_resource_sampling_increase	ALL	trader	1	930			Sampling Resource Increase
expertise_resource_sampling_time_decrease	ALL	trader	1	920			Sampling Time Decrease
expertise_fs_force_clarity_1_proc	force_sensitive_1a	force_sensitive	1	910	1	1	Second Attack
expertise_co_burst_fire_proc	commando_1a	commando	1	900	1	1	Second Fire Chance
expertise_healing_line_sm_heal	smuggler_1a	smuggler	1	890			Self Heal Bonus
expertise_healing_line_sp_cloaked_heal	spy_1a	spy	1	880			Self Heal Bonus
expertise_healing_line_sp_heal	spy_1a	spy	1	870			Self Heal Bonus
shields_experimentation	ALL	trader	1	860			Shield Experimentation
shields_assembly	ALL	trader	1	850			Shields Assembly
ship_weapon_damage	ALL	piloting	1	845			Ship Weapon Damage
expertise_assembly_increase_shipwright	ALL	trader	1	840			Shipwright Assembly Increase
expertise_complexity_decrease_shipwright	ALL	trader	1	830			Shipwright Complexity Decrease
expertise_experimentation_point_shipwright	ALL	trader	1	820			Shipwright Experiment Point
expertise_experimentation_increase_shipwright	ALL	trader	1	810			Shipwright Experimentation
expertise_damage_line_fs_cc_crit	force_sensitive_1a	force_sensitive	1	800			Shockwave Damage
shop_sign	ALL	trader	1	790			Shop Sign Options
expertise_buff_duration_line_sm_skullduggery	smuggler_1a	smuggler	1	785			Skullduggery Duration Increase
expertise_sly_lie_bonus	smuggler_1a	smuggler	1	780			Sly Lie Bonus
expertise_sly_lie_rank	smuggler_1a	smuggler	1	770			Sly Lie Bonus Each Rank
expertise_action_line_sp_smoke	spy_1a	spy	1	760			Smoke Bomb
expertise_cooldown_line_sp_smoke	spy_1a	spy	1	750			Smoke Bomb Cooldown
expertise_movement_buff_invis_sp_buff_invis_1	spy_1a	spy	1	740			Smoke Bomb Movement
fast_attack_line_sp_smoke	spy_1a	spy	1	735			Smoke Bomb Fast Attack
expertise_increase_smuggler_loot	smuggler_1a	smuggler	1	730			Smuggler Loot Bonus
expertise_junk_dealer_cut	smuggler_1a	smuggler	1	720			Smuggler Profit Cut
expertise_sm_rank_damage_bonus	smuggler_1a	smuggler	1	715			Smuggling Rank Attack Damage Bonus
expertise_sm_rank_range_bonus	smuggler_1a	smuggler	1	714			Smuggling Rank Attack Range Bonus
expertise_buff_duration_group_snare	ALL	combat	1	710			Snare Duration
expertise_movement_buff_invis_sp_buff_stealth_1	spy_1a	spy	1	700			Sneak Movement
expertise_action_line_sp_stealth_ranged	spy_1a	spy	1	690			Snipe Action Cost
expertise_critical_line_sp_stealth_ranged	spy_1a	spy	1	680			Snipe Critical Chance
expertise_damage_line_sp_stealth_ranged	spy_1a	spy	1	670			Snipe Damage Increase
expertise_dot_damage_line_sp_stealth_ranged	spy_1a	spy	1	665	1	1	Snipe DOT Increase
expertise_critical_line_en_spiral_kick	entertainer_1a	entertainer	1	660			Spiral Kick Critical Chance
expertise_action_line_sp_dot	spy_1a	spy	1	655			Spy's Fang Action Cost
stamina_modified	ALL	attributes	1	650			Stamina
expertise_stance_constitution	force_sensitive_1a	force_sensitive	1	640			Stance Constitution
expertise_stance_evasion	force_sensitive_1a	force_sensitive	1	637			Stance Evasion
expertise_healing_line_fs_heal	force_sensitive_1a	force_sensitive	1	635	1	1	Stance Heal Damage
expertise_stance_glance_buff_line	force_sensitive_1a	force_sensitive	1	630	1	1	Stance Glance
expertise_stance_parry	force_sensitive_1a	force_sensitive	1	627			Stance Parry
expertise_stance_riposte	force_sensitive_1a	force_sensitive	1	625	1	1	Stance Riposte
expertise_stance_saber_block	force_sensitive_1a	force_sensitive	1	620			Stance Saber Block
expertise_cooldown_line_me_stasis_self	medic_1a	medic	1	615			Stasis Field (self) Cooldown
stealth	ALL	combat	1	610			Stealth
strength_modified	ALL	attributes	1	600			Strength
expertise_damage_line_fs_dm	force_sensitive_1a	force_sensitive	1	590			Strike Damage
combat_strikethrough_chance	ALL	combat	1	585			Strikethrough Chance
combat_strikethrough_value	ALL	combat	1	584			Strikethrough Value
strikethrough_vulnerable	ALL	combat	1	582			Strikethrough Vulnerable
structure_assembly	ALL	trader	1	580			Structure Assembly
structure_experimentation	ALL	trader	1	570			Structure Experimentation
expertise_cooldown_line_of_firepower	officer_1a	officer	1	560			Superior Firepower Cooldown
expertise_cooldown_line_of_sup	officer_1a	officer	1	550			Supply Drop Cooldown
expertise_action_line_of_sure	officer_1a	officer	1	540			Sure Shot Action Cost
expertise_cooldown_line_of_sure	officer_1a	officer	1	535			Sure Shot Cooldown
expertise_critical_line_of_sure	officer_1a	officer	1	530			Sure Shot Critical Chance
expertise_damage_line_of_sure	officer_1a	officer	1	520			Sure Shot Damage
expertise_freeshot_of_sure	officer_1a	officer	1	510			Sure Shot Freeshot Chance
surveying	ALL	trader	1	500			Surveying
expertise_damage_line_fs_sweep	force_sensitive_1a	force_sensitive	1	490			Sweep Damage
expertise_damage_line_en_sweeping_pirouette	entertainer_1a	entertainer	1	480			Sweeping Pirouette Damage Increase
fast_attack_line_me_revive	medic_1a	medic	1	477			Swift Revive Chance
fast_attack_line_of_heal	officer_1a	officer	1	476			Swift Heal Chance
fast_attack_line_me_heal	medic_1a	medic	1	475			Swift-Heal Other
systems_reverse	ALL	trader	1	470			Systems Reverse Engineering
expertise_assembly_increase_tailor	ALL	trader	1	460			Tailor Assembly Increase
expertise_complexity_decrease_tailor	ALL	trader	1	450			Tailor Complexity Decrease
expertise_experimentation_point_tailor	ALL	trader	1	440			Tailor Experiment Point
expertise_experimentation_increase_tailor	ALL	trader	1	430			Tailor Experimentation
expertise_socket_increase_tailor	ALL	trader	1	420			Tailor Socket Increase
slope_move	ALL	movement	1	410			Terrain Negotiation
expertise_buff_duration_line_en_debuff_thrill	entertainer_1a	entertainer	1	400			Thrill Duration Increase
expertise_en_debuff_thrill_increase	entertainer_1a	entertainer	1	390			Thrill Glancing Blow Increase
expertise_buff_duration_line_fs_force_throw	force_sensitive_1a	force_sensitive	1	380			Throw Snare Duration
droid_track_chance	bounty_hunter_1a	bounty_hunter	1	370			Tracking Droid Effectiveness
droid_tracks	bounty_hunter_1a	bounty_hunter	1	360			Tracking Droids
expertise_area_size_line_trap	bounty_hunter_1a	bounty_hunter	1	350			Trap Area Effect
expertise_critical_line_fldmot	spy_1a	spy	1	340			Trap Critical Chance
expertise_damage_line_fldmot	spy_1a	spy	1	330			Trap Initial Damage Increase
expertise_action_weapon_10	ALL	combat	1	320			Two-Hand Lightsaber Action Cost
expertise_damage_weapon_10	ALL	combat	1	310	1	1	Two-Hand Lightsaber Damage
expertise_action_weapon_5	ALL	combat	1	300			Two-Hand Melee Action Cost
expertise_critical_2h	ALL	combat	1	290	1	1	Two-Hand Melee Critical Chance
expertise_damage_weapon_5	ALL	combat	1	280	1	1	Two-Hand Melee Damage
expertise_action_weapon_6	ALL	combat	1	270			Unarmed Action Cost
expertise_critical_unarmed	medic_1a	medic	1	260	1	1	Unarmed Critical Chance
expertise_damage_weapon_6	medic_1a	medic	1	250	1	1	Unarmed Damage
expertise_damage_unarmed	ALL	combat	1	240			Undarmed Damage Increase
expertise_buff_duration_line_en_unhealthy_fixation_debuff	entertainer_1a	entertainer	1	230			Unhealthy Fixation Duration Increase
expertise_vendor_cost_decrease	ALL	trader	1	220			Vendor Cost Decrease
expertise_vendor_item_limit	ALL	trader	1	210			Vendor Item Increase
vendor_item_limit	ALL	trader	1	200			Vendor Item Limit
expertise_vendor_limit_increase	ALL	trader	1	195			Vendor Limit Increase
manage_vendor	ALL	trader	1	190			Vendors
expertise_action_line_me_dm	medic_1a	medic	1	185			Vital Strike Action Cost
expertise_critical_line_me_dm	medic_1a	medic	1	180			Vital Strike Critical Chance
fast_attack_line_me_dm	medic_1a	medic	1	177			Vital Strike Fast Attack
expertise_damage_line_me_dm	medic_1a	medic	1	175			Vital Strike Damage
expertise_freeshot_me_dm	medic_1a	medic	1	170			Vital Strike Freeshot Chance
expertise_buff_en_void_dance_buff	entertainer_1a	entertainer	1	165			Void Dance Increase
weapon_assembly	ALL	trader	1	160			Weapon Assembly
expertise_damage_weapon_all	ALL	combat	1	155	1	1	Weapon Damage Increase
kill_meter_damage_weapon_all	commando_1a	commando	1	150			Weapon Damage Increase
weapon_experimentation	ALL	trader	1	145			Weapon Experimentation
weapon_systems	ALL	trader	1	140			Weapon Systems
weapon_systems_experimentation	ALL	trader	1	135			Weapon Systems Experimentation
expertise_assembly_increase_weaponsmith	ALL	trader	1	130			Weaponsmith Assembly Increase
expertise_complexity_decrease_weaponsmith	ALL	trader	1	125			Weaponsmith Complexity Decrease
expertise_experimentation_point_weaponsmith	ALL	trader	1	120			Weaponsmith Experiment Point
expertise_experimentation_increase_weaponsmith	ALL	trader	1	115			Weaponsmith Experimentation
expertise_action_line_sp_without_trace	spy_1a	spy	1	110			Without a Trace
expertise_cooldown_line_sp_without_trace	spy_1a	spy	1	105			Without a Trace Cooldown
attributes		attributes		90			
beastmaster		beastmaster		80			
bounty_hunter		bounty_hunter		70			
combat		combat		60			
force_sensitive		force_sensitive		50			
misc		misc		40			
cybernetic_psychosis_resistance	ALL	misc	1	39			number of cybernetic installation points a character has
movement		movement		30			
piloting		piloting		20			
politics		politics		10			
species		species		5			
species_bothan	ALL	species	1	5000			
species_human	ALL	species	1	5001			
species_moncal	ALL	species	1	5002			
species_rodian	ALL	species	1	5003			
species_trandoshan	ALL	species	1	5004			
species_twilek	ALL	species	1	5005			
species_wookiee	ALL	species	1	5006			
species_zabrak	ALL	species	1	5007			
species_ithorian	ALL	species	1	5008			
species_sullustan	ALL	species	1	5009			
trader		trader		9			
structure_customization	ALL	trader	1	2379			Structure Customization
instrument_customization	ALL	entertainer	1	5010			Instrument Customization
expertise_aggro_channel	officer_1a	officer	1	3671			Channel Hate Ability Percentage
special_vendor_tcg_series1_ewok	ALL	misc	1	6000			TCG Set 1 & 2 Vendor
special_vendor_tcg_series1_gungan	ALL	misc	1	6010			TCG Set 1 & 2 Vendor
special_vendor_tcg_series1_jawa	ALL	misc	1	6020			TCG Set 1 & 2 Vendor
special_vendor_tcg_series1_meatlump	ALL	misc	1	6030			TCG Set 1 & 2 Vendor
special_vendor_tcg_series1_bomarr_monk	ALL	misc	1	6040			TCG Set 1 & 2 Vendor
special_vendor_tcg_series1_serving_droid	ALL	misc	1	6050			TCG Set 1 & 2 Vendor
special_vendor_tcg_series3_nightsister	ALL	misc	1	6060			TCG Set 3 Vendor
special_vendor_tcg_series3_battle_droid	ALL	misc	1	6070			TCG Set 3 Vendor
special_vendor_tcg_series4_toydarian	ALL	misc	1	6080			TCG Set 4 Vendor
special_vendor_tcg_series4_kitonak	ALL	misc	1	6090			TCG Set 4 Vendor
special_sign_tcg_series3	ALL	misc	1	7000			TCG Set 3 animated signs
special_sign_tcg_series5	ALL	misc	1	7001			TCG Set 5 signs
special_sign_halloween_hanging_sign	ALL	misc	1	7010			"Galactic Moon Festival Signs, version 2"
special_sign_halloween_standing_sign	ALL	misc	1	7020			"Galactic Moon Festival Signs, version 2"
special_sign_imp_empire_day_standing	ALL	misc	1	7021			Empire Day 2009
special_sign_imp_empire_day_hanging	ALL	misc	1	7022			Empire Day 2009
special_sign_reb_empire_day_standing	ALL	misc	1	7023			Empire Day 2009
special_sign_reb_empire_day_hanging	ALL	misc	1	7024			Empire Day 2009
special_sign_chronicle_master_standing_sign	ALL	misc	1	7025			Chronicle Master Signs - Standing
special_sign_chronicle_master_hanging_sign	ALL	misc	1	7026			Chronicle Master Signs - Hanging
milk_quantity_modified	ALL	attributes	1	8000			Modifier for milk that can be harvested
milk_exceptional_modified	ALL	attributes	1	8010			Modifier for exceptional milk that can be harvested (collection item)
milk_stun_modified	ALL	attributes	1	8020			Modifier for stunning while milking
movement_resist_snare	ALL	movement	1	8030			snare reduction
resistance_spice_downer	ALL	attributes	1	8040			modifier for spice downer
resistance_incapacitation	ALL	attributes	1	8050			modifier for incapacitation
bm_incubator_dps_armor	ALL	beastmaster	1	8060			Ability Acquisition Bonus
bm_mutation_chance_increase	ALL	beastmaster	1	8070			Ability Acquisition Bonus
incubation_time_reduction	ALL	beastmaster	1	8080			Ability Acquisition Bonus
