objid	container	server_template_crc	cell_index	px	py	pz	qw	qx	qy	qz	scripts	objvars
i	i	h	i	f	f	f	f	f	f	f	s	p
8245352	0	object/static/dathomir/dath_mistyfalls_waterfall1.iff	0	933	96.5	1326	1	0	0	0		$|
8245353	0	object/static/dathomir/dath_mistyfalls_waterfall2.iff	0	1585.46	101.892	1565.73	1	0	0	0		$|
8245354	0	object/static/dathomir/dath_mistyfalls_waterfall2.iff	0	1586.84	102.319	1567.96	1	0	0	0		$|
8245355	0	object/static/dathomir/dath_mistyfalls_waterfall1.iff	0	934.615	96.5185	1324.09	1	0	0	0		$|
