objid	container	server_template_crc	cell_index	px	py	pz	qw	qx	qy	qz	scripts	objvars
i	i	h	i	f	f	f	f	f	f	f	s	p
189479	0	object/static/structure/general/streetlamp_small_green_style_01.iff	0	178.889	160.325	1990.98	3.20E-08	1	0	0		$|
1392889	0	object/building/military/outpost_cloning_facility_s03.iff	0	628.491	6	1006.08	0.707107	0	-0.707106	0	structure.municipal.cloning_facility:structure.municipal.cloning_base	healing.canhealshock|0|1|$|
1392890	1392889	object/cell/cell.iff	1	0	0	0	1	1.401298E-45	0	0		$|
1392891	1392889	object/cell/cell.iff	2	0	0	0	1	2.802597E-45	0	0		$|
1392892	1392889	object/cell/cell.iff	3	0	0	0	1	4.203895E-45	0	0		$|
1392893	1392889	object/cell/cell.iff	4	0	0	0	1	5.605194E-45	0	0		$|
1392894	1392889	object/cell/cell.iff	5	0	0	0	1	7.006492E-45	0	0		$|
1392895	1392889	object/cell/cell.iff	6	0	0	0	1	8.407791E-45	0	0		$|
1392896	0	object/building/military/outpost_shed_s03.iff	0	567.5162	6	1012.568	0.707107	0	0.7071065	0		$|
1392897	1392896	object/cell/cell.iff	1	0	0	0	1	1.401298E-45	0	0		$|
1392898	1392896	object/cell/cell.iff	2	0	0	0	1	2.802597E-45	0	0		$|
1392899	1392896	object/cell/cell.iff	3	0	0	0	1	4.203895E-45	0	0		$|
1392900	1392896	object/cell/cell.iff	4	0	0	0	1	5.605194E-45	0	0		$|
1392901	1392896	object/cell/cell.iff	5	0	0	0	1	7.006492E-45	0	0		$|
1392902	1392896	object/cell/cell.iff	6	0	0	0	1	8.407791E-45	0	0		$|
1392905	0	object/tangible/terminal/terminal_bazaar.iff	0	572.61	6	1044.46	0.444661	0	0.895699	0		$|
1392906	0	object/tangible/terminal/terminal_bank.iff	0	580.123	6	1058.82	0.0791209	0	0.996865	0		$|
1403884	0	object/tangible/terminal/terminal_bank.iff	0	570.03	6.00235	1044.11	-0.264513	0	0.964382	0		$|
2665977	0	object/static/structure/dathomir/mtn_clan_pillar_s01.iff	0	268.52	179.875	2012.62	0.059916	-0.0398914	0.997402	-0.00279697		$|
2665978	0	object/static/structure/dathomir/mtn_clan_gate_s01.iff	0	178.742	152.568	1990.77	-0.597515	0	0.801858	0		$|
4685522	0	object/static/item/item_briefcase.iff	0	588.704	6	1010.45	0.710913	0	-0.70328	0		$|
4685524	0	object/static/item/item_container_energy_liquid.iff	0	588.707	6	1009.52	1	0	0	0		$|
4685525	0	object/static/item/item_container_energy_liquid.iff	0	588.373	6	1009.53	1	0	0	0		$|
4685526	0	object/static/item/item_container_energy_solid.iff	0	588.123	6	1010.01	1	0	0	0		$|
4685527	0	object/static/item/item_container_energy_solid.iff	0	588.108	6	1010.55	0.99995	0	-0.00999984	0		$|
4685528	0	object/static/item/item_container_energy_solid.iff	0	588.134	6.34785	1010.25	0.9998	0	-0.0199987	0		$|
5645355	0	object/static/item/item_basket_shallow.iff	0	591.572	6.18974	987.141	0.955336	0	0	0.29552		$|
5645541	0	object/static/item/item_container_organic_food.iff	0	591.612	6	992.558	0.902611	0	-0.430458	0		$|
5645542	0	object/static/item/item_container_organic_food.iff	0	591.278	6	992.125	-0.228753	0	0.973485	0		$|
5645543	0	object/static/item/item_container_organic_food.iff	0	591.152	6.15811	992.905	0.596336	-0.37733	-0.373873	0.60185		$|
5645544	0	object/static/item/item_container_organic_structure.iff	0	586.056	6	995.438	0.872744	0	0.488177	0		$|
5645545	0	object/static/item/item_container_organic_structure.iff	0	586.708	6	996.281	0.984727	0	0.174108	0		$|
5645546	0	object/static/item/item_container_organic_structure.iff	0	585.789	6	996.189	0.90687	0	-0.42141	0		$|
5645547	0	object/static/item/item_container_organic_hide.iff	0	581.102	6	1002.14	0.844589	0	-0.535416	0		$|
5645548	0	object/static/item/item_container_organic_hide.iff	0	581.089	6.4111	1002.13	0.979061	0	0.203567	0		$|
5645550	0	object/static/structure/tatooine/debris_tatt_crate_metal_1.iff	0	579.195	6	1003.32	0.961055	0	-0.276356	0		$|
5645551	0	object/static/structure/tatooine/debris_tatt_crate_metal_1.iff	0	579.026	6.22136	1003.56	0.812744	0.179454	0.449295	0.32462		$|
5645552	0	object/static/item/wp_mle_lance_vibroaxe.iff	0	577.191	6.88544	1010.77	-0.00887011	0.96373	0.26672	0.00245487		$|
5645553	0	object/static/structure/tatooine/debris_tatt_drum_storage_2.iff	0	575.715	6	1006.55	0.975897	0	-0.21823	0		$|
5645554	0	object/static/structure/tatooine/debris_tatt_drum_storage_2.iff	0	575.798	6	1005.89	0.995953	0	0.0898786	0		$|
5645555	0	object/static/structure/tatooine/debris_tatt_drum_storage_1.iff	0	576.731	6	1006.4	0.952334	0	-0.305059	0		$|
5645556	0	object/static/structure/tatooine/debris_tatt_drum_storage_2.iff	0	576.807	6.88544	1006.42	0.990216	0	0.139543	0		$|
6915358	0	object/building/military/outpost_starport.iff	0	592.308	6.03961	1039.28	-0.267499	0	0.963558	0	structure.municipal.starport	travel.air_time|0|60|travel.cost|0|150|travel.ground_time|0|300|travel.point_name|4|Trade Outpost|travel.shuttle_available|0|1|travel.version|0|3|$|
6915359	6915358	object/cell/cell.iff	1	0	0	0	1	1.401298E-45	0	0		$|
3946222	6915359	object/tangible/terminal/terminal_space.iff	1	-7.412682	0.146595	-19.21213	1	0	0	0		$|
6955366	0	object/building/corellia/ply_corl_house_m_s01_fp1.iff	0	603.157	6	987.739	1	0	0	0	planet_map.map_loc:structure.municipal.cantina:theme_park.dungeon.generic_spawner	spawn_table|4|datatables/spawning/poi_spawner/dathomir/dath_trade_outpost_spawns.iff|healing.canhealshock|0|1|safeLogout|0|1|$|
6955367	6955366	object/cell/cell.iff	1	0	0	0	1	1.401298E-45	0	0		$|
8346148	6955367	object/tangible/space/content_infrastructure/ground_npc_spawner.iff	1	-0.0	0.6	1.3	0.11057	0	0.993868	0	space.content_tools.npc_spawner	$|
2755355	6955367	object/static/item/item_glass_empty.iff	1	-0.3714617	1.352324	5.462603	1	0	0	0		$|
2755356	6955367	object/static/item/item_glass_empty.iff	1	0.1697344	1.352324	5.657495	1	0	0	0		$|
7015353	6955367	object/tangible/furniture/all/frn_all_table_s03.iff	1	-0.08248404	0.624999	5.507044	1	0	0	0		$|
7015354	6955367	object/tangible/furniture/all/frn_all_table_s03.iff	1	10.04106	0.624998	3.589533	0.7350879	0	0.6779718	0		$|
7015355	6955367	object/tangible/furniture/all/frn_all_table_s03.iff	1	6.289578	0.624998	1.086848	0.9089658	0	0.4168708	0		$|
7015356	6955367	object/tangible/furniture/all/frn_all_table_s03.iff	1	3.672724	0.624999	5.417244	1	0	0	0		$|
7015359	6955367	object/tangible/furniture/all/frn_all_chair_wooden_s1.iff	1	8.986	0.624998	2.526953	0.9004471	0	0.4349657	0		$|
7015360	6955367	object/tangible/furniture/all/frn_all_chair_wooden_s1.iff	1	9.199513	0.624998	4.909486	0.2336171	0	0.9723287	0		$|
7015361	6955367	object/tangible/furniture/all/frn_all_chair_wooden_s1.iff	1	7.782335	0.624998	1.161276	0.7109134	0	-0.7032796	0		$|
7015362	6955367	object/tangible/furniture/all/frn_all_chair_wooden_s1.iff	1	4.648243	0.624998	1.244799	0.7990994	0	0.6011989	0		$|
7015363	6955367	object/tangible/furniture/all/frn_all_chair_wooden_s1.iff	1	5.079302	0.624999	5.988844	-0.353019	0	0.935616	0		$|
7015364	6955367	object/tangible/furniture/all/frn_all_chair_wooden_s1.iff	1	2.430627	0.624999	6.054667	0.2819209	0	0.9594376	0		$|
7015365	6955367	object/tangible/furniture/all/frn_all_chair_wooden_s1.iff	1	-1.668582	0.625	5.31657	0.3389455	0	0.9408064	0		$|
7015366	6955367	object/tangible/furniture/all/frn_all_chair_wooden_s1.iff	1	1.423511	0.624999	4.484708	0.8187341	0	-0.574173	0		$|
7015367	6955367	object/tangible/furniture/cheap/chest_s01.iff	1	3.22376	0.624998	0.324927	1	0	0	0		$|
7015368	6955367	object/tangible/furniture/cheap/chest_s01.iff	1	1.965406	0.624999	0.3507804	1	0	0	0		$|
7015369	6955367	object/tangible/furniture/cheap/chest_s01.iff	1	1.971256	1.542059	0.3425337	1	0	0	0		$|
7015370	6955367	object/static/item/item_bowl_plain.iff	1	2.970567	1.573681	0.6200491	1	0	0	0		$|
7015371	6955367	object/static/item/item_cheese_wheel_s1_partial.iff	1	3.387011	1.605304	0.6977307	0.9689124	0	0.2474041	0		$|
7015372	6955367	object/static/item/item_bread_loaf.iff	1	2.970187	1.605304	0.617604	1	0	0	0		$|
7015373	6955367	object/static/item/item_con_ration_kit_lg.iff	1	6.142559	1.383944	1.125049	0.8020955	0	0.5971957	0		$|
7015374	6955367	object/static/item/item_con_ration_kit_lg.iff	1	2.128694	2.490743	0.3447539	1	0	0	0		$|
7015375	6955367	object/static/item/item_con_ration_kit_lg.iff	1	1.671352	2.490743	0.4035751	1	0	0	0		$|
7015376	6955367	object/static/item/item_con_ration_kit_m.iff	1	1.939574	2.490743	0.6767789	0.9747941	0	0.2231065	0		$|
7015377	6955367	object/static/item/item_bottle_fat.iff	1	3.595433	1.573681	0.3194755	0.9507964	0	-0.3098166	0		$|
7015378	6955367	object/static/item/item_bottle_tall.iff	1	3.153818	1.573681	0.1875872	0.9507964	0	-0.3098166	0		$|
7015379	6955367	object/static/item/item_bottle_pear.iff	1	9.98459	1.352322	3.442287	0.7350879	0	0.6779718	0		$|
7015380	6955367	object/static/item/item_con_plate_s1_full.iff	1	10.11485	1.383944	3.832809	0.7350879	0	0.6779718	0		$|
7555421	6955367	object/soundobject/soundobject_cantina_small.iff	1	4.240788	0.624999	3.452105	1	0	0	0		$|
6955368	6955366	object/cell/cell.iff	2	0	0	0	1	2.802597E-45	0	0		$|
7555372	6955368	object/tangible/furniture/modern/bar_counter_s1.iff	2	-9.258832	0.625	2.589919	1	0	0	0		$|
7555373	6955368	object/tangible/furniture/modern/bar_counter_s1.iff	2	-5.994314	0.625	5.863386	0.707107	0	0.7071065	0		$|
7555374	6955368	object/tangible/furniture/cheap/cabinet_s01.iff	2	-8.976795	0.625	5.718806	0.3993395	0	0.9168031	0		$|
7555375	6955368	object/static/item/item_container_energy_liquid.iff	2	-9.648193	0.625	4.799423	1	0	0	0		$|
7555376	6955368	object/static/item/item_container_energy_liquid.iff	2	-8.091872	0.625	6.362582	1	0	0	0		$|
7555377	6955368	object/static/item/item_bottle_fat.iff	2	-9.697556	1.731797	2.423624	1	0	0	0		$|
7555378	6955368	object/static/item/item_bottle_pear.iff	2	-9.36912	1.731797	2.535198	1	0	0	0		$|
7555379	6955368	object/static/item/item_bottle_fat.iff	2	-9.759635	1.731797	2.793621	1	0	0	0		$|
7555380	6955368	object/static/item/item_con_tato_cup_s2.iff	2	-5.998307	1.036096	6.225363	1	0	0	0		$|
7555381	6955368	object/static/item/item_con_tato_cup_s2.iff	2	-6.112586	1.036096	6.455404	1	0	0	0		$|
7555382	6955368	object/static/item/item_con_tato_cup_s2.iff	2	-5.952377	1.036096	6.424798	1	0	0	0		$|
7555383	6955368	object/static/item/item_con_tato_cup_s2.iff	2	-6.095261	1.036096	6.627486	1	0	0	0		$|
7555384	6955368	object/static/item/item_con_tato_cup_s2.iff	2	-5.933816	1.036096	6.626331	1	0	0	0		$|
7555420	6955368	object/soundobject/soundobject_cantina_small.iff	2	-7.494151	0.625	3.263262	1	0	0	0		$|
6955369	6955366	object/cell/cell.iff	3	0	0	0	1	4.203895E-45	0	0		$|
7555393	6955369	object/tangible/furniture/all/frn_all_table_s03.iff	3	-0.2304545	0.624999	-7.217697	1	0	0	0		$|
7555394	6955369	object/tangible/furniture/all/frn_all_table_s03.iff	3	-5.471072	0.624999	-6.651602	1	0	0	0		$|
7555395	6955369	object/tangible/furniture/all/frn_all_table_s03.iff	3	1.205989	0.624999	-3.280731	1	0	0	0		$|
7555396	6955369	object/tangible/furniture/all/frn_all_table_s03.iff	3	-6.930441	0.624999	-2.832167	1	0	0	0		$|
7555397	6955369	object/tangible/furniture/all/frn_all_table_s03.iff	3	-2.23735	0.625	-1.592214	1	0	0	0		$|
7555398	6955369	object/tangible/furniture/all/frn_all_chair_wooden_s1.iff	3	1.399397	0.624998	-7.710229	0.8892927	0	-0.4573385	0		$|
7555399	6955369	object/tangible/furniture/all/frn_all_chair_wooden_s1.iff	3	-1.426402	0.624998	-7.923128	0.9004471	0	0.4349656	0		$|
7555400	6955369	object/tangible/furniture/all/frn_all_chair_wooden_s1.iff	3	2.101947	0.625	-1.991272	-0.3809249	0	0.924606	0		$|
7555401	6955369	object/tangible/furniture/all/frn_all_chair_wooden_s1.iff	3	0.3324726	0.625	-2.1118	0.338946	0	0.9408058	0		$|
7555403	6955369	object/tangible/furniture/all/frn_all_chair_wooden_s1.iff	3	-0.9542969	0.625	-1.339059	0.7213823	0	-0.692537	0		$|
7555404	6955369	object/tangible/furniture/all/frn_all_chair_wooden_s1.iff	3	-3.653503	0.625	-1.36071	0.7451742	0	0.66687	0		$|
7555405	6955369	object/tangible/furniture/all/frn_all_chair_wooden_s1.iff	3	-8.274075	0.625	-2.03498	0.523366	0	0.852108	0		$|
7555406	6955369	object/tangible/furniture/all/frn_all_chair_wooden_s1.iff	3	-7.747559	0.624999	-3.80338	0.9358968	0	0.3522742	0		$|
7555407	6955369	object/tangible/furniture/all/frn_all_chair_wooden_s1.iff	3	-4.340814	0.624998	-7.625187	0.9410754	0	-0.3381966	0		$|
7555408	6955369	object/tangible/furniture/all/frn_all_chair_wooden_s1.iff	3	-6.795545	0.624999	-7.801753	0.884675	0	0.4662082	0		$|
7555409	6955369	object/tangible/furniture/all/frn_all_chair_wooden_s1.iff	3	-6.725844	0.624999	-5.697248	0.4266598	0	0.9044122	0		$|
7555410	6955369	object/static/item/item_bowl_plain.iff	3	-6.821038	1.352323	-2.867541	1	0	0	0		$|
7555411	6955369	object/static/item/item_bottle_tall.iff	3	-5.525078	0.624999	-8.276671	1	0	0	0		$|
7555412	6955369	object/static/item/item_con_tato_cup_s2.iff	3	-5.121	0.624999	-6.846076	1	0	0	0		$|
7555413	6955369	object/static/item/item_con_tato_cup_s2.iff	3	-5.749238	0.624999	-6.812761	1	0	0	0		$|
7555414	6955369	object/static/item/item_con_tato_cup_s2.iff	3	-5.498806	0.624999	-6.299762	1	0	0	0		$|
7555415	6955369	object/static/item/item_con_tato_cup_s2.iff	3	1.363289	0.624999	-2.88786	1	0	0	0		$|
7555417	6955369	object/soundobject/soundobject_cantina_small.iff	3	-1.84684	0.624999	-4.520779	1	0	0	0		$|
6955370	6955366	object/cell/cell.iff	4	0	0	0	1	5.605194E-45	0	0		$|
7015406	6955370	object/tangible/furniture/technical/cabinet_s01.iff	4	10.03902	0.625	-6.646997	0.9171208	0	-0.3986093	0		$|
7015407	6955370	object/tangible/furniture/technical/cabinet_s01.iff	4	7.735043	0.625	-1.238791	-3.200127E-08	0	1	0		$|
7015408	6955370	object/tangible/furniture/technical/bookcase_s01.iff	4	5.546001	0.625	-6.801924	0.9191024	0	0.3940187	0		$|
7015409	6955370	object/tangible/furniture/technical/bookcase_s01.iff	4	5.48076	0.625	-2.213638	0.3809249	0	0.924606	0		$|
7015410	6955370	object/tangible/furniture/technical/couch_s01.iff	4	7.63236	0.625	-7.483375	1	0	0	0		$|
7555386	6955370	object/tangible/furniture/modern/sofa_chair_modern_style_01.iff	4	9.011107	0.625	-3.813707	-0.514819	0	0.857299	0		$|
7555387	6955370	object/tangible/furniture/modern/sofa_chair_modern_style_01.iff	4	6.451303	0.625	-3.368167	0.2947594	0	0.9555715	0		$|
7555388	6955370	object/tangible/furniture/modern/sofa_chair_modern_style_01.iff	4	6.970664	0.625	-5.860578	0.9933948	0	0.1147467	0		$|
7555389	6955370	object/tangible/furniture/modern/table_modern_style_01.iff	4	7.418831	0.625	-4.265257	1	0	0	0		$|
6955398	0	object/building/military/outpost_shed.iff	0	577.423	6	992.553	0.92388	0	0.382683	0		$|
6955399	6955398	object/cell/cell.iff	1	0	0	0	1	1.401298E-45	0	0		$|
6955400	6955398	object/cell/cell.iff	2	0	0	0	1	2.802597E-45	0	0		$|
6955401	6955398	object/cell/cell.iff	3	0	0	0	1	4.203895E-45	0	0		$|
6955402	6955398	object/cell/cell.iff	4	0	0	0	1	5.605194E-45	0	0		$|
6955403	6955398	object/cell/cell.iff	5	0	0	0	1	7.006492E-45	0	0		$|
4547183	6955403	object/tangible/collection/rare_carbine_hair_trigger.iff	5	5.599895	1.950439	-4.524356	-0.2048278	0	0.708398	0.6483477		$|
6955404	6955398	object/cell/cell.iff	6	0	0	0	1	8.407791E-45	0	0		$|
1403881	6955404	object/tangible/furniture/all/frn_all_bed_sm_s1.iff	6	-3.634802	0.125266	-2.40663	0.707107	0	0.7071065	0		$|
1403882	6955404	object/tangible/furniture/all/frn_all_bed_sm_s1.iff	6	-3.601419	0.125266	-3.913009	0.7071114	0	0.7071016	0		$|
6955412	0	object/static/structure/corellia/corl_imprv_wall_4x16_s03.iff	0	641.318	5	1002.12	0.789992	0	-0.613117	0		$|
6955413	0	object/static/structure/military/military_column_weak_imperial_style_01.iff	0	639.332	6	994.375	0.789992	0	-0.613117	0		$|
6955414	0	object/static/structure/corellia/corl_imprv_wall_4x16_s03.iff	0	633.976	5	988.285	0.908966	0	-0.416871	0		$|
6955415	0	object/static/structure/military/military_column_weak_imperial_style_01.iff	0	628.756	6	982.223	0.908966	0	-0.416871	0		$|
6955416	0	object/static/structure/corellia/corl_imprv_wall_4x16_s03.iff	0	622.369	5	977.389	0.947651	0	-0.319309	0		$|
6955417	0	object/static/structure/military/military_column_weak_imperial_style_01.iff	0	616	6	972.549	0.947651	0	-0.319309	0		$|
6955418	0	object/static/structure/corellia/corl_imprv_wall_4x16_s03.iff	0	642.914	5	1017.99	-0.685868	0	0.727726	0		$|
6955419	0	object/static/structure/military/military_column_weak_imperial_style_01.iff	0	643.386	6	1010	-0.685868	0	0.727726	0		$|
6955420	0	object/static/structure/corellia/corl_imprv_wall_4x16_s03.iff	0	640.331	5	1033.69	-0.60582	0	0.795602	0		$|
6955421	0	object/static/structure/military/military_column_weak_imperial_style_01.iff	0	642.458	6	1025.98	-0.60582	0	0.795602	0		$|
6955422	0	object/static/structure/military/military_column_weak_imperial_style_01.iff	0	638.257	6.00451	1041.54	-0.408487	0	0.912764	0		$|
6955423	0	object/static/structure/corellia/corl_imprv_wall_4x16_s03.iff	0	632.927	5	1047.5	-0.408488	0	0.912764	0		$|
6955424	0	object/static/structure/corellia/corl_imprv_wall_4x16_s03.iff	0	620.923	5	1058.53	-0.315322	0	0.948985	0		$|
6955425	0	object/static/structure/military/military_column_weak_imperial_style_01.iff	0	627.333	6	1053.75	-0.315322	0	0.948985	0		$|
6955426	0	object/static/structure/corellia/corl_imprv_wall_4x16_s03.iff	0	606.404	5	1063.32	0.00920388	0	0.999958	0		$|
6955427	0	object/static/structure/military/military_column_weak_imperial_style_01.iff	0	614.402	6	1063.47	0.00920386	0	0.999958	0		$|
6955428	0	object/static/structure/military/military_column_weak_imperial_style_01.iff	0	598.205	6	1063.23	0.0142032	0	0.999899	0		$|
6955429	0	object/static/structure/corellia/corl_imprv_wall_4x16_s03.iff	0	590.209	5	1063	0.014203	0	0.999899	0		$|
6955430	0	object/static/structure/military/military_column_weak_imperial_style_01.iff	0	581.747	6	1062.77	0.00920401	0	0.999958	0		$|
6955431	0	object/static/structure/corellia/corl_imprv_wall_4x16_s03.iff	0	559.945	5	1056.69	0.393286	0	0.919416	0		$|
6955432	0	object/static/structure/military/military_column_weak_imperial_style_01.iff	0	565.469	6	1062.47	0.393286	0	0.919416	0		$|
6955433	0	object/static/structure/corellia/corl_imprv_wall_4x16_s03.iff	0	573.749	5	1062.62	0.00920401	0	0.999958	0		$|
6955434	0	object/static/structure/military/military_column_med_imperial_style_01.iff	0	554.096	6	1050.57	0.999888	0	-0.0149994	0		$|
6955435	0	object/static/structure/corellia/corl_imprv_wall_4x16_s03.iff	0	591.733	5	971.098	0.997189	0	0.0749298	0		$|
6955436	0	object/static/structure/corellia/corl_imprv_wall_4x16_s03.iff	0	607.675	5	971.105	0.996802	0	-0.0799153	0		$|
6955438	0	object/static/structure/military/military_column_weak_imperial_style_01.iff	0	599.778	6	969.832	0.996802	0	-0.0799153	0		$|
6955439	0	object/static/structure/corellia/corl_imprv_wall_4x16_s03.iff	0	577.225	5	977.01	0.953847	0	0.300293	0		$|
6955440	0	object/static/structure/corellia/corl_imprv_wall_4x16_s03.iff	0	565.216	5	987.461	0.917121	0	0.398609	0		$|
6955441	0	object/static/structure/military/military_column_weak_imperial_style_01.iff	0	583.823	6	972.294	0.997189	0	0.0749296	0		$|
6955442	0	object/static/structure/military/military_column_weak_imperial_style_01.iff	0	570.668	6	981.593	0.953847	0	0.300293	0		$|
6955443	0	object/static/structure/military/military_column_weak_imperial_style_01.iff	0	559.637	6	993.529	0.908966	0	0.41687	0		$|
6955444	0	object/static/structure/corellia/corl_imprv_wall_4x16_s03.iff	0	556.505	5	1001.05	0.833712	0	0.552199	0		$|
6955445	0	object/static/structure/military/military_column_weak_imperial_style_01.iff	0	553.385	6	1008.41	0.833712	0	0.5522	0		$|
6955446	0	object/static/structure/corellia/corl_imprv_wall_4x16_s03.iff	0	551.766	5	1016.09	0.764842	0	0.644218	0		$|
6955449	0	object/static/structure/military/military_column_med_imperial_style_01.iff	0	550.237	6	1024.69	0.99639	0	-0.0848972	0		$|
6955450	0	object/static/structure/corellia/corl_power_bubble_node.iff	0	630.151	6	1031.65	1	0	0	0		$|
6955451	0	object/static/structure/corellia/corl_power_bubble_node.iff	0	630.151	6	1025.65	1	0	0	0		$|
6955452	0	object/static/structure/corellia/corl_power_bubble_node.iff	0	626.151	6	1019.65	-3.20E-08	0	1	0		$|
6955453	0	object/static/structure/corellia/corl_power_bubble_node.iff	0	626.151	6	1025.65	1	0	0	0		$|
6955454	0	object/static/structure/corellia/corl_power_transformer_s02.iff	0	626.151	6	1031.65	1	0	0	0		$|
6955455	0	object/static/structure/corellia/corl_power_arial_prime.iff	0	628.151	6	1028.65	1	0	0	0		$|
6955456	0	object/static/structure/corellia/corl_power_arial_thin.iff	0	626.151	8.94092	1031.65	1	0	0	0		$|
6955457	0	object/static/structure/general/landing_pad_shuttle.iff	0	628.151	6	1025.65	1	0	0	0		$|
6955458	0	object/static/structure/corellia/corl_power_transformer_s02.iff	0	630.151	6	1019.65	-3.20E-08	0	1	0		$|
6955459	0	object/static/structure/corellia/corl_power_arial_thin.iff	0	630.151	6	1019.65	-3.20E-08	0	1	0		$|
6955460	0	object/static/structure/military/military_column_med_imperial_style_01.iff	0	533.128	6.69422	1024.56	0.710914	0	-0.703279	0		$|
6955461	0	object/static/structure/corellia/corl_imprv_wall_4x16_s03.iff	0	541.482	5.73877	1024.49	0.999375	-0.000174994	0.00499777	-0.0349924		$|
6955462	0	object/static/structure/military/military_column_med_imperial_style_01.iff	0	537.337	6.55746	1048.21	-0.656219	0	0.75457	0		$|
6955463	0	object/static/structure/corellia/corl_imprv_wall_4x16_s03.iff	0	545.46	5.4477	1049.32	0.99694	0.00244747	-0.0698991	-0.0349072		$|
6955464	0	object/static/item/item_container_inorganic_minerals.iff	0	615.3	6	1030.86	0.99955	0	0.029995	0		$|
6955465	0	object/static/item/item_container_inorganic_minerals.iff	0	615.288	6.88544	1029.82	0.998201	0	0.059964	0		$|
6955466	0	object/static/item/item_container_inorganic_minerals.iff	0	615.764	6	1029.23	0.735088	0	-0.677972	0		$|
6955467	0	object/static/item/item_container_inorganic_minerals.iff	0	617.793	6	1034.55	-0.029995	0	0.99955	0		$|
6955468	0	object/static/item/item_container_inorganic_minerals.iff	0	618.304	6.88544	1034.31	0.998988	0	-0.044985	0		$|
6955469	0	object/static/item/item_container_inorganic_minerals.iff	0	618.759	6	1034.24	1	0	0	0		$|
6955470	0	object/static/item/item_container_inorganic_minerals.iff	0	620.391	6	1052.87	-0.29552	0	0.955337	0		$|
6955471	0	object/static/item/item_container_inorganic_minerals.iff	0	620.708	6.88544	1052.4	0.974794	0	0.223106	0		$|
6955472	0	object/static/item/item_container_inorganic_minerals.iff	0	621.064	6	1052.11	0.963771	0	0.266731	0		$|
6955473	0	object/static/item/item_container_inorganic_minerals.iff	0	623.141	6	1050.57	-0.29552	0	0.955337	0		$|
6955474	0	object/static/item/item_container_inorganic_minerals.iff	0	623.458	6.88544	1050.11	0.974794	0	0.223106	0		$|
6955475	0	object/static/item/item_container_inorganic_minerals.iff	0	623.814	6	1049.82	0.963771	0	0.266731	0		$|
6955476	0	object/static/structure/tatooine/debris_tatt_drum_storage_1.iff	0	604.792	6	1024.51	0.783821	0	-0.620987	0		$|
6955477	0	object/static/structure/tatooine/debris_tatt_drum_storage_1.iff	0	605.838	6	1024.81	-0.42666	0	0.904412	0		$|
6955478	0	object/static/structure/tatooine/debris_tatt_drum_storage_1.iff	0	606.435	6	1024.16	0.900447	0	-0.434965	0		$|
6955479	0	object/static/structure/tatooine/debris_tatt_drum_storage_1.iff	0	606.139	6.88544	1024.54	0.380925	0	0.924606	0		$|
6955480	0	object/static/structure/tatooine/debris_tatt_crate_metal_1.iff	0	605.713	6	1023.66	-0.179812	0	0.983701	0		$|
6955481	0	object/static/structure/tatooine/debris_tatt_drum_storage_1.iff	0	605.489	6	1022.81	0.979061	0	0.203567	0		$|
6955482	0	object/static/structure/tatooine/debris_tatt_crate_metal_1.iff	0	604.7	6	1023.43	-0.640996	0	0.767544	0		$|
6955483	0	object/static/structure/tatooine/debris_tatt_crate_metal_1.iff	0	604.279	6	1022.93	-0.426659	0	0.904413	0		$|
6955484	0	object/static/item/item_container_inorganic_minerals.iff	0	627.347	6	1046.01	-0.29552	0	0.955337	0		$|
6955485	0	object/static/item/item_container_inorganic_minerals.iff	0	627.664	6.88544	1045.54	0.974794	0	0.223106	0		$|
6955486	0	object/static/item/item_container_inorganic_minerals.iff	0	628.02	6	1045.25	0.963771	0	0.266731	0		$|
6955487	0	object/static/item/item_container_inorganic_minerals.iff	0	624.733	6	993.092	-0.29552	0	0.955337	0		$|
6955488	0	object/static/item/item_container_inorganic_minerals.iff	0	625.051	6.88544	992.627	0.974794	0	0.223106	0		$|
6955489	0	object/static/item/item_container_inorganic_minerals.iff	0	625.406	6	992.336	0.963771	0	0.266731	0		$|
6955490	0	object/static/item/item_container_inorganic_minerals.iff	0	626.645	6	1049.62	-0.029995	0	0.99955	0		$|
6955491	0	object/static/item/item_container_inorganic_minerals.iff	0	627.156	6.88544	1049.39	0.998988	0	-0.044985	0		$|
6955492	0	object/static/item/item_container_inorganic_minerals.iff	0	627.611	6	1049.32	1	0	0	0		$|
6955493	0	object/static/item/item_container_inorganic_minerals.iff	0	632.255	6	1046.39	0.324797	0	0.945784	0		$|
6955494	0	object/static/item/item_container_inorganic_minerals.iff	0	631.581	6.88544	1047.17	0.296281	0	0.955101	0		$|
6955495	0	object/static/item/item_container_inorganic_minerals.iff	0	630.831	6	1047.3	0.893822	0	0.448422	0		$|
7015415	0	object/tangible/crafting/station/public_clothing_station.iff	0	579.75	6	1002.38	0.373426	0	0.92766	0		$|
7015416	0	object/tangible/crafting/station/public_structure_station.iff	0	587.764	6	994.583	0.92388	0	0.382683	0		$|
7015420	0	object/static/structure/general/streetlamp_small_blue_style_01.iff	0	620.365	6	1003.78	1	0	0	0		$|
7015421	0	object/static/structure/general/streetlamp_small_blue_style_01.iff	0	575.279	6	1014.65	1	0	0	0		$|
7015422	0	object/static/structure/general/streetlamp_small_blue_style_01.iff	0	581.719	6	998.498	0.92388	0	-0.382683	0		$|
7015424	0	object/static/structure/general/streetlamp_small_blue_style_01.iff	0	533.18	8.65161	1026.4	0.991251	-0.0348529	0.00447337	-0.127227		$|
7015425	0	object/static/structure/general/streetlamp_small_blue_style_01.iff	0	554.422	6.83101	1048.74	0.998362	0.0114158	-0.0550851	-0.0104298		$|
7015426	0	object/static/structure/general/streetlamp_small_red_style_01.iff	0	580.765	9.8153	1049.41	-3.10E-08	0.970137	7.76E-09	-0.242556		$|
7015427	0	object/static/structure/general/streetlamp_small_red_style_01.iff	0	606.861	9.82719	1034.43	-2.77E-08	0.865324	-1.60E-08	0.501213		$|
7015428	0	object/static/structure/general/streetlamp_small_red_style_01.iff	0	593.6	9.82718	1042.28	-2.77E-08	0.865324	-1.60E-08	0.501213		$|
7015429	0	object/static/structure/general/tankfarm_s01.iff	0	612.853	6	1055.47	0.963047	0	0.269332	0		$|
7015430	0	object/static/structure/general/tankfarm_s01.iff	0	605.711	6.00188	1059.67	0.963047	0	0.269332	0		$|
7015431	0	object/static/item/item_container_inorganic_minerals.iff	0	590.881	6	1042.34	0.731689	0	0.681638	0		$|
7015432	0	object/static/item/item_container_inorganic_minerals.iff	0	591.441	6.88544	1041.83	0.0157956	0	0.999875	0		$|
7015433	0	object/static/item/item_container_inorganic_minerals.iff	0	591.586	6	1040.8	0.0457809	0	0.998952	0		$|
7015434	0	object/static/structure/tatooine/debris_tatt_crate_metal_1.iff	0	589.258	6	1039.77	0.808027	0	-0.589146	0		$|
7015435	0	object/static/structure/tatooine/debris_tatt_drum_storage_1.iff	0	590.062	6	1040.73	0.995953	0	0.0898772	0		$|
7015436	0	object/static/structure/tatooine/debris_tatt_drum_storage_1.iff	0	590.414	6	1039.7	0.932328	0	-0.361615	0		$|
7015437	0	object/static/structure/tatooine/debris_tatt_drum_storage_1.iff	0	589.793	6	1039.07	0.952333	0	0.305059	0		$|
7015438	0	object/static/structure/tatooine/debris_tatt_crate_metal_1.iff	0	588.972	6	1040.77	0.993395	0	-0.114747	0		$|
7015439	0	object/static/structure/tatooine/debris_tatt_crate_metal_1.iff	0	588.459	6	1041.16	0.932326	0	-0.361618	0		$|
7015441	0	object/tangible/crafting/station/public_weapon_station.iff	0	576.017	6	1010.24	0.707107	0	0.707106	0		$|
7015458	0	object/static/structure/tatooine/debris_tatt_drum_storage_1.iff	0	624.414	6	990.971	-0.357693	0	0.933839	0		$|
7015459	0	object/static/structure/tatooine/debris_tatt_crate_metal_1.iff	0	624.969	6	990.138	0.655016	0	0.755615	0		$|
7015460	0	object/static/structure/tatooine/debris_tatt_crate_metal_1.iff	0	625.523	6	990.471	0.824435	0	0.565956	0		$|
7015462	0	object/tangible/terminal/terminal_mission.iff	0	575.334	6	1017.02	0.707107	0	0.707106	0		$|
7015466	0	object/static/structure/general/streetlamp_medium_blue_style_02.iff	0	447.364	-0.117483	1049.38	0.717911	0	-0.696135	0		$|
7555370	0	object/tangible/crafting/station/food_station.iff	0	591.075	6	989.898	0.707107	0	-0.707106	0		$|
8575630	0	object/static/structure/general/streetlamp_medium_red_style_01.iff	0	605.059	6	1005.18	0.707107	0	-0.707107	0		$|
8575631	0	object/static/structure/general/streetlamp_medium_red_style_01.iff	0	589.655	6	1009.14	0.707107	0	0.707107	0		$|
8575632	0	object/static/structure/general/streetlamp_medium_red_style_01.iff	0	625.149	6	1047.47	-0.298098	0	0.954535	0		$|
8715555	0	object/static/structure/dathomir/dath_imprv_flagpole_s01.iff	0	568.754	13.7501	1045.13	1	0	0	0		$|
8715556	0	object/static/structure/dathomir/dath_imprv_flagpole_s01.iff	0	608.447	13.8038	1021.01	1	0	0	0		$|
8715557	0	object/static/structure/dathomir/dath_imprv_flagpole_s01.iff	0	554.127	10.1423	1050.54	1	0	0	0		$|
8715558	0	object/static/structure/dathomir/dath_imprv_flagpole_s01.iff	0	550.254	10.1119	1024.71	1	0	0	0		$|
9725662	0	object/static/structure/dathomir/mtn_clan_crows_nest_s01.iff	0	1485.88	140.893	1466.14	0.0806995	0.0149524	0.00118677	0.996626		$|
9725670	0	object/static/structure/dantooine/dant_boundary_post.iff	0	1476.91	131.908	1469.58	0.857709	0	-0.514136	0		$|
9725671	0	object/static/structure/dantooine/dant_boundary_post.iff	0	1489.21	130.116	1470.66	0.865324	0	0.501213	0		$|
9725679	0	object/static/structure/dantooine/dant_skull_bol.iff	0	1482.15	131.551	1472.02	1	0	0	0		$|
9725680	0	object/static/structure/dantooine/dant_skull_lizard.iff	0	1489.81	130.304	1464.56	1	0	0	0		$|
